DECK SELECTED: CHE0NSU’S YOGG TEMPO MAGE; ITERATIONS 5; POPULATION_SIZE 30; GAMES 30; SELECTION TOURNAMENT; CROSSOVER 0.7f; MUTATION 0.1f; IA Game state value;

-- Populacao inicial, iteracao 0 --
[1.07, 0.36, 1.1, 7.15, 4.26, 9.2, 9.22, 8.1, 6.73, 4.74, 2.52, 7.07] - FIT: -Infinity
[6.98, 0.6, 9.65, 9.06, 8.5, 4.47, 6.6, 3.58, 6.81, 6.36, 0.13, 0.87] - FIT: -Infinity
[7.78, 4.15, 5.82, 3.78, 3.93, 7.46, 4.92, 6.3, 5.89, 9.42, 6.98, 7.22] - FIT: -Infinity
[4.01, 5.24, 1.05, 0.69, 1.52, 5.9, 6.97, 3.63, 4.01, 5.02, 9.52, 3.82] - FIT: -Infinity
[1.72, 7.17, 2.61, 1.26, 0.58, 6.02, 7.5, 9.99, 5.03, 1.93, 9.09, 6.75] - FIT: -Infinity
[0.69, 8.88, 6.97, 8.36, 7.75, 2.84, 3.23, 9.45, 6.8, 4.53, 7.52, 7.84] - FIT: -Infinity
[6.74, 2.06, 0.89, 6.11, 1.37, 0.83, 3.73, 3.44, 4.76, 1.03, 0.08, 3.88] - FIT: -Infinity
[7.67, 5.52, 9.97, 3.67, 6.9, 4.56, 3.8, 2.43, 6.98, 7.04, 8.02, 0.65] - FIT: -Infinity
[8.95, 1.78, 9.32, 8.26, 4.06, 6.85, 5.25, 7.57, 1.25, 8.88, 2.92, 6.93] - FIT: -Infinity
[5.89, 9.56, 3.8, 0.23, 4.05, 1.33, 1.73, 1.38, 0.72, 9.71, 3.61, 2.22] - FIT: -Infinity
[2.75, 5.56, 6.75, 6.9, 7.27, 6.42, 4.65, 5.6, 4.06, 2.54, 3.69, 6.06] - FIT: -Infinity
[6.23, 9.76, 6.05, 1.41, 6.58, 8.49, 0.68, 9.16, 8.86, 5.13, 2.82, 7.1] - FIT: -Infinity
[1.66, 0.09, 4.49, 8.39, 9.86, 4.31, 2.63, 0.12, 3.23, 4.32, 9.33, 6.39] - FIT: -Infinity
[4.21, 4.72, 8.26, 9.73, 7.28, 5.41, 4.88, 2.31, 0.35, 0.39, 3.45, 1.28] - FIT: -Infinity
[4.79, 4.06, 2.6, 1.2, 4.22, 1.18, 2.62, 0.09, 3.83, 6.27, 1.95, 4.59] - FIT: -Infinity
[1.58, 8.88, 7.11, 4.08, 9.42, 2.0, 0.59, 3.24, 8.19, 1.49, 3.47, 7.35] - FIT: -Infinity
[2.14, 6.15, 5.25, 5.09, 0.17, 9.59, 1.67, 8.87, 8.91, 6.79, 2.24, 3.97] - FIT: -Infinity
[9.24, 0.96, 3.35, 3.37, 1.97, 8.37, 9.28, 7.46, 0.02, 2.28, 3.25, 3.73] - FIT: -Infinity
[4.49, 9.77, 2.79, 4.38, 9.2, 9.23, 9.0, 6.87, 3.81, 9.85, 7.15, 5.13] - FIT: -Infinity
[8.72, 8.72, 7.09, 7.52, 5.78, 5.5, 5.06, 0.6, 7.79, 9.62, 5.58, 6.75] - FIT: -Infinity
[6.21, 9.69, 0.67, 7.67, 0.87, 0.67, 6.15, 4.71, 7.85, 9.59, 9.45, 2.23] - FIT: -Infinity
[1.38, 6.99, 0.97, 9.51, 3.89, 7.39, 1.59, 2.48, 3.39, 8.86, 2.29, 6.62] - FIT: -Infinity
[1.51, 8.65, 7.78, 8.66, 6.01, 9.12, 5.0, 5.71, 1.41, 5.91, 9.24, 6.88] - FIT: -Infinity
[7.65, 7.97, 4.99, 4.38, 1.76, 7.54, 5.9, 8.16, 9.94, 6.48, 8.85, 0.61] - FIT: -Infinity
[7.63, 4.32, 9.42, 5.49, 3.55, 2.53, 2.53, 8.47, 9.35, 8.85, 0.12, 4.84] - FIT: -Infinity
[0.54, 5.56, 9.43, 3.87, 5.7, 5.31, 9.51, 8.04, 0.56, 8.85, 0.82, 9.85] - FIT: -Infinity
[0.55, 9.57, 2.36, 8.46, 0.63, 0.65, 3.78, 3.34, 3.79, 2.3, 5.03, 2.43] - FIT: -Infinity
[0.6, 7.92, 4.7, 7.7, 0.1, 9.98, 9.17, 2.13, 9.22, 9.04, 8.54, 8.02] - FIT: -Infinity
[1.49, 1.41, 2.3, 8.24, 7.86, 4.22, 6.8, 8.72, 2.23, 9.82, 9.47, 2.78] - FIT: -Infinity
[1.69, 4.82, 9.46, 5.02, 6.83, 3.01, 2.53, 5.53, 0.57, 5.62, 8.9, 3.12] - FIT: -Infinity

BEST LOCAL : iteracao 0
[2.75, 5.56, 6.75, 6.9, 7.27, 6.42, 4.65, 5.6, 4.06, 2.54, 7.15, 5.13] - FIT: 17.0
DECK0 TAREI’S WARLOCK ZOO - 4
DECK1 CHE0NSU’S YOGG TEMPO MAGE - 4
DECK2 YULSIC’S MIDRANGE SHAMAN - 3
DECK3 FR0ZEN’S N’ZOTH PALADIN - 2
DECK4 JASONZHOU’S N’ZOTH CONTROL WARRIOR - 1
DECK5 AMNESIAC’S SECRET FACE - 3

----> BEST : iteracao 0
[2.75, 5.56, 6.75, 6.9, 7.27, 6.42, 4.65, 5.6, 4.06, 2.54, 7.15, 5.13] - FIT: 17.0
DECK0 TAREI’S WARLOCK ZOO - 4
DECK1 CHE0NSU’S YOGG TEMPO MAGE - 4
DECK2 YULSIC’S MIDRANGE SHAMAN - 3
DECK3 FR0ZEN’S N’ZOTH PALADIN - 2
DECK4 JASONZHOU’S N’ZOTH CONTROL WARRIOR - 1
DECK5 AMNESIAC’S SECRET FACE - 3

BEST LOCAL : iteracao 0
[4.49, 9.77, 2.69, 4.38, 9.2, 9.23, 9.0, 6.87, 3.81, 9.85, 3.69, 6.06] - FIT: 17.0
DECK0 JASONZHOU’S N’ZOTH CONTROL WARRIOR - 5
DECK1 FR0ZEN’S N’ZOTH PALADIN - 1
DECK2 YULSIC’S MIDRANGE SHAMAN - 1
DECK3 CHE0NSU’S YOGG TEMPO MAGE - 4
DECK4 TAREI’S WARLOCK ZOO - 3
DECK5 AMNESIAC’S SECRET FACE - 3

----> BEST : iteracao 0
[4.49, 9.77, 2.69, 4.38, 9.2, 9.23, 9.0, 6.87, 3.81, 9.85, 3.69, 6.06] - FIT: 17.0
DECK0 JASONZHOU’S N’ZOTH CONTROL WARRIOR - 5
DECK1 FR0ZEN’S N’ZOTH PALADIN - 1
DECK2 YULSIC’S MIDRANGE SHAMAN - 1
DECK3 CHE0NSU’S YOGG TEMPO MAGE - 4
DECK4 TAREI’S WARLOCK ZOO - 3
DECK5 AMNESIAC’S SECRET FACE - 3

BEST LOCAL : iteracao 0
[3.85, 9.77, 2.69, 4.38, 9.2, 9.23, 9.0, 6.87, 3.81, 2.78, 3.69, 6.06] - FIT: 20.0
DECK0 AMNESIAC’S SECRET FACE - 3
DECK1 CHE0NSU’S YOGG TEMPO MAGE - 2
DECK2 JASONZHOU’S N’ZOTH CONTROL WARRIOR - 5
DECK3 TAREI’S WARLOCK ZOO - 2
DECK4 YULSIC’S MIDRANGE SHAMAN - 4
DECK5 FR0ZEN’S N’ZOTH PALADIN - 4

----> BEST : iteracao 0
[3.85, 9.77, 2.69, 4.38, 9.2, 9.23, 9.0, 6.87, 3.81, 2.78, 3.69, 6.06] - FIT: 20.0
DECK0 AMNESIAC’S SECRET FACE - 3
DECK1 CHE0NSU’S YOGG TEMPO MAGE - 2
DECK2 JASONZHOU’S N’ZOTH CONTROL WARRIOR - 5
DECK3 TAREI’S WARLOCK ZOO - 2
DECK4 YULSIC’S MIDRANGE SHAMAN - 4
DECK5 FR0ZEN’S N’ZOTH PALADIN - 4

BEST LOCAL : iteracao 0
[6.98, 0.6, 9.65, 9.06, 8.5, 4.47, 6.6, 3.58, 6.81, 6.36, 0.13, 0.87] - FIT: 17.0
DECK0 YULSIC’S MIDRANGE SHAMAN - 1
DECK1 CHE0NSU’S YOGG TEMPO MAGE - 2
DECK2 FR0ZEN’S N’ZOTH PALADIN - 4
DECK3 TAREI’S WARLOCK ZOO - 3
DECK4 AMNESIAC’S SECRET FACE - 4
DECK5 JASONZHOU’S N’ZOTH CONTROL WARRIOR - 3

BEST LOCAL : iteracao 0
[6.98, 5.56, 6.75, 6.9, 7.27, 6.42, 4.65, 5.6, 4.06, 9.85, 5.7, 6.06] - FIT: 18.0
DECK0 AMNESIAC’S SECRET FACE - 4
DECK1 JASONZHOU’S N’ZOTH CONTROL WARRIOR - 5
DECK2 FR0ZEN’S N’ZOTH PALADIN - 2
DECK3 TAREI’S WARLOCK ZOO - 2
DECK4 CHE0NSU’S YOGG TEMPO MAGE - 3
DECK5 YULSIC’S MIDRANGE SHAMAN - 2

BEST LOCAL : iteracao 0
[6.98, 5.56, 9.65, 9.06, 7.27, 6.42, 4.65, 5.6, 4.06, 2.54, 3.69, 3.91] - FIT: 17.0
DECK0 FR0ZEN’S N’ZOTH PALADIN - 1
DECK1 AMNESIAC’S SECRET FACE - 4
DECK2 TAREI’S WARLOCK ZOO - 2
DECK3 JASONZHOU’S N’ZOTH CONTROL WARRIOR - 5
DECK4 CHE0NSU’S YOGG TEMPO MAGE - 2
DECK5 YULSIC’S MIDRANGE SHAMAN - 3

BEST LOCAL : iteracao 0
[3.85, 9.77, 9.65, 9.06, 7.27, 6.42, 6.6, 5.6, 4.06, 1.61, 3.69, 6.06] - FIT: 17.0
DECK0 TAREI’S WARLOCK ZOO - 3
DECK1 AMNESIAC’S SECRET FACE - 4
DECK2 FR0ZEN’S N’ZOTH PALADIN - 2
DECK3 YULSIC’S MIDRANGE SHAMAN - 0
DECK4 CHE0NSU’S YOGG TEMPO MAGE - 3
DECK5 JASONZHOU’S N’ZOTH CONTROL WARRIOR - 5


-- Nova iteraçao --
-- Populacao inicial, iteracao 1 --
[5.77, 6.42, 5.16, 3.39, 9.55, 7.74, 8.83, 3.47, 8.06, 1.12, 3.17, 0.27] - FIT: -Infinity
[1.65, 4.41, 3.46, 3.28, 7.31, 2.2, 4.46, 2.76, 7.1, 8.48, 1.24, 0.14] - FIT: -Infinity
[7.91, 7.15, 9.58, 2.06, 6.2, 8.69, 4.62, 9.37, 2.81, 2.19, 2.12, 4.5] - FIT: -Infinity
[6.65, 7.98, 1.36, 3.26, 2.9, 7.9, 0.18, 0.1, 0.71, 6.75, 2.44, 9.02] - FIT: -Infinity
[8.17, 0.7, 5.96, 5.69, 6.9, 5.92, 3.84, 0.57, 7.08, 3.42, 5.63, 6.49] - FIT: -Infinity
[4.3, 3.99, 5.65, 9.0, 3.24, 0.75, 4.19, 2.37, 9.63, 5.29, 4.57, 9.28] - FIT: -Infinity
[1.16, 7.52, 2.64, 7.61, 0.07, 8.56, 8.17, 3.44, 4.97, 0.63, 7.13, 5.48] - FIT: -Infinity
[7.11, 7.95, 1.94, 2.43, 6.88, 7.71, 2.28, 1.3, 9.37, 0.84, 2.58, 2.0] - FIT: -Infinity
[4.37, 8.26, 3.46, 0.41, 4.55, 9.25, 3.61, 0.01, 7.75, 5.31, 5.28, 9.86] - FIT: -Infinity
[3.64, 4.49, 1.59, 5.17, 2.25, 8.43, 5.86, 4.88, 2.49, 6.74, 4.09, 9.85] - FIT: -Infinity
[1.08, 1.03, 9.3, 4.2, 8.76, 4.1, 2.82, 1.9, 8.78, 7.9, 1.01, 0.36] - FIT: -Infinity
[4.42, 8.01, 7.88, 3.13, 6.24, 0.83, 3.0, 3.8, 6.96, 4.43, 1.66, 4.37] - FIT: -Infinity
[1.74, 3.32, 9.09, 2.03, 4.24, 2.65, 3.33, 9.74, 4.27, 7.18, 2.08, 7.75] - FIT: -Infinity
[1.25, 6.3, 7.34, 5.08, 8.68, 7.05, 7.64, 2.08, 8.86, 3.26, 2.11, 8.23] - FIT: -Infinity
[3.76, 0.65, 2.26, 1.75, 7.44, 4.06, 7.09, 1.03, 7.81, 5.77, 4.81, 1.59] - FIT: -Infinity
[0.86, 0.6, 9.44, 5.65, 8.0, 6.83, 4.12, 6.03, 8.57, 9.6, 3.58, 0.31] - FIT: -Infinity
[2.69, 6.99, 7.11, 5.9, 6.13, 7.79, 9.85, 1.95, 8.44, 3.68, 4.89, 9.36] - FIT: -Infinity
[7.09, 8.07, 0.41, 5.74, 5.65, 8.42, 6.46, 8.32, 1.57, 8.73, 3.73, 4.22] - FIT: -Infinity
[9.46, 4.1, 2.17, 3.9, 9.34, 0.1, 0.84, 0.84, 5.14, 5.13, 1.8, 7.52] - FIT: -Infinity
[7.83, 5.45, 9.49, 5.63, 9.36, 8.99, 4.47, 6.14, 7.79, 5.71, 4.65, 3.0] - FIT: -Infinity
[1.71, 9.59, 9.95, 3.18, 2.12, 9.73, 6.34, 4.07, 2.72, 5.6, 3.81, 8.72] - FIT: -Infinity
[5.62, 4.75, 8.18, 8.87, 7.89, 9.63, 0.99, 5.33, 5.99, 3.7, 2.82, 5.54] - FIT: -Infinity
[8.98, 6.17, 5.1, 8.36, 9.01, 8.99, 2.51, 6.99, 6.83, 9.13, 3.07, 1.96] - FIT: -Infinity
[3.2, 4.58, 5.94, 7.24, 2.35, 2.05, 7.53, 4.58, 1.85, 0.76, 4.82, 2.64] - FIT: -Infinity
[4.66, 6.68, 1.51, 0.27, 2.66, 8.57, 6.02, 5.46, 8.03, 8.08, 2.8, 4.59] - FIT: -Infinity
[8.06, 3.27, 7.96, 9.9, 1.77, 6.97, 7.5, 6.34, 1.31, 8.78, 2.1, 3.08] - FIT: -Infinity
[9.63, 2.34, 5.32, 9.01, 6.4, 7.46, 3.06, 5.97, 7.77, 0.16, 1.0, 8.2] - FIT: -Infinity
[2.1, 2.25, 3.2, 1.91, 2.99, 6.24, 9.31, 3.66, 2.86, 0.45, 0.44, 2.68] - FIT: -Infinity
[5.28, 3.98, 3.26, 7.53, 2.07, 1.15, 0.0, 4.67, 1.22, 0.05, 7.78, 2.26] - FIT: -Infinity
[5.53, 0.68, 3.64, 0.26, 7.51, 3.82, 3.58, 4.71, 5.33, 3.01, 2.43, 1.79] - FIT: -Infinity

BEST LOCAL : iteracao 1
[7.11, 7.95, 1.94, 2.43, 6.88, 7.71, 2.28, 1.3, 9.37, 0.84, 2.58, 2.0] - FIT: 16.0
DECK0 AMNESIAC’S SECRET FACE - 4
DECK1 CHE0NSU’S YOGG TEMPO MAGE - 3
DECK2 JASONZHOU’S N’ZOTH CONTROL WARRIOR - 4
DECK3 TAREI’S WARLOCK ZOO - 2
DECK4 FR0ZEN’S N’ZOTH PALADIN - 2
DECK5 YULSIC’S MIDRANGE SHAMAN - 1

BEST LOCAL : iteracao 1
[1.71, 9.59, 9.95, 3.18, 2.12, 9.73, 6.34, 4.07, 2.72, 5.6, 3.81, 0.27] - FIT: 19.0
DECK0 TAREI’S WARLOCK ZOO - 3
DECK1 AMNESIAC’S SECRET FACE - 4
DECK2 FR0ZEN’S N’ZOTH PALADIN - 2
DECK3 YULSIC’S MIDRANGE SHAMAN - 2
DECK4 CHE0NSU’S YOGG TEMPO MAGE - 3
DECK5 JASONZHOU’S N’ZOTH CONTROL WARRIOR - 5

BEST LOCAL : iteracao 1
[8.98, 6.17, 3.46, 0.41, 4.55, 9.93, 3.61, 0.01, 9.37, 0.84, 3.07, 1.96] - FIT: 19.0
DECK0 AMNESIAC’S SECRET FACE - 5
DECK1 YULSIC’S MIDRANGE SHAMAN - 3
DECK2 CHE0NSU’S YOGG TEMPO MAGE - 3
DECK3 FR0ZEN’S N’ZOTH PALADIN - 1
DECK4 JASONZHOU’S N’ZOTH CONTROL WARRIOR - 4
DECK5 TAREI’S WARLOCK ZOO - 3

BEST LOCAL : iteracao 1
[7.11, 7.95, 1.94, 2.43, 6.88, 7.71, 2.28, 1.3, 9.37, 1.88, 2.58, 2.0] - FIT: 17.0
DECK0 YULSIC’S MIDRANGE SHAMAN - 2
DECK1 AMNESIAC’S SECRET FACE - 5
DECK2 FR0ZEN’S N’ZOTH PALADIN - 2
DECK3 CHE0NSU’S YOGG TEMPO MAGE - 2
DECK4 TAREI’S WARLOCK ZOO - 4
DECK5 JASONZHOU’S N’ZOTH CONTROL WARRIOR - 2


-- Nova iteraçao --
-- Populacao inicial, iteracao 2 --
[4.57, 3.06, 0.48, 0.86, 5.25, 1.99, 7.13, 9.26, 9.8, 5.86, 5.86, 0.45] - FIT: -Infinity
[8.02, 2.94, 7.83, 8.22, 3.74, 0.42, 4.22, 9.89, 3.82, 6.97, 2.82, 8.4] - FIT: -Infinity
[1.13, 6.99, 6.03, 9.08, 6.5, 4.1, 3.75, 2.74, 6.22, 4.14, 1.04, 4.64] - FIT: -Infinity
[4.75, 4.15, 3.32, 6.46, 7.38, 4.49, 1.01, 4.37, 3.87, 5.7, 1.48, 1.88] - FIT: -Infinity
[1.89, 0.45, 8.77, 0.56, 8.81, 3.67, 0.42, 4.94, 1.34, 0.44, 6.47, 0.95] - FIT: -Infinity
[5.05, 2.46, 7.71, 8.3, 0.26, 8.56, 9.17, 8.36, 6.22, 3.6, 9.86, 8.46] - FIT: -Infinity
[3.1, 3.38, 1.95, 2.66, 9.95, 0.04, 0.68, 6.6, 7.41, 3.65, 1.39, 1.21] - FIT: -Infinity
[5.85, 0.99, 1.68, 5.79, 3.22, 1.54, 4.67, 6.41, 2.05, 4.33, 3.95, 9.16] - FIT: -Infinity
[1.54, 6.45, 2.29, 1.48, 9.35, 5.66, 3.64, 6.66, 6.94, 4.85, 2.5, 8.1] - FIT: -Infinity
[4.28, 5.93, 5.63, 0.17, 2.14, 4.13, 8.44, 2.06, 5.15, 1.66, 2.49, 9.34] - FIT: -Infinity
[4.57, 1.05, 1.24, 5.57, 7.4, 4.84, 8.12, 3.07, 7.81, 7.72, 4.88, 7.26] - FIT: -Infinity
[7.35, 1.42, 8.43, 4.08, 2.97, 0.66, 1.18, 3.67, 5.65, 0.38, 3.36, 6.26] - FIT: -Infinity
[7.74, 0.93, 5.7, 8.24, 4.47, 7.61, 7.47, 7.43, 3.27, 5.88, 7.88, 6.42] - FIT: -Infinity
[4.85, 1.21, 8.62, 2.17, 1.75, 5.44, 1.3, 8.12, 3.12, 7.7, 6.8, 2.27] - FIT: -Infinity
[9.56, 8.54, 2.23, 1.12, 7.89, 0.63, 7.74, 4.58, 4.05, 7.65, 7.48, 1.48] - FIT: -Infinity
[1.52, 6.17, 8.23, 8.71, 3.84, 1.87, 4.72, 9.7, 2.53, 2.06, 2.93, 9.37] - FIT: -Infinity
[5.57, 1.79, 1.2, 3.64, 7.89, 9.52, 4.54, 0.86, 2.07, 1.29, 9.06, 2.0] - FIT: -Infinity
[6.65, 9.67, 2.05, 3.49, 9.92, 4.62, 8.21, 4.31, 8.81, 8.81, 3.98, 4.33] - FIT: -Infinity
[6.31, 9.1, 9.97, 6.2, 5.91, 9.27, 6.4, 7.27, 8.08, 6.43, 7.34, 0.98] - FIT: -Infinity
[2.34, 5.09, 7.59, 9.59, 8.07, 8.21, 0.26, 1.28, 8.66, 4.36, 4.03, 5.11] - FIT: -Infinity
[6.54, 3.59, 6.59, 6.75, 1.1, 2.35, 4.73, 6.19, 7.71, 9.65, 2.2, 6.57] - FIT: -Infinity
[3.4, 2.35, 3.55, 9.45, 4.28, 7.45, 5.98, 7.81, 0.25, 3.28, 1.45, 2.73] - FIT: -Infinity
[5.04, 9.22, 8.08, 3.37, 3.49, 6.04, 3.43, 3.0, 3.24, 4.82, 2.16, 5.49] - FIT: -Infinity
[5.26, 2.67, 6.97, 7.71, 6.02, 7.89, 5.08, 3.63, 4.32, 5.24, 1.86, 4.43] - FIT: -Infinity
[7.46, 4.73, 9.74, 7.78, 4.67, 3.55, 3.13, 6.16, 0.58, 1.34, 9.4, 0.72] - FIT: -Infinity
[7.82, 3.62, 2.04, 2.24, 5.87, 6.79, 4.43, 5.59, 2.66, 0.96, 1.83, 7.11] - FIT: -Infinity
[6.62, 3.27, 4.6, 7.21, 9.4, 5.7, 8.07, 2.02, 3.72, 5.89, 2.92, 8.41] - FIT: -Infinity
[6.53, 8.48, 5.53, 6.84, 5.1, 7.77, 9.25, 4.84, 2.22, 9.15, 6.25, 2.05] - FIT: -Infinity
[7.59, 8.37, 4.5, 4.66, 4.08, 2.42, 5.73, 3.08, 1.27, 5.59, 8.81, 1.43] - FIT: -Infinity
[3.85, 7.14, 6.99, 2.16, 9.1, 4.67, 9.44, 1.57, 5.81, 8.69, 4.43, 4.81] - FIT: -Infinity

BEST LOCAL : iteracao 2
[6.53, 8.48, 8.43, 4.08, 2.97, 0.66, 1.18, 3.67, 5.65, 0.38, 3.36, 6.26] - FIT: 18.0
DECK0 FR0ZEN’S N’ZOTH PALADIN - 4
DECK1 JASONZHOU’S N’ZOTH CONTROL WARRIOR - 2
DECK2 YULSIC’S MIDRANGE SHAMAN - 4
DECK3 AMNESIAC’S SECRET FACE - 4
DECK4 CHE0NSU’S YOGG TEMPO MAGE - 1
DECK5 TAREI’S WARLOCK ZOO - 3

BEST LOCAL : iteracao 2
[6.53, 8.48, 5.53, 6.84, 5.1, 7.77, 4.52, 4.84, 2.22, 0.38, 3.36, 6.26] - FIT: 15.0
DECK0 TAREI’S WARLOCK ZOO - 2
DECK1 JASONZHOU’S N’ZOTH CONTROL WARRIOR - 4
DECK2 AMNESIAC’S SECRET FACE - 2
DECK3 CHE0NSU’S YOGG TEMPO MAGE - 1
DECK4 YULSIC’S MIDRANGE SHAMAN - 2
DECK5 FR0ZEN’S N’ZOTH PALADIN - 4

BEST LOCAL : iteracao 2
[7.35, 1.42, 8.43, 1.48, 9.35, 5.66, 3.64, 6.66, 6.94, 4.85, 2.49, 2.05] - FIT: 18.0
DECK0 TAREI’S WARLOCK ZOO - 3
DECK1 CHE0NSU’S YOGG TEMPO MAGE - 3
DECK2 YULSIC’S MIDRANGE SHAMAN - 4
DECK3 JASONZHOU’S N’ZOTH CONTROL WARRIOR - 3
DECK4 FR0ZEN’S N’ZOTH PALADIN - 1
DECK5 AMNESIAC’S SECRET FACE - 4

BEST LOCAL : iteracao 2
[7.35, 1.42, 8.43, 1.48, 9.35, 5.66, 3.64, 6.66, 6.94, 4.85, 2.49, 2.05] - FIT: 17.0
DECK0 TAREI’S WARLOCK ZOO - 2
DECK1 YULSIC’S MIDRANGE SHAMAN - 3
DECK2 CHE0NSU’S YOGG TEMPO MAGE - 2
DECK3 AMNESIAC’S SECRET FACE - 4
DECK4 FR0ZEN’S N’ZOTH PALADIN - 3
DECK5 JASONZHOU’S N’ZOTH CONTROL WARRIOR - 3


-- Nova iteraçao --
-- Populacao inicial, iteracao 3 --
[3.16, 4.2, 7.06, 3.36, 2.09, 6.86, 8.71, 2.46, 0.34, 6.22, 3.33, 6.51] - FIT: -Infinity
[9.13, 9.31, 4.34, 7.44, 6.79, 3.57, 9.63, 6.0, 3.64, 8.09, 0.86, 3.21] - FIT: -Infinity
[2.33, 0.59, 5.89, 8.51, 8.93, 5.65, 6.93, 1.42, 5.36, 1.61, 5.63, 5.53] - FIT: -Infinity
[9.38, 8.26, 1.61, 3.63, 4.61, 5.33, 0.17, 0.72, 9.22, 2.18, 0.93, 7.18] - FIT: -Infinity
[8.63, 2.35, 8.94, 7.89, 4.51, 2.79, 6.27, 4.32, 9.67, 6.45, 2.94, 5.62] - FIT: -Infinity
[5.99, 8.67, 2.66, 1.88, 0.48, 2.34, 0.63, 6.94, 2.73, 4.3, 7.78, 1.26] - FIT: -Infinity
[5.51, 5.17, 8.24, 5.1, 9.26, 8.43, 4.67, 0.83, 0.14, 9.8, 8.88, 8.86] - FIT: -Infinity
[1.02, 6.83, 3.97, 5.6, 4.32, 0.09, 7.38, 3.33, 5.89, 1.29, 3.75, 1.32] - FIT: -Infinity
[9.43, 1.09, 0.33, 4.75, 1.65, 8.84, 7.66, 2.76, 9.52, 9.45, 3.05, 0.29] - FIT: -Infinity
[2.04, 7.84, 4.45, 8.35, 0.93, 9.93, 8.2, 6.32, 6.38, 0.01, 4.71, 5.99] - FIT: -Infinity
[6.33, 8.4, 2.57, 0.98, 0.36, 0.04, 2.79, 7.21, 2.19, 4.05, 1.9, 9.83] - FIT: -Infinity
[7.93, 6.83, 4.76, 9.36, 0.82, 6.33, 5.19, 5.23, 6.98, 3.05, 5.4, 8.13] - FIT: -Infinity
[0.86, 4.35, 3.3, 3.15, 3.66, 1.96, 9.99, 5.12, 2.43, 9.16, 8.52, 3.28] - FIT: -Infinity
[3.12, 3.36, 9.03, 7.65, 5.83, 1.7, 4.58, 0.96, 6.45, 2.4, 6.6, 0.53] - FIT: -Infinity
[4.94, 1.82, 9.08, 1.9, 6.54, 8.25, 5.38, 2.07, 9.3, 6.21, 2.66, 3.15] - FIT: -Infinity
[7.85, 1.43, 4.24, 9.04, 0.94, 5.59, 1.9, 6.3, 7.6, 1.51, 6.26, 7.73] - FIT: -Infinity
[4.92, 4.02, 5.29, 1.41, 8.43, 9.36, 8.19, 0.96, 4.79, 5.64, 4.28, 2.61] - FIT: -Infinity
[5.14, 0.4, 4.15, 3.19, 6.8, 6.73, 3.69, 8.89, 0.37, 8.07, 9.52, 8.45] - FIT: -Infinity
[9.05, 3.48, 8.58, 6.04, 7.04, 9.02, 3.07, 8.39, 4.56, 8.22, 6.79, 8.14] - FIT: -Infinity
[7.27, 4.3, 7.96, 0.03, 9.34, 9.56, 9.2, 9.76, 0.55, 2.86, 4.85, 5.67] - FIT: -Infinity
[9.36, 4.19, 2.12, 2.12, 6.15, 6.78, 2.74, 9.4, 2.74, 0.82, 8.59, 9.38] - FIT: -Infinity
[7.24, 9.65, 5.7, 7.73, 5.85, 9.03, 8.26, 3.43, 6.79, 2.13, 6.2, 3.77] - FIT: -Infinity
[4.66, 8.32, 7.4, 8.14, 7.83, 1.58, 8.15, 7.48, 5.16, 5.42, 3.89, 6.68] - FIT: -Infinity
[3.13, 4.52, 5.32, 6.5, 9.11, 9.92, 3.69, 7.71, 1.64, 3.74, 3.36, 4.85] - FIT: -Infinity
[3.84, 1.37, 8.49, 9.04, 2.06, 4.15, 6.02, 9.29, 7.56, 2.97, 6.32, 9.71] - FIT: -Infinity
[5.76, 3.84, 8.76, 5.46, 3.77, 9.81, 9.56, 3.92, 4.32, 9.56, 5.4, 8.63] - FIT: -Infinity
[1.21, 2.04, 7.33, 2.86, 9.05, 8.24, 6.04, 6.22, 8.05, 5.7, 1.51, 2.85] - FIT: -Infinity
[2.68, 8.59, 6.78, 1.79, 1.7, 6.72, 8.54, 0.82, 5.71, 9.33, 4.54, 2.88] - FIT: -Infinity
[7.88, 5.77, 1.14, 0.53, 2.35, 3.33, 2.57, 7.17, 5.41, 4.45, 7.16, 5.66] - FIT: -Infinity
[3.77, 9.08, 4.87, 4.46, 5.4, 5.66, 4.69, 8.02, 8.58, 3.67, 0.07, 4.02] - FIT: -Infinity

BEST LOCAL : iteracao 3
[3.77, 9.08, 4.87, 4.46, 5.4, 5.66, 3.07, 8.39, 4.56, 8.22, 6.79, 8.14] - FIT: 17.0
DECK0 JASONZHOU’S N’ZOTH CONTROL WARRIOR - 3
DECK1 TAREI’S WARLOCK ZOO - 3
DECK2 FR0ZEN’S N’ZOTH PALADIN - 1
DECK3 CHE0NSU’S YOGG TEMPO MAGE - 2
DECK4 AMNESIAC’S SECRET FACE - 4
DECK5 YULSIC’S MIDRANGE SHAMAN - 4

BEST LOCAL : iteracao 3
[3.77, 2.34, 4.87, 4.46, 5.4, 5.66, 4.69, 8.02, 8.58, 3.67, 0.07, 4.02] - FIT: 19.0
DECK0 YULSIC’S MIDRANGE SHAMAN - 3
DECK1 FR0ZEN’S N’ZOTH PALADIN - 4
DECK2 TAREI’S WARLOCK ZOO - 4
DECK3 CHE0NSU’S YOGG TEMPO MAGE - 2
DECK4 AMNESIAC’S SECRET FACE - 5
DECK5 JASONZHOU’S N’ZOTH CONTROL WARRIOR - 1

BEST LOCAL : iteracao 3
[3.77, 9.08, 4.87, 4.46, 4.61, 5.33, 0.17, 0.72, 9.22, 2.18, 0.93, 4.02] - FIT: 19.0
DECK0 AMNESIAC’S SECRET FACE - 4
DECK1 YULSIC’S MIDRANGE SHAMAN - 3
DECK2 JASONZHOU’S N’ZOTH CONTROL WARRIOR - 4
DECK3 TAREI’S WARLOCK ZOO - 4
DECK4 FR0ZEN’S N’ZOTH PALADIN - 3
DECK5 CHE0NSU’S YOGG TEMPO MAGE - 1

BEST LOCAL : iteracao 3
[3.77, 9.08, 4.87, 4.46, 5.4, 5.66, 4.69, 8.02, 8.58, 3.67, 0.07, 4.02] - FIT: 20.0
DECK0 JASONZHOU’S N’ZOTH CONTROL WARRIOR - 4
DECK1 CHE0NSU’S YOGG TEMPO MAGE - 3
DECK2 AMNESIAC’S SECRET FACE - 5
DECK3 YULSIC’S MIDRANGE SHAMAN - 1
DECK4 TAREI’S WARLOCK ZOO - 3
DECK5 FR0ZEN’S N’ZOTH PALADIN - 4

----> BEST : iteracao 3
[3.77, 9.08, 4.87, 4.46, 5.4, 5.66, 4.69, 8.02, 8.58, 3.67, 0.07, 4.02] - FIT: 20.0
DECK0 JASONZHOU’S N’ZOTH CONTROL WARRIOR - 4
DECK1 CHE0NSU’S YOGG TEMPO MAGE - 3
DECK2 AMNESIAC’S SECRET FACE - 5
DECK3 YULSIC’S MIDRANGE SHAMAN - 1
DECK4 TAREI’S WARLOCK ZOO - 3
DECK5 FR0ZEN’S N’ZOTH PALADIN - 4

BEST LOCAL : iteracao 3
[9.05, 9.08, 4.87, 4.46, 5.4, 5.66, 4.69, 9.48, 8.58, 3.67, 0.07, 4.02] - FIT: 21.0
DECK0 TAREI’S WARLOCK ZOO - 4
DECK1 JASONZHOU’S N’ZOTH CONTROL WARRIOR - 5
DECK2 YULSIC’S MIDRANGE SHAMAN - 1
DECK3 AMNESIAC’S SECRET FACE - 3
DECK4 FR0ZEN’S N’ZOTH PALADIN - 4
DECK5 CHE0NSU’S YOGG TEMPO MAGE - 4

----> BEST : iteracao 3
[9.05, 9.08, 4.87, 4.46, 5.4, 5.66, 4.69, 9.48, 8.58, 3.67, 0.07, 4.02] - FIT: 21.0
DECK0 TAREI’S WARLOCK ZOO - 4
DECK1 JASONZHOU’S N’ZOTH CONTROL WARRIOR - 5
DECK2 YULSIC’S MIDRANGE SHAMAN - 1
DECK3 AMNESIAC’S SECRET FACE - 3
DECK4 FR0ZEN’S N’ZOTH PALADIN - 4
DECK5 CHE0NSU’S YOGG TEMPO MAGE - 4

BEST LOCAL : iteracao 3
[3.77, 9.08, 4.87, 4.46, 5.4, 9.02, 3.07, 8.02, 8.58, 3.67, 0.07, 4.02] - FIT: 22.0
DECK0 JASONZHOU’S N’ZOTH CONTROL WARRIOR - 4
DECK1 CHE0NSU’S YOGG TEMPO MAGE - 4
DECK2 FR0ZEN’S N’ZOTH PALADIN - 5
DECK3 YULSIC’S MIDRANGE SHAMAN - 2
DECK4 AMNESIAC’S SECRET FACE - 5
DECK5 TAREI’S WARLOCK ZOO - 2

----> BEST : iteracao 3
[3.77, 9.08, 4.87, 4.46, 5.4, 9.02, 3.07, 8.02, 8.58, 3.67, 0.07, 4.02] - FIT: 22.0
DECK0 JASONZHOU’S N’ZOTH CONTROL WARRIOR - 4
DECK1 CHE0NSU’S YOGG TEMPO MAGE - 4
DECK2 FR0ZEN’S N’ZOTH PALADIN - 5
DECK3 YULSIC’S MIDRANGE SHAMAN - 2
DECK4 AMNESIAC’S SECRET FACE - 5
DECK5 TAREI’S WARLOCK ZOO - 2

BEST LOCAL : iteracao 3
[3.77, 9.08, 4.87, 4.46, 5.4, 5.66, 4.69, 8.02, 8.58, 3.67, 0.07, 4.02] - FIT: 19.0
DECK0 TAREI’S WARLOCK ZOO - 2
DECK1 FR0ZEN’S N’ZOTH PALADIN - 3
DECK2 AMNESIAC’S SECRET FACE - 5
DECK3 JASONZHOU’S N’ZOTH CONTROL WARRIOR - 3
DECK4 YULSIC’S MIDRANGE SHAMAN - 2
DECK5 CHE0NSU’S YOGG TEMPO MAGE - 4

BEST LOCAL : iteracao 3
[9.05, 9.08, 4.87, 4.46, 5.4, 5.66, 4.69, 8.02, 8.58, 3.67, 0.07, 4.02] - FIT: 20.0
DECK0 JASONZHOU’S N’ZOTH CONTROL WARRIOR - 4
DECK1 CHE0NSU’S YOGG TEMPO MAGE - 2
DECK2 FR0ZEN’S N’ZOTH PALADIN - 4
DECK3 TAREI’S WARLOCK ZOO - 3
DECK4 AMNESIAC’S SECRET FACE - 5
DECK5 YULSIC’S MIDRANGE SHAMAN - 2

BEST LOCAL : iteracao 3
[3.77, 9.08, 4.87, 4.46, 5.4, 9.02, 3.07, 8.02, 8.58, 3.67, 0.07, 4.02] - FIT: 20.0
DECK0 YULSIC’S MIDRANGE SHAMAN - 4
DECK1 AMNESIAC’S SECRET FACE - 4
DECK2 CHE0NSU’S YOGG TEMPO MAGE - 4
DECK3 TAREI’S WARLOCK ZOO - 2
DECK4 FR0ZEN’S N’ZOTH PALADIN - 4
DECK5 JASONZHOU’S N’ZOTH CONTROL WARRIOR - 2

BEST LOCAL : iteracao 3
[3.77, 9.08, 4.87, 0.58, 5.4, 9.02, 3.07, 8.02, 8.58, 3.67, 0.07, 4.02] - FIT: 19.0
DECK0 JASONZHOU’S N’ZOTH CONTROL WARRIOR - 4
DECK1 FR0ZEN’S N’ZOTH PALADIN - 3
DECK2 AMNESIAC’S SECRET FACE - 5
DECK3 CHE0NSU’S YOGG TEMPO MAGE - 3
DECK4 TAREI’S WARLOCK ZOO - 2
DECK5 YULSIC’S MIDRANGE SHAMAN - 2

BEST LOCAL : iteracao 3
[3.77, 9.08, 4.87, 4.46, 5.4, 9.02, 3.07, 8.02, 8.58, 3.67, 0.07, 4.02] - FIT: 19.0
DECK0 FR0ZEN’S N’ZOTH PALADIN - 3
DECK1 TAREI’S WARLOCK ZOO - 4
DECK2 YULSIC’S MIDRANGE SHAMAN - 3
DECK3 AMNESIAC’S SECRET FACE - 5
DECK4 JASONZHOU’S N’ZOTH CONTROL WARRIOR - 3
DECK5 CHE0NSU’S YOGG TEMPO MAGE - 1


-- Nova iteraçao --
-- Populacao inicial, iteracao 4 --
[4.35, 3.51, 4.97, 3.84, 1.42, 4.91, 3.56, 5.29, 7.54, 1.16, 4.21, 5.03] - FIT: -Infinity
[9.16, 1.68, 6.74, 0.51, 9.71, 3.78, 2.36, 3.3, 4.8, 0.15, 7.95, 6.39] - FIT: -Infinity
[8.42, 9.64, 0.57, 1.14, 2.64, 9.58, 9.48, 3.37, 6.28, 6.46, 3.17, 0.36] - FIT: -Infinity
[7.77, 0.6, 1.92, 8.27, 6.04, 9.57, 2.09, 2.64, 9.01, 4.68, 7.09, 2.94] - FIT: -Infinity
[2.88, 4.48, 1.27, 5.77, 7.4, 9.49, 7.2, 0.49, 1.17, 2.59, 4.02, 5.05] - FIT: -Infinity
[8.68, 0.32, 4.18, 9.83, 5.43, 1.41, 8.61, 1.74, 0.69, 0.01, 6.0, 1.62] - FIT: -Infinity
[7.61, 3.01, 9.92, 2.98, 9.31, 2.51, 8.8, 1.43, 5.56, 7.05, 7.56, 0.12] - FIT: -Infinity
[8.74, 7.54, 6.65, 8.03, 9.84, 7.05, 3.32, 4.78, 4.72, 6.4, 3.01, 7.76] - FIT: -Infinity
[8.56, 1.45, 3.17, 4.73, 1.62, 1.56, 0.36, 7.96, 2.59, 2.92, 1.91, 3.79] - FIT: -Infinity
[6.89, 4.92, 7.29, 5.12, 5.76, 2.47, 0.53, 2.82, 8.86, 2.36, 4.46, 6.07] - FIT: -Infinity
[7.3, 6.99, 9.35, 1.18, 6.26, 4.68, 3.7, 2.65, 6.33, 1.67, 2.19, 0.54] - FIT: -Infinity
[0.66, 7.36, 6.74, 3.26, 0.48, 0.87, 9.47, 5.45, 5.06, 4.16, 2.77, 6.71] - FIT: -Infinity
[3.51, 3.91, 0.55, 7.64, 4.75, 2.3, 6.25, 6.81, 9.04, 4.51, 8.16, 3.43] - FIT: -Infinity
[8.92, 8.99, 9.34, 8.09, 0.22, 5.17, 0.35, 6.13, 3.88, 2.05, 5.26, 5.99] - FIT: -Infinity
[7.48, 0.25, 7.69, 7.95, 1.54, 9.58, 1.98, 7.14, 9.12, 4.07, 6.17, 8.17] - FIT: -Infinity
[8.98, 6.2, 7.55, 7.89, 2.01, 2.85, 8.64, 7.13, 7.63, 5.93, 1.4, 1.7] - FIT: -Infinity
[2.04, 1.7, 0.01, 7.95, 3.06, 4.31, 8.06, 8.68, 6.61, 0.52, 4.33, 0.21] - FIT: -Infinity
[8.88, 4.64, 2.51, 2.84, 3.88, 5.04, 3.81, 2.78, 0.64, 6.02, 8.69, 5.21] - FIT: -Infinity
[5.96, 1.88, 2.81, 5.0, 8.26, 3.19, 5.31, 3.59, 5.86, 8.78, 2.13, 8.19] - FIT: -Infinity
[7.99, 0.71, 5.53, 1.96, 0.31, 3.94, 1.37, 1.98, 7.33, 6.44, 9.62, 5.36] - FIT: -Infinity
[3.25, 0.65, 9.79, 2.19, 8.91, 2.04, 2.27, 8.29, 7.26, 6.05, 8.57, 9.93] - FIT: -Infinity
[1.8, 0.32, 8.5, 7.33, 2.48, 5.26, 9.59, 3.59, 1.25, 2.14, 4.96, 1.15] - FIT: -Infinity
[5.47, 4.79, 8.9, 8.24, 0.25, 7.79, 5.55, 3.62, 2.62, 1.33, 5.01, 9.44] - FIT: -Infinity
[9.07, 0.51, 3.06, 8.04, 5.25, 4.89, 4.89, 0.71, 0.98, 2.01, 0.95, 3.36] - FIT: -Infinity
[6.38, 7.47, 3.07, 6.62, 5.45, 2.73, 1.74, 5.36, 1.09, 1.09, 1.74, 6.07] - FIT: -Infinity
[2.03, 1.73, 1.31, 8.58, 5.45, 1.44, 2.05, 2.42, 1.02, 3.81, 0.49, 7.12] - FIT: -Infinity
[1.1, 5.99, 9.61, 0.06, 9.42, 3.91, 8.28, 4.97, 5.24, 7.8, 9.44, 9.33] - FIT: -Infinity
[3.05, 1.29, 3.03, 9.01, 8.33, 8.86, 8.31, 4.06, 8.45, 8.57, 0.99, 0.46] - FIT: -Infinity
[4.08, 9.16, 4.77, 8.86, 0.33, 3.12, 3.5, 2.76, 9.09, 0.45, 9.65, 5.38] - FIT: -Infinity
[3.3, 0.88, 7.26, 6.71, 1.82, 5.8, 2.6, 9.53, 8.61, 5.18, 3.94, 5.94] - FIT: -Infinity

BEST LOCAL : iteracao 4
[7.3, 6.99, 9.35, 1.18, 6.26, 4.68, 3.7, 2.65, 6.33, 1.67, 2.19, 0.54] - FIT: 17.0
DECK0 YULSIC’S MIDRANGE SHAMAN - 2
DECK1 TAREI’S WARLOCK ZOO - 3
DECK2 AMNESIAC’S SECRET FACE - 3
DECK3 JASONZHOU’S N’ZOTH CONTROL WARRIOR - 3
DECK4 CHE0NSU’S YOGG TEMPO MAGE - 3
DECK5 FR0ZEN’S N’ZOTH PALADIN - 3

BEST LOCAL : iteracao 4
[8.74, 7.54, 9.35, 1.18, 6.26, 2.74, 3.7, 2.65, 6.33, 1.67, 2.19, 0.54] - FIT: 20.0
DECK0 JASONZHOU’S N’ZOTH CONTROL WARRIOR - 4
DECK1 CHE0NSU’S YOGG TEMPO MAGE - 3
DECK2 FR0ZEN’S N’ZOTH PALADIN - 3
DECK3 TAREI’S WARLOCK ZOO - 4
DECK4 AMNESIAC’S SECRET FACE - 4
DECK5 YULSIC’S MIDRANGE SHAMAN - 2

BEST LOCAL : iteracao 4
[7.3, 6.99, 9.35, 1.18, 6.26, 4.68, 2.05, 2.42, 1.02, 3.81, 0.49, 7.12] - FIT: 20.0
DECK0 TAREI’S WARLOCK ZOO - 4
DECK1 CHE0NSU’S YOGG TEMPO MAGE - 2
DECK2 AMNESIAC’S SECRET FACE - 3
DECK3 FR0ZEN’S N’ZOTH PALADIN - 3
DECK4 YULSIC’S MIDRANGE SHAMAN - 4
DECK5 JASONZHOU’S N’ZOTH CONTROL WARRIOR - 4

BEST LOCAL : iteracao 4
[8.74, 7.54, 9.35, 1.18, 6.26, 4.89, 3.7, 2.65, 6.33, 1.67, 2.19, 0.54] - FIT: 18.0
DECK0 AMNESIAC’S SECRET FACE - 3
DECK1 YULSIC’S MIDRANGE SHAMAN - 3
DECK2 TAREI’S WARLOCK ZOO - 3
DECK3 CHE0NSU’S YOGG TEMPO MAGE - 3
DECK4 JASONZHOU’S N’ZOTH CONTROL WARRIOR - 3
DECK5 FR0ZEN’S N’ZOTH PALADIN - 3


-- Nova iteraçao --
-- Populacao inicial, iteracao 5 --
[7.45, 4.24, 9.49, 1.62, 5.43, 1.77, 3.52, 1.31, 4.18, 5.4, 9.18, 1.63] - FIT: -Infinity
[4.3, 7.32, 1.87, 6.81, 6.79, 3.31, 1.95, 2.93, 3.89, 2.28, 6.09, 4.51] - FIT: -Infinity
[6.13, 2.06, 8.5, 5.22, 9.28, 8.79, 4.31, 1.13, 1.33, 8.71, 8.11, 2.15] - FIT: -Infinity
[7.09, 7.35, 7.78, 4.13, 7.13, 0.8, 7.47, 9.65, 8.63, 7.72, 3.83, 0.36] - FIT: -Infinity
[8.11, 8.79, 6.48, 7.43, 9.59, 2.41, 7.16, 9.55, 7.49, 1.5, 1.81, 9.98] - FIT: -Infinity
[0.42, 6.65, 6.56, 4.89, 0.6, 4.9, 1.62, 5.55, 3.7, 1.88, 6.6, 5.76] - FIT: -Infinity
[5.86, 7.51, 7.26, 4.37, 7.46, 1.78, 6.3, 9.76, 8.4, 7.65, 0.11, 9.57] - FIT: -Infinity
[5.94, 2.85, 9.5, 4.18, 3.91, 0.77, 4.65, 7.16, 1.76, 3.57, 3.84, 9.04] - FIT: -Infinity
[3.13, 7.21, 0.81, 3.5, 5.8, 9.03, 8.01, 6.79, 9.54, 3.46, 1.6, 1.49] - FIT: -Infinity
[3.92, 0.21, 9.33, 5.95, 5.37, 2.49, 4.33, 9.11, 1.87, 9.81, 6.23, 8.56] - FIT: -Infinity
[3.88, 1.02, 6.05, 6.44, 2.32, 8.63, 2.64, 3.89, 7.8, 4.35, 6.85, 9.74] - FIT: -Infinity
[0.48, 9.59, 3.98, 3.23, 6.83, 1.69, 6.51, 3.81, 7.29, 8.29, 6.69, 3.19] - FIT: -Infinity
[9.39, 7.61, 3.09, 6.21, 1.55, 2.24, 5.99, 7.38, 6.18, 7.42, 4.08, 9.44] - FIT: -Infinity
[5.05, 2.65, 8.83, 8.77, 5.87, 7.18, 3.6, 9.83, 6.95, 5.83, 1.69, 7.84] - FIT: -Infinity
[5.53, 1.27, 1.27, 4.11, 6.63, 3.3, 5.24, 3.56, 1.15, 3.0, 1.3, 7.45] - FIT: -Infinity
[6.18, 2.44, 0.46, 7.45, 5.66, 6.28, 2.47, 8.98, 6.65, 1.86, 3.28, 2.77] - FIT: -Infinity
[5.01, 8.97, 2.29, 3.54, 4.47, 8.33, 7.36, 4.04, 4.65, 0.7, 1.33, 0.64] - FIT: -Infinity
[6.94, 4.5, 6.92, 3.97, 1.88, 0.87, 5.86, 4.44, 8.25, 9.14, 4.44, 7.88] - FIT: -Infinity
[1.6, 4.75, 9.74, 0.72, 0.06, 4.19, 0.08, 7.98, 5.73, 8.16, 8.81, 9.59] - FIT: -Infinity
[2.96, 5.37, 2.5, 2.28, 8.96, 3.8, 3.67, 5.03, 7.77, 5.62, 3.12, 5.63] - FIT: -Infinity
[6.09, 4.74, 9.05, 4.87, 8.31, 3.08, 8.39, 2.68, 8.53, 2.96, 0.77, 7.36] - FIT: -Infinity
[9.27, 7.9, 7.18, 5.25, 0.29, 3.68, 3.39, 3.01, 5.92, 4.71, 2.78, 8.91] - FIT: -Infinity
[6.08, 8.17, 4.63, 2.74, 4.42, 9.82, 1.65, 6.1, 6.72, 0.89, 4.62, 6.06] - FIT: -Infinity
[4.25, 5.15, 3.47, 5.88, 9.58, 8.68, 0.95, 5.36, 6.76, 2.9, 9.57, 2.47] - FIT: -Infinity
[4.25, 2.71, 2.87, 4.95, 6.05, 7.98, 9.24, 7.55, 6.08, 6.05, 0.31, 6.01] - FIT: -Infinity
[1.5, 7.14, 6.11, 3.76, 2.86, 2.47, 6.19, 1.06, 3.05, 6.93, 9.1, 9.18] - FIT: -Infinity
[2.27, 4.48, 2.79, 4.09, 3.35, 4.4, 4.97, 5.26, 0.32, 0.98, 5.43, 4.97] - FIT: -Infinity
[3.18, 7.52, 2.17, 2.99, 3.55, 7.74, 9.38, 9.27, 9.17, 4.52, 7.88, 4.82] - FIT: -Infinity
[0.01, 5.99, 8.3, 7.17, 5.05, 3.85, 2.99, 2.05, 6.88, 7.38, 5.01, 7.55] - FIT: -Infinity
[0.64, 9.14, 2.0, 0.28, 4.9, 5.54, 7.82, 5.89, 4.85, 5.71, 7.36, 7.56] - FIT: -Infinity

----> BEST : iteracao 5
[3.77, 9.08, 4.87, 4.46, 5.4, 9.02, 3.07, 8.02, 8.58, 3.67, 0.07, 4.02] - FIT: 22.0
DECK0 JASONZHOU’S N’ZOTH CONTROL WARRIOR - 4
DECK1 CHE0NSU’S YOGG TEMPO MAGE - 4
DECK2 FR0ZEN’S N’ZOTH PALADIN - 5
DECK3 YULSIC’S MIDRANGE SHAMAN - 2
DECK4 AMNESIAC’S SECRET FACE - 5
DECK5 TAREI’S WARLOCK ZOO - 2
