DECK SELECTED: JASONZHOU’S N’ZOTH CONTROL WARRIOR; ITERATIONS 10; POPULATION_SIZE 40; TOTAL GAMES 60; SELECTION TOURNAMENT; CROSSOVER 0.7f; MUTATION 0.1f; IA Game state value;

-- Populacao inicial, iteracao 0 --
[3.49, 9.03, 3.66, 6.54, 5.78, 4.09, 4.25, 7.36, 5.67, 9.18, 1.79, 4.34, 1.33] - FIT: -Infinity
[0.03, 1.15, 6.21, 4.12, 5.78, 6.35, 6.45, 6.5, 1.06, 9.34, 6.99, 6.43, 3.37] - FIT: -Infinity
[3.97, 6.11, 8.59, 7.39, 1.01, 1.24, 8.84, 9.26, 7.23, 6.35, 8.99, 2.87, 9.11] - FIT: -Infinity
[5.29, 6.07, 7.04, 9.7, 7.04, 1.6, 7.12, 5.29, 5.97, 3.7, 7.42, 7.25, 0.82] - FIT: -Infinity
[7.42, 0.49, 2.96, 8.55, 6.11, 8.32, 9.23, 5.44, 9.91, 5.5, 0.74, 6.15, 5.91] - FIT: -Infinity
[9.1, 6.04, 3.08, 7.87, 0.67, 3.72, 2.23, 2.76, 6.07, 1.61, 9.47, 5.42, 5.17] - FIT: -Infinity
[2.67, 0.1, 2.39, 9.13, 2.38, 8.07, 0.86, 5.41, 3.56, 6.23, 8.92, 1.53, 6.3] - FIT: -Infinity
[7.25, 8.86, 6.82, 2.68, 6.42, 6.19, 7.82, 8.26, 0.77, 3.0, 7.08, 4.66, 6.33] - FIT: -Infinity
[6.27, 6.86, 0.82, 4.44, 7.87, 9.02, 3.55, 0.58, 5.74, 9.88, 1.32, 4.33, 2.81] - FIT: -Infinity
[4.26, 9.55, 7.01, 2.96, 5.68, 9.34, 4.35, 1.67, 1.21, 6.28, 5.16, 2.01, 7.73] - FIT: -Infinity
[0.78, 3.48, 5.49, 3.12, 6.26, 0.56, 1.43, 0.43, 7.21, 5.69, 7.41, 4.91, 4.54] - FIT: -Infinity
[9.01, 8.43, 4.22, 1.94, 7.74, 1.98, 9.61, 3.12, 7.38, 1.74, 1.73, 6.53, 2.75] - FIT: -Infinity
[2.99, 7.99, 1.12, 0.07, 8.76, 9.83, 4.01, 9.9, 6.96, 7.22, 8.3, 2.69, 5.18] - FIT: -Infinity
[4.6, 7.65, 3.16, 1.59, 7.2, 1.84, 7.11, 7.73, 9.19, 6.54, 4.33, 1.06, 5.41] - FIT: -Infinity
[9.15, 4.46, 3.23, 6.58, 1.71, 8.22, 2.76, 3.82, 1.48, 5.17, 9.58, 2.09, 9.26] - FIT: -Infinity
[0.49, 2.11, 3.77, 6.13, 7.66, 6.91, 2.84, 9.05, 0.71, 5.12, 7.46, 7.07, 9.81] - FIT: -Infinity
[9.45, 3.85, 0.43, 6.37, 0.49, 6.76, 6.63, 9.75, 1.43, 3.1, 8.7, 5.29, 5.64] - FIT: -Infinity
[3.09, 3.36, 5.16, 2.57, 0.13, 8.63, 7.07, 3.66, 4.16, 3.37, 2.55, 1.27, 5.57] - FIT: -Infinity
[3.79, 6.38, 0.55, 6.14, 5.51, 0.77, 6.38, 1.18, 3.05, 3.28, 4.68, 2.19, 2.6] - FIT: -Infinity
[5.28, 0.48, 2.73, 7.95, 8.67, 2.85, 0.85, 4.03, 2.21, 0.45, 0.43, 7.28, 4.97] - FIT: -Infinity
[9.92, 0.27, 7.04, 4.0, 3.5, 4.05, 7.69, 5.1, 1.39, 6.72, 6.93, 0.49, 9.25] - FIT: -Infinity
[2.59, 1.53, 4.96, 0.82, 8.44, 8.51, 2.28, 1.17, 0.61, 5.79, 7.35, 6.59, 8.18] - FIT: -Infinity
[4.08, 5.27, 2.81, 6.06, 8.37, 7.63, 4.77, 0.51, 5.27, 8.15, 7.24, 6.67, 0.55] - FIT: -Infinity
[3.98, 7.73, 2.36, 8.87, 6.82, 0.18, 4.85, 6.87, 7.66, 0.11, 7.74, 9.18, 2.39] - FIT: -Infinity
[0.08, 3.11, 6.19, 1.01, 6.88, 0.1, 1.97, 1.85, 0.77, 4.87, 0.35, 3.73, 0.18] - FIT: -Infinity
[8.36, 7.44, 3.05, 4.87, 7.82, 9.07, 0.05, 4.39, 5.05, 2.44, 8.03, 8.57, 9.59] - FIT: -Infinity
[2.46, 2.37, 1.52, 7.58, 4.21, 1.32, 1.08, 7.96, 4.96, 9.04, 1.01, 5.99, 1.01] - FIT: -Infinity
[2.37, 4.18, 0.23, 6.86, 6.78, 1.18, 3.39, 6.84, 3.62, 0.31, 9.2, 2.33, 0.45] - FIT: -Infinity
[1.57, 7.27, 0.59, 8.37, 9.66, 5.23, 5.25, 5.68, 8.07, 2.96, 1.89, 5.05, 9.48] - FIT: -Infinity
[6.81, 6.49, 2.06, 5.35, 2.46, 8.99, 6.94, 1.33, 4.23, 9.04, 7.28, 3.45, 4.76] - FIT: -Infinity
[5.86, 9.06, 4.37, 3.69, 9.82, 5.24, 7.94, 6.12, 8.91, 6.14, 5.35, 1.44, 9.32] - FIT: -Infinity
[3.17, 5.56, 1.23, 5.62, 8.48, 8.54, 0.33, 2.95, 5.86, 9.8, 8.76, 0.14, 4.67] - FIT: -Infinity
[1.15, 3.39, 0.43, 7.33, 3.26, 7.28, 3.62, 2.78, 2.54, 1.66, 1.87, 2.61, 6.33] - FIT: -Infinity
[9.98, 8.95, 4.21, 7.75, 6.13, 1.97, 5.21, 3.87, 9.29, 2.8, 6.66, 8.57, 5.82] - FIT: -Infinity
[6.06, 7.97, 4.63, 4.71, 9.75, 5.48, 7.89, 6.86, 4.28, 7.73, 0.01, 9.91, 6.18] - FIT: -Infinity
[4.87, 5.35, 9.83, 2.63, 6.64, 1.8, 7.68, 3.95, 3.13, 5.06, 4.91, 2.37, 5.43] - FIT: -Infinity
[0.66, 3.42, 6.29, 8.42, 8.5, 7.24, 1.31, 6.57, 9.88, 1.03, 1.11, 4.4, 8.32] - FIT: -Infinity
[7.18, 3.43, 7.6, 1.22, 6.82, 9.18, 6.98, 1.15, 2.59, 5.58, 7.5, 2.35, 0.11] - FIT: -Infinity
[7.2, 6.62, 0.06, 3.01, 2.64, 1.49, 7.71, 1.53, 8.3, 2.6, 9.96, 7.86, 4.66] - FIT: -Infinity
[2.04, 7.27, 2.34, 5.17, 8.4, 1.46, 3.42, 2.65, 6.52, 0.07, 0.84, 3.01, 9.77] - FIT: -Infinity

BEST LOCAL : iteracao 0
[5.86, 9.06, 4.37, 3.69, 9.82, 5.24, 7.94, 6.12, 8.91, 6.14, 5.35, 1.44, 9.32] - FIT: 22.0
DECK0 AMNESIAC’S SECRET FACE - 7
DECK1 CHE0NSU’S YOGG TEMPO MAGE - 2
DECK2 TAREI’S WARLOCK ZOO - 4
DECK3 YULSIC’S MIDRANGE SHAMAN - 1
DECK4 FR0ZEN’S N’ZOTH PALADIN - 1
DECK5 JASONZHOU’S N’ZOTH CONTROL WARRIOR - 7

----> BEST : iteracao 0
[5.86, 9.06, 4.37, 3.69, 9.82, 5.24, 7.94, 6.12, 8.91, 6.14, 5.35, 1.44, 9.32] - FIT: 22.0
DECK0 AMNESIAC’S SECRET FACE - 7
DECK1 CHE0NSU’S YOGG TEMPO MAGE - 2
DECK2 TAREI’S WARLOCK ZOO - 4
DECK3 YULSIC’S MIDRANGE SHAMAN - 1
DECK4 FR0ZEN’S N’ZOTH PALADIN - 1
DECK5 JASONZHOU’S N’ZOTH CONTROL WARRIOR - 7

BEST LOCAL : iteracao 0
[5.86, 9.06, 4.37, 3.69, 9.82, 5.24, 7.94, 6.12, 8.91, 6.14, 5.35, 1.44, 9.32] - FIT: 30.0
DECK0 YULSIC’S MIDRANGE SHAMAN - 3
DECK1 TAREI’S WARLOCK ZOO - 6
DECK2 CHE0NSU’S YOGG TEMPO MAGE - 5
DECK3 FR0ZEN’S N’ZOTH PALADIN - 4
DECK4 AMNESIAC’S SECRET FACE - 8
DECK5 JASONZHOU’S N’ZOTH CONTROL WARRIOR - 4

----> BEST : iteracao 0
[5.86, 9.06, 4.37, 3.69, 9.82, 5.24, 7.94, 6.12, 8.91, 6.14, 5.35, 1.44, 9.32] - FIT: 30.0
DECK0 YULSIC’S MIDRANGE SHAMAN - 3
DECK1 TAREI’S WARLOCK ZOO - 6
DECK2 CHE0NSU’S YOGG TEMPO MAGE - 5
DECK3 FR0ZEN’S N’ZOTH PALADIN - 4
DECK4 AMNESIAC’S SECRET FACE - 8
DECK5 JASONZHOU’S N’ZOTH CONTROL WARRIOR - 4

BEST LOCAL : iteracao 0
[2.59, 1.53, 4.96, 1.59, 7.2, 1.84, 7.11, 7.73, 9.19, 6.54, 4.33, 1.06, 3.6] - FIT: 25.0
DECK0 CHE0NSU’S YOGG TEMPO MAGE - 2
DECK1 AMNESIAC’S SECRET FACE - 7
DECK2 JASONZHOU’S N’ZOTH CONTROL WARRIOR - 4
DECK3 TAREI’S WARLOCK ZOO - 5
DECK4 YULSIC’S MIDRANGE SHAMAN - 4
DECK5 FR0ZEN’S N’ZOTH PALADIN - 3

BEST LOCAL : iteracao 0
[5.86, 9.06, 4.37, 3.69, 9.02, 5.24, 7.94, 6.12, 3.49, 6.14, 5.35, 1.44, 5.53] - FIT: 26.0
DECK0 TAREI’S WARLOCK ZOO - 6
DECK1 FR0ZEN’S N’ZOTH PALADIN - 5
DECK2 YULSIC’S MIDRANGE SHAMAN - 3
DECK3 CHE0NSU’S YOGG TEMPO MAGE - 3
DECK4 JASONZHOU’S N’ZOTH CONTROL WARRIOR - 1
DECK5 AMNESIAC’S SECRET FACE - 8

BEST LOCAL : iteracao 0
[5.86, 9.06, 8.35, 3.69, 9.82, 5.24, 7.94, 6.12, 8.91, 6.54, 4.33, 1.06, 3.6] - FIT: 30.0
DECK0 JASONZHOU’S N’ZOTH CONTROL WARRIOR - 5
DECK1 YULSIC’S MIDRANGE SHAMAN - 4
DECK2 AMNESIAC’S SECRET FACE - 8
DECK3 TAREI’S WARLOCK ZOO - 8
DECK4 CHE0NSU’S YOGG TEMPO MAGE - 3
DECK5 FR0ZEN’S N’ZOTH PALADIN - 2

BEST LOCAL : iteracao 0
[5.86, 9.06, 4.37, 3.69, 9.82, 5.24, 7.94, 6.12, 8.91, 6.54, 4.33, 1.06, 3.6] - FIT: 29.0
DECK0 JASONZHOU’S N’ZOTH CONTROL WARRIOR - 7
DECK1 AMNESIAC’S SECRET FACE - 7
DECK2 YULSIC’S MIDRANGE SHAMAN - 3
DECK3 CHE0NSU’S YOGG TEMPO MAGE - 2
DECK4 FR0ZEN’S N’ZOTH PALADIN - 4
DECK5 TAREI’S WARLOCK ZOO - 6

BEST LOCAL : iteracao 0
[5.86, 9.06, 4.37, 3.69, 9.82, 5.24, 7.94, 6.12, 8.91, 6.14, 4.33, 1.06, 3.6] - FIT: 28.0
DECK0 JASONZHOU’S N’ZOTH CONTROL WARRIOR - 6
DECK1 CHE0NSU’S YOGG TEMPO MAGE - 1
DECK2 AMNESIAC’S SECRET FACE - 8
DECK3 TAREI’S WARLOCK ZOO - 6
DECK4 FR0ZEN’S N’ZOTH PALADIN - 2
DECK5 YULSIC’S MIDRANGE SHAMAN - 5


-- Nova iteraçao --
-- Populacao inicial, iteracao 1 --
[2.72, 7.54, 3.15, 8.21, 7.2, 1.95, 2.01, 4.12, 8.8, 9.11, 2.65, 8.27, 1.09] - FIT: -Infinity
[8.78, 1.34, 7.72, 3.67, 2.74, 9.7, 2.61, 0.8, 4.46, 0.47, 6.65, 9.86, 0.41] - FIT: -Infinity
[2.42, 5.81, 9.14, 7.35, 2.68, 8.33, 6.81, 5.19, 7.75, 0.45, 8.5, 4.84, 5.0] - FIT: -Infinity
[4.05, 9.23, 6.37, 4.98, 4.29, 6.54, 3.52, 1.09, 7.48, 5.51, 6.72, 7.29, 2.36] - FIT: -Infinity
[3.19, 8.42, 6.21, 0.32, 9.34, 1.3, 0.08, 3.95, 3.06, 1.88, 4.02, 6.25, 9.57] - FIT: -Infinity
[9.78, 6.84, 7.03, 9.88, 5.35, 7.47, 7.12, 6.46, 6.59, 6.17, 5.22, 2.02, 9.65] - FIT: -Infinity
[8.42, 7.54, 4.44, 5.83, 5.87, 4.74, 0.74, 1.96, 3.3, 6.76, 4.34, 0.49, 2.55] - FIT: -Infinity
[1.46, 5.29, 0.12, 4.48, 9.01, 0.47, 7.68, 7.85, 0.58, 1.37, 7.46, 9.62, 6.21] - FIT: -Infinity
[0.32, 4.43, 4.6, 3.93, 2.16, 3.86, 3.68, 9.33, 7.25, 1.0, 8.98, 2.5, 3.43] - FIT: -Infinity
[1.02, 0.9, 7.03, 9.09, 0.93, 7.2, 4.11, 6.91, 2.88, 6.31, 3.1, 7.91, 9.97] - FIT: -Infinity
[7.56, 9.0, 8.49, 4.14, 9.26, 6.3, 8.89, 8.15, 1.4, 8.07, 0.26, 2.57, 3.37] - FIT: -Infinity
[9.05, 8.55, 1.94, 9.05, 1.59, 8.23, 3.45, 0.47, 3.56, 5.31, 5.99, 9.06, 8.21] - FIT: -Infinity
[9.51, 6.52, 7.92, 6.89, 7.62, 6.24, 1.8, 6.95, 5.89, 8.85, 1.85, 8.65, 7.58] - FIT: -Infinity
[8.89, 0.88, 7.14, 2.58, 9.17, 0.81, 7.52, 0.39, 2.14, 8.41, 3.84, 4.04, 1.89] - FIT: -Infinity
[7.13, 5.62, 2.44, 0.1, 2.44, 8.84, 0.73, 1.36, 5.84, 1.75, 3.47, 0.79, 7.78] - FIT: -Infinity
[9.72, 3.59, 9.68, 3.14, 7.54, 0.56, 2.65, 3.44, 2.02, 5.16, 3.66, 9.35, 2.54] - FIT: -Infinity
[4.35, 6.41, 2.84, 2.11, 9.14, 9.02, 3.5, 7.32, 0.4, 1.89, 5.15, 0.71, 2.32] - FIT: -Infinity
[2.64, 9.19, 5.63, 0.92, 1.44, 8.86, 9.67, 5.6, 5.9, 4.18, 9.52, 4.78, 4.62] - FIT: -Infinity
[0.94, 7.05, 3.1, 4.88, 8.13, 3.74, 6.18, 0.89, 7.57, 7.99, 1.09, 5.44, 6.01] - FIT: -Infinity
[8.09, 4.82, 9.84, 5.07, 1.39, 0.71, 3.98, 6.67, 9.16, 2.82, 0.76, 1.79, 5.13] - FIT: -Infinity
[1.15, 7.03, 9.01, 5.13, 6.49, 6.08, 4.59, 4.52, 2.41, 5.23, 0.26, 9.92, 2.95] - FIT: -Infinity
[5.53, 5.84, 1.9, 9.2, 9.97, 3.77, 5.62, 4.77, 0.38, 9.38, 7.16, 0.05, 3.32] - FIT: -Infinity
[5.96, 4.29, 7.82, 9.83, 6.52, 1.81, 8.34, 4.38, 4.65, 3.1, 0.19, 3.79, 5.41] - FIT: -Infinity
[1.71, 4.29, 7.79, 3.51, 8.93, 2.6, 9.11, 9.87, 5.83, 9.42, 2.47, 9.9, 1.38] - FIT: -Infinity
[3.06, 8.56, 6.14, 1.22, 7.77, 1.36, 5.76, 5.36, 1.2, 4.52, 8.47, 6.76, 0.36] - FIT: -Infinity
[5.19, 3.76, 7.13, 0.14, 1.86, 7.07, 0.5, 1.93, 6.11, 3.58, 0.01, 6.12, 6.78] - FIT: -Infinity
[4.46, 8.46, 1.81, 9.18, 5.36, 8.58, 8.92, 1.16, 8.49, 4.58, 2.67, 2.52, 0.17] - FIT: -Infinity
[2.7, 8.3, 4.25, 3.27, 4.71, 4.1, 9.15, 9.68, 5.07, 4.36, 6.15, 1.33, 9.33] - FIT: -Infinity
[9.83, 6.35, 9.76, 8.63, 2.12, 0.03, 2.94, 2.84, 0.43, 0.52, 5.28, 2.66, 3.27] - FIT: -Infinity
[2.34, 1.26, 9.28, 5.41, 8.37, 5.73, 8.77, 0.32, 3.21, 4.11, 7.06, 1.41, 7.49] - FIT: -Infinity
[4.05, 0.67, 1.13, 1.16, 5.9, 7.77, 5.61, 1.98, 3.18, 3.86, 4.02, 9.21, 5.75] - FIT: -Infinity
[6.56, 5.83, 1.41, 7.82, 4.24, 6.49, 1.76, 0.17, 4.2, 1.63, 3.6, 0.85, 6.74] - FIT: -Infinity
[2.75, 4.17, 1.44, 3.27, 2.76, 4.54, 6.88, 7.82, 7.96, 9.37, 4.89, 3.59, 4.3] - FIT: -Infinity
[1.01, 7.5, 8.24, 9.58, 8.56, 1.43, 4.41, 9.92, 4.13, 5.49, 4.66, 8.62, 5.24] - FIT: -Infinity
[3.44, 3.35, 7.46, 4.45, 7.74, 1.57, 6.19, 4.72, 5.27, 4.74, 3.37, 1.84, 9.15] - FIT: -Infinity
[7.26, 3.11, 3.2, 1.67, 2.26, 5.16, 5.65, 2.14, 0.09, 3.08, 3.69, 0.17, 3.54] - FIT: -Infinity
[3.44, 3.58, 8.99, 3.86, 2.12, 7.86, 5.93, 6.69, 7.62, 9.66, 6.93, 3.66, 9.74] - FIT: -Infinity
[6.0, 9.97, 1.3, 1.97, 4.64, 7.89, 5.81, 9.56, 9.33, 4.29, 9.02, 1.0, 4.53] - FIT: -Infinity
[7.96, 8.39, 9.92, 1.63, 9.83, 1.15, 5.88, 5.18, 3.58, 0.96, 7.14, 9.62, 5.85] - FIT: -Infinity
[3.36, 5.95, 3.91, 4.2, 4.92, 6.89, 4.02, 1.53, 0.04, 1.93, 1.07, 3.74, 8.1] - FIT: -Infinity

BEST LOCAL : iteracao 1
[9.78, 6.84, 7.03, 9.88, 5.35, 7.47, 7.12, 6.46, 6.59, 6.17, 5.22, 2.02, 9.65] - FIT: 23.0
DECK0 TAREI’S WARLOCK ZOO - 3
DECK1 JASONZHOU’S N’ZOTH CONTROL WARRIOR - 4
DECK2 FR0ZEN’S N’ZOTH PALADIN - 4
DECK3 CHE0NSU’S YOGG TEMPO MAGE - 3
DECK4 AMNESIAC’S SECRET FACE - 7
DECK5 YULSIC’S MIDRANGE SHAMAN - 2

BEST LOCAL : iteracao 1
[3.19, 8.42, 6.21, 0.32, 9.34, 1.3, 0.08, 3.95, 3.06, 1.88, 4.02, 6.25, 9.57] - FIT: 27.0
DECK0 JASONZHOU’S N’ZOTH CONTROL WARRIOR - 5
DECK1 CHE0NSU’S YOGG TEMPO MAGE - 2
DECK2 TAREI’S WARLOCK ZOO - 8
DECK3 YULSIC’S MIDRANGE SHAMAN - 3
DECK4 FR0ZEN’S N’ZOTH PALADIN - 2
DECK5 AMNESIAC’S SECRET FACE - 7

BEST LOCAL : iteracao 1
[3.19, 8.42, 6.21, 0.32, 9.34, 1.3, 0.08, 3.95, 5.27, 3.23, 4.51, 3.16, 9.57] - FIT: 26.0
DECK0 CHE0NSU’S YOGG TEMPO MAGE - 2
DECK1 TAREI’S WARLOCK ZOO - 7
DECK2 JASONZHOU’S N’ZOTH CONTROL WARRIOR - 4
DECK3 FR0ZEN’S N’ZOTH PALADIN - 1
DECK4 YULSIC’S MIDRANGE SHAMAN - 3
DECK5 AMNESIAC’S SECRET FACE - 9

BEST LOCAL : iteracao 1
[3.19, 8.42, 6.21, 0.32, 9.34, 1.3, 0.08, 3.95, 3.06, 1.88, 4.51, 3.16, 9.57] - FIT: 28.0
DECK0 FR0ZEN’S N’ZOTH PALADIN - 1
DECK1 TAREI’S WARLOCK ZOO - 6
DECK2 CHE0NSU’S YOGG TEMPO MAGE - 3
DECK3 JASONZHOU’S N’ZOTH CONTROL WARRIOR - 7
DECK4 AMNESIAC’S SECRET FACE - 10
DECK5 YULSIC’S MIDRANGE SHAMAN - 1

BEST LOCAL : iteracao 1
[3.19, 8.42, 6.21, 0.32, 9.34, 1.3, 6.11, 3.95, 3.06, 4.74, 4.51, 1.0, 9.15] - FIT: 29.0
DECK0 CHE0NSU’S YOGG TEMPO MAGE - 3
DECK1 AMNESIAC’S SECRET FACE - 8
DECK2 TAREI’S WARLOCK ZOO - 7
DECK3 FR0ZEN’S N’ZOTH PALADIN - 2
DECK4 YULSIC’S MIDRANGE SHAMAN - 2
DECK5 JASONZHOU’S N’ZOTH CONTROL WARRIOR - 7


-- Nova iteraçao --
-- Populacao inicial, iteracao 2 --
[6.6, 7.67, 5.18, 8.64, 2.6, 0.24, 1.86, 3.4, 2.1, 3.73, 9.64, 7.2, 0.1] - FIT: -Infinity
[7.3, 7.5, 2.91, 3.97, 3.72, 4.55, 7.35, 2.07, 4.06, 6.63, 4.03, 9.74, 8.03] - FIT: -Infinity
[1.66, 6.73, 0.02, 0.15, 1.76, 8.2, 9.03, 2.56, 1.97, 0.16, 0.13, 0.47, 4.32] - FIT: -Infinity
[0.98, 6.78, 4.83, 1.23, 7.8, 1.23, 0.17, 4.05, 7.92, 5.25, 2.35, 0.92, 2.81] - FIT: -Infinity
[9.33, 2.31, 3.33, 4.56, 8.81, 7.12, 1.82, 0.8, 9.24, 8.56, 9.92, 9.13, 7.93] - FIT: -Infinity
[3.4, 9.73, 6.08, 5.76, 6.2, 3.72, 9.12, 1.36, 7.71, 5.48, 1.98, 9.62, 6.67] - FIT: -Infinity
[6.03, 5.37, 7.89, 3.0, 3.61, 5.17, 6.09, 3.81, 2.07, 9.73, 1.68, 1.1, 7.07] - FIT: -Infinity
[6.41, 6.15, 2.35, 0.13, 5.02, 7.61, 0.41, 7.23, 2.45, 3.17, 9.51, 3.05, 8.36] - FIT: -Infinity
[5.49, 7.85, 1.46, 6.72, 0.17, 5.31, 0.5, 1.57, 4.77, 7.04, 2.78, 8.45, 5.32] - FIT: -Infinity
[9.61, 2.79, 4.66, 3.5, 6.8, 8.67, 2.71, 6.04, 6.31, 9.52, 1.15, 8.11, 6.86] - FIT: -Infinity
[8.55, 6.29, 4.19, 7.86, 8.99, 6.32, 2.92, 9.93, 2.12, 6.7, 7.71, 5.37, 6.52] - FIT: -Infinity
[1.97, 0.75, 1.98, 3.0, 4.3, 6.32, 2.56, 2.76, 3.94, 8.77, 4.91, 4.84, 9.77] - FIT: -Infinity
[1.47, 3.91, 4.93, 0.9, 5.79, 8.42, 9.38, 2.03, 3.3, 0.03, 7.28, 5.59, 0.13] - FIT: -Infinity
[0.33, 8.66, 3.77, 9.76, 5.84, 8.62, 2.17, 9.41, 7.09, 5.78, 4.61, 5.56, 9.5] - FIT: -Infinity
[8.16, 5.79, 6.24, 8.72, 1.46, 4.22, 1.2, 2.58, 2.58, 3.02, 6.26, 4.98, 5.8] - FIT: -Infinity
[0.33, 4.78, 4.54, 0.58, 4.2, 7.49, 2.09, 7.44, 8.94, 1.69, 7.01, 2.79, 1.53] - FIT: -Infinity
[2.31, 1.5, 4.62, 6.67, 0.0, 5.84, 8.21, 8.78, 6.3, 5.36, 5.27, 7.59, 1.66] - FIT: -Infinity
[1.45, 0.35, 1.48, 9.99, 5.05, 5.63, 9.5, 2.26, 0.52, 8.84, 8.56, 2.88, 2.35] - FIT: -Infinity
[9.46, 6.93, 4.47, 4.47, 4.95, 9.23, 0.8, 4.77, 2.56, 0.77, 2.95, 2.8, 1.79] - FIT: -Infinity
[1.01, 0.86, 9.51, 9.5, 7.01, 0.89, 1.72, 2.48, 7.78, 0.25, 2.53, 2.15, 9.35] - FIT: -Infinity
[0.78, 1.17, 2.13, 8.89, 7.85, 2.36, 2.23, 3.11, 4.81, 5.67, 1.99, 2.81, 0.22] - FIT: -Infinity
[0.02, 2.25, 0.34, 2.36, 7.01, 6.53, 1.78, 5.78, 9.61, 2.06, 8.5, 4.99, 9.35] - FIT: -Infinity
[6.84, 5.79, 3.66, 6.14, 0.5, 7.58, 1.42, 9.62, 6.03, 7.13, 6.25, 9.95, 4.25] - FIT: -Infinity
[3.06, 7.95, 8.93, 5.18, 9.24, 6.73, 9.49, 8.47, 4.57, 1.68, 2.71, 0.42, 5.82] - FIT: -Infinity
[5.69, 6.6, 6.23, 2.68, 7.08, 0.39, 4.63, 8.98, 3.23, 1.18, 6.37, 8.64, 8.33] - FIT: -Infinity
[7.36, 9.49, 7.44, 5.4, 4.48, 1.87, 4.52, 2.78, 4.98, 6.23, 8.51, 6.54, 2.67] - FIT: -Infinity
[3.19, 3.53, 3.17, 6.38, 5.94, 9.95, 1.47, 5.12, 3.81, 3.05, 8.78, 8.76, 2.66] - FIT: -Infinity
[0.35, 3.83, 3.96, 7.39, 5.14, 8.33, 5.15, 5.17, 9.1, 9.68, 4.3, 8.75, 1.94] - FIT: -Infinity
[9.61, 1.01, 5.72, 9.66, 7.71, 6.87, 3.11, 5.81, 3.73, 3.9, 6.67, 2.26, 0.08] - FIT: -Infinity
[7.26, 0.8, 6.74, 4.14, 6.55, 8.06, 4.66, 0.24, 8.57, 6.86, 1.7, 3.01, 6.42] - FIT: -Infinity
[2.32, 1.95, 6.72, 6.76, 7.78, 3.44, 0.34, 7.17, 4.13, 9.37, 4.37, 0.31, 9.73] - FIT: -Infinity
[8.66, 3.27, 0.23, 6.37, 3.84, 6.98, 8.73, 5.59, 7.76, 6.08, 6.76, 5.5, 3.25] - FIT: -Infinity
[7.67, 6.29, 0.11, 1.32, 3.28, 3.18, 2.16, 4.36, 6.03, 0.65, 5.51, 0.35, 1.17] - FIT: -Infinity
[5.64, 5.29, 3.01, 3.53, 7.77, 1.89, 0.57, 5.48, 1.54, 0.64, 2.91, 1.0, 7.64] - FIT: -Infinity
[9.62, 2.75, 5.39, 8.61, 6.97, 1.42, 4.73, 7.38, 3.24, 4.29, 6.46, 4.45, 5.67] - FIT: -Infinity
[3.61, 0.14, 1.19, 9.07, 9.18, 7.81, 2.14, 2.37, 8.23, 4.34, 8.61, 0.81, 6.45] - FIT: -Infinity
[1.2, 9.9, 1.0, 1.59, 1.77, 5.68, 0.54, 9.21, 2.14, 5.32, 3.97, 8.16, 9.04] - FIT: -Infinity
[5.48, 4.47, 9.53, 5.86, 7.12, 4.06, 8.9, 8.23, 7.48, 5.56, 6.14, 3.21, 9.96] - FIT: -Infinity
[6.41, 0.96, 9.84, 7.42, 7.62, 5.22, 4.24, 0.4, 1.5, 4.99, 9.58, 1.86, 7.92] - FIT: -Infinity
[6.31, 9.66, 4.41, 2.29, 8.53, 5.15, 4.39, 7.9, 8.5, 2.87, 9.41, 1.51, 6.73] - FIT: -Infinity

BEST LOCAL : iteracao 2
[6.41, 6.15, 2.35, 0.13, 5.02, 7.61, 1.72, 2.48, 7.78, 0.25, 2.53, 2.15, 9.35] - FIT: 23.0
DECK0 JASONZHOU’S N’ZOTH CONTROL WARRIOR - 4
DECK1 CHE0NSU’S YOGG TEMPO MAGE - 2
DECK2 TAREI’S WARLOCK ZOO - 2
DECK3 YULSIC’S MIDRANGE SHAMAN - 2
DECK4 FR0ZEN’S N’ZOTH PALADIN - 3
DECK5 AMNESIAC’S SECRET FACE - 10

BEST LOCAL : iteracao 2
[0.98, 6.78, 4.83, 1.23, 7.8, 1.34, 4.56, 4.05, 7.92, 8.8, 9.51, 3.05, 8.36] - FIT: 27.0
DECK0 CHE0NSU’S YOGG TEMPO MAGE - 4
DECK1 YULSIC’S MIDRANGE SHAMAN - 3
DECK2 TAREI’S WARLOCK ZOO - 6
DECK3 JASONZHOU’S N’ZOTH CONTROL WARRIOR - 5
DECK4 AMNESIAC’S SECRET FACE - 7
DECK5 FR0ZEN’S N’ZOTH PALADIN - 2

BEST LOCAL : iteracao 2
[0.98, 6.78, 4.83, 1.23, 7.8, 1.34, 4.56, 4.05, 7.92, 8.8, 2.35, 0.92, 2.81] - FIT: 28.0
DECK0 AMNESIAC’S SECRET FACE - 7
DECK1 CHE0NSU’S YOGG TEMPO MAGE - 1
DECK2 YULSIC’S MIDRANGE SHAMAN - 2
DECK3 FR0ZEN’S N’ZOTH PALADIN - 4
DECK4 TAREI’S WARLOCK ZOO - 8
DECK5 JASONZHOU’S N’ZOTH CONTROL WARRIOR - 6

BEST LOCAL : iteracao 2
[0.98, 6.78, 4.83, 1.23, 5.02, 7.61, 0.41, 7.23, 2.45, 3.17, 9.51, 3.05, 8.36] - FIT: 26.0
DECK0 FR0ZEN’S N’ZOTH PALADIN - 2
DECK1 AMNESIAC’S SECRET FACE - 8
DECK2 YULSIC’S MIDRANGE SHAMAN - 1
DECK3 TAREI’S WARLOCK ZOO - 7
DECK4 JASONZHOU’S N’ZOTH CONTROL WARRIOR - 5
DECK5 CHE0NSU’S YOGG TEMPO MAGE - 3

BEST LOCAL : iteracao 2
[0.98, 6.78, 9.8, 1.23, 7.8, 1.23, 3.11, 7.19, 3.73, 3.9, 0.76, 2.26, 0.15] - FIT: 25.0
DECK0 YULSIC’S MIDRANGE SHAMAN - 2
DECK1 JASONZHOU’S N’ZOTH CONTROL WARRIOR - 3
DECK2 FR0ZEN’S N’ZOTH PALADIN - 1
DECK3 CHE0NSU’S YOGG TEMPO MAGE - 3
DECK4 TAREI’S WARLOCK ZOO - 6
DECK5 AMNESIAC’S SECRET FACE - 10


-- Nova iteraçao --
-- Populacao inicial, iteracao 3 --
[4.02, 5.14, 6.43, 0.36, 6.39, 3.34, 5.53, 1.44, 0.96, 9.3, 3.0, 7.76, 2.17] - FIT: -Infinity
[7.65, 7.13, 8.77, 2.47, 8.55, 0.3, 0.83, 5.55, 5.97, 7.31, 1.39, 0.41, 1.99] - FIT: -Infinity
[1.73, 9.76, 6.38, 0.3, 3.66, 3.31, 1.94, 4.7, 3.22, 9.96, 1.8, 2.82, 9.21] - FIT: -Infinity
[6.53, 7.36, 0.81, 1.03, 7.98, 5.27, 2.08, 4.99, 4.21, 7.88, 2.27, 3.64, 9.63] - FIT: -Infinity
[6.96, 2.76, 7.13, 5.65, 9.22, 7.25, 1.73, 7.69, 7.9, 9.37, 8.99, 6.56, 9.99] - FIT: -Infinity
[4.63, 3.16, 8.61, 2.69, 6.3, 1.31, 0.24, 5.66, 3.56, 2.23, 0.3, 8.26, 9.68] - FIT: -Infinity
[5.94, 8.07, 1.94, 9.49, 4.79, 5.58, 8.41, 8.56, 1.06, 0.28, 3.7, 0.56, 3.72] - FIT: -Infinity
[8.46, 6.68, 5.75, 8.46, 0.01, 8.01, 0.99, 1.33, 2.59, 2.38, 0.86, 5.91, 6.79] - FIT: -Infinity
[2.37, 0.19, 8.04, 4.24, 7.01, 0.86, 0.12, 7.54, 1.97, 9.15, 9.06, 4.1, 1.24] - FIT: -Infinity
[5.87, 8.18, 6.07, 1.88, 8.09, 3.34, 5.21, 4.59, 0.18, 8.21, 4.25, 2.93, 1.68] - FIT: -Infinity
[1.55, 6.44, 2.78, 1.5, 2.01, 0.8, 2.43, 0.97, 2.34, 3.62, 0.17, 3.31, 5.35] - FIT: -Infinity
[5.95, 3.27, 3.22, 8.66, 2.91, 7.07, 8.33, 3.86, 2.8, 7.58, 3.89, 8.35, 3.51] - FIT: -Infinity
[4.46, 2.95, 5.04, 8.73, 3.66, 6.92, 5.8, 9.22, 0.84, 5.72, 9.41, 2.63, 7.14] - FIT: -Infinity
[2.46, 3.94, 0.92, 8.69, 4.68, 6.22, 6.29, 0.17, 3.43, 8.29, 4.61, 0.35, 1.56] - FIT: -Infinity
[1.93, 0.86, 4.68, 4.83, 7.35, 2.02, 5.85, 2.87, 1.7, 1.49, 8.38, 2.27, 6.04] - FIT: -Infinity
[3.34, 7.36, 0.6, 7.12, 6.21, 4.6, 8.67, 1.55, 4.27, 7.82, 7.78, 5.58, 7.19] - FIT: -Infinity
[9.64, 0.56, 3.26, 1.75, 3.57, 6.49, 9.32, 5.34, 3.74, 7.96, 1.02, 5.65, 3.31] - FIT: -Infinity
[8.7, 4.64, 1.37, 4.34, 4.18, 8.55, 5.84, 8.37, 2.38, 4.28, 9.45, 2.63, 4.68] - FIT: -Infinity
[1.24, 6.81, 1.6, 8.31, 8.59, 1.42, 7.3, 6.22, 0.04, 4.32, 4.82, 5.18, 3.25] - FIT: -Infinity
[2.66, 1.23, 0.41, 5.83, 1.27, 7.12, 3.13, 4.35, 2.8, 0.18, 7.96, 0.8, 2.19] - FIT: -Infinity
[9.05, 8.51, 3.59, 7.08, 4.26, 2.78, 6.43, 8.64, 9.87, 5.07, 9.24, 6.85, 6.02] - FIT: -Infinity
[7.09, 9.42, 9.84, 7.94, 9.15, 0.83, 9.7, 1.18, 1.8, 0.25, 5.84, 6.57, 9.21] - FIT: -Infinity
[8.1, 2.97, 0.77, 8.36, 0.78, 2.62, 0.09, 2.27, 7.14, 6.01, 5.61, 1.12, 0.34] - FIT: -Infinity
[1.28, 7.76, 2.61, 9.39, 9.95, 6.98, 1.69, 2.04, 5.92, 5.17, 0.21, 1.27, 5.38] - FIT: -Infinity
[9.42, 9.12, 3.5, 7.13, 5.64, 9.33, 5.22, 1.62, 4.49, 2.52, 8.81, 0.85, 6.54] - FIT: -Infinity
[9.86, 4.92, 3.18, 6.36, 4.88, 0.97, 4.53, 7.72, 6.52, 0.32, 1.77, 3.22, 9.68] - FIT: -Infinity
[6.52, 5.27, 2.23, 3.79, 0.54, 4.75, 0.24, 4.11, 6.73, 6.86, 1.35, 6.67, 4.94] - FIT: -Infinity
[3.27, 3.05, 5.53, 1.97, 5.47, 9.21, 9.91, 5.64, 5.95, 2.7, 9.86, 8.58, 5.94] - FIT: -Infinity
[4.0, 1.05, 6.74, 6.46, 5.72, 3.58, 0.07, 3.27, 5.99, 4.8, 8.47, 5.67, 5.56] - FIT: -Infinity
[3.18, 6.79, 6.36, 4.44, 9.14, 6.6, 1.9, 3.84, 8.43, 0.86, 3.67, 8.55, 5.65] - FIT: -Infinity
[0.2, 4.94, 2.73, 8.65, 5.64, 2.7, 9.65, 9.37, 3.33, 2.21, 1.96, 3.1, 1.56] - FIT: -Infinity
[8.02, 4.58, 5.9, 8.49, 7.88, 6.67, 9.77, 2.41, 4.81, 2.64, 5.84, 2.46, 8.28] - FIT: -Infinity
[4.7, 8.75, 9.0, 7.6, 1.03, 9.41, 7.57, 9.39, 4.45, 9.27, 9.31, 6.11, 6.03] - FIT: -Infinity
[6.27, 3.78, 4.74, 6.97, 1.82, 7.1, 2.89, 0.01, 8.38, 9.71, 4.59, 8.37, 9.28] - FIT: -Infinity
[2.93, 9.85, 6.45, 6.03, 3.01, 9.62, 1.25, 3.49, 4.65, 3.12, 7.99, 9.77, 3.19] - FIT: -Infinity
[5.03, 6.16, 6.34, 6.44, 8.44, 4.81, 3.34, 2.31, 3.33, 6.92, 6.56, 8.19, 1.55] - FIT: -Infinity
[3.31, 5.48, 1.64, 6.64, 5.7, 6.42, 9.53, 0.76, 7.34, 0.57, 4.73, 1.86, 6.71] - FIT: -Infinity
[4.68, 5.18, 1.11, 7.04, 1.08, 9.91, 4.45, 9.42, 4.67, 0.97, 2.43, 2.47, 6.7] - FIT: -Infinity
[7.71, 9.26, 5.16, 9.05, 2.27, 5.57, 2.14, 8.2, 1.31, 9.08, 3.1, 5.15, 8.95] - FIT: -Infinity
[4.17, 8.55, 5.88, 0.37, 4.37, 4.21, 7.36, 3.87, 1.29, 5.93, 5.57, 1.36, 9.94] - FIT: -Infinity

BEST LOCAL : iteracao 3
[1.73, 9.76, 6.38, 0.3, 3.66, 3.31, 1.94, 4.7, 3.22, 9.96, 1.8, 1.27, 5.38] - FIT: 29.0
DECK0 YULSIC’S MIDRANGE SHAMAN - 2
DECK1 FR0ZEN’S N’ZOTH PALADIN - 4
DECK2 AMNESIAC’S SECRET FACE - 8
DECK3 CHE0NSU’S YOGG TEMPO MAGE - 1
DECK4 TAREI’S WARLOCK ZOO - 6
DECK5 JASONZHOU’S N’ZOTH CONTROL WARRIOR - 8

BEST LOCAL : iteracao 3
[1.28, 0.81, 2.61, 9.39, 9.95, 6.98, 1.69, 2.04, 5.92, 5.17, 0.21, 1.27, 5.38] - FIT: 26.0
DECK0 FR0ZEN’S N’ZOTH PALADIN - 2
DECK1 JASONZHOU’S N’ZOTH CONTROL WARRIOR - 6
DECK2 TAREI’S WARLOCK ZOO - 6
DECK3 YULSIC’S MIDRANGE SHAMAN - 2
DECK4 AMNESIAC’S SECRET FACE - 6
DECK5 CHE0NSU’S YOGG TEMPO MAGE - 4

BEST LOCAL : iteracao 3
[6.53, 7.36, 0.81, 1.03, 7.98, 5.27, 1.69, 2.04, 5.92, 5.17, 0.21, 1.27, 5.38] - FIT: 26.0
DECK0 AMNESIAC’S SECRET FACE - 8
DECK1 YULSIC’S MIDRANGE SHAMAN - 2
DECK2 JASONZHOU’S N’ZOTH CONTROL WARRIOR - 6
DECK3 FR0ZEN’S N’ZOTH PALADIN - 1
DECK4 CHE0NSU’S YOGG TEMPO MAGE - 2
DECK5 TAREI’S WARLOCK ZOO - 7

BEST LOCAL : iteracao 3
[6.53, 6.68, 0.81, 1.03, 7.98, 5.27, 2.08, 1.39, 3.22, 9.96, 1.8, 2.82, 3.31] - FIT: 27.0
DECK0 AMNESIAC’S SECRET FACE - 9
DECK1 YULSIC’S MIDRANGE SHAMAN - 3
DECK2 JASONZHOU’S N’ZOTH CONTROL WARRIOR - 6
DECK3 TAREI’S WARLOCK ZOO - 8
DECK4 CHE0NSU’S YOGG TEMPO MAGE - 0
DECK5 FR0ZEN’S N’ZOTH PALADIN - 1

BEST LOCAL : iteracao 3
[4.17, 8.55, 5.88, 1.03, 7.98, 5.27, 2.08, 3.66, 3.22, 9.96, 1.8, 2.82, 3.31] - FIT: 27.0
DECK0 YULSIC’S MIDRANGE SHAMAN - 1
DECK1 TAREI’S WARLOCK ZOO - 10
DECK2 AMNESIAC’S SECRET FACE - 7
DECK3 FR0ZEN’S N’ZOTH PALADIN - 3
DECK4 CHE0NSU’S YOGG TEMPO MAGE - 1
DECK5 JASONZHOU’S N’ZOTH CONTROL WARRIOR - 5


-- Nova iteraçao --
-- Populacao inicial, iteracao 4 --
[2.81, 4.38, 3.16, 9.64, 0.27, 8.25, 9.35, 4.56, 5.28, 3.61, 0.66, 0.11, 7.84] - FIT: -Infinity
[8.82, 2.36, 8.64, 5.24, 0.82, 8.9, 9.72, 8.55, 7.44, 4.32, 7.59, 8.72, 2.83] - FIT: -Infinity
[4.82, 3.86, 8.59, 6.19, 9.36, 6.74, 6.71, 4.96, 6.06, 6.8, 4.92, 1.57, 3.95] - FIT: -Infinity
[9.99, 2.15, 9.5, 2.1, 2.82, 3.4, 8.36, 0.56, 1.1, 4.01, 9.42, 0.53, 3.53] - FIT: -Infinity
[6.52, 3.11, 4.4, 3.32, 9.19, 6.99, 9.83, 6.64, 2.83, 8.49, 5.73, 4.31, 5.48] - FIT: -Infinity
[9.64, 2.48, 4.18, 2.23, 1.82, 2.77, 5.2, 1.07, 7.72, 4.6, 0.4, 4.31, 3.8] - FIT: -Infinity
[2.8, 5.58, 8.96, 1.32, 0.97, 2.27, 8.96, 5.94, 1.42, 8.37, 6.72, 6.03, 6.71] - FIT: -Infinity
[7.91, 1.16, 7.65, 2.63, 1.23, 5.04, 9.73, 9.42, 0.81, 4.58, 6.46, 4.55, 3.64] - FIT: -Infinity
[0.49, 5.23, 8.04, 0.13, 0.59, 7.35, 8.62, 1.24, 0.72, 5.93, 7.2, 0.08, 2.38] - FIT: -Infinity
[9.67, 1.99, 1.5, 2.89, 4.22, 8.46, 3.54, 5.91, 2.62, 5.96, 7.3, 8.31, 4.93] - FIT: -Infinity
[2.08, 7.92, 2.18, 2.78, 5.22, 7.64, 9.09, 8.44, 5.7, 3.58, 7.78, 9.66, 5.66] - FIT: -Infinity
[6.95, 4.86, 0.76, 8.71, 7.56, 3.01, 7.75, 0.62, 7.17, 0.32, 0.28, 3.62, 8.16] - FIT: -Infinity
[9.6, 6.0, 8.25, 9.18, 6.73, 3.43, 8.09, 8.01, 2.42, 8.3, 4.93, 2.69, 3.04] - FIT: -Infinity
[3.91, 4.11, 6.17, 1.98, 0.86, 2.3, 6.21, 4.71, 2.83, 2.97, 1.97, 7.38, 5.01] - FIT: -Infinity
[7.99, 1.11, 1.1, 9.42, 7.32, 6.04, 1.3, 6.34, 2.55, 6.57, 4.35, 4.52, 4.25] - FIT: -Infinity
[6.3, 1.77, 3.7, 7.61, 4.26, 5.62, 1.57, 5.44, 9.34, 7.38, 4.1, 2.86, 4.56] - FIT: -Infinity
[6.7, 2.46, 3.39, 9.99, 5.49, 1.83, 1.78, 8.33, 7.78, 7.74, 4.93, 4.43, 5.29] - FIT: -Infinity
[2.89, 8.84, 0.86, 4.41, 3.63, 5.74, 4.73, 0.17, 8.21, 3.0, 7.07, 9.46, 0.44] - FIT: -Infinity
[2.28, 5.13, 6.21, 1.56, 5.23, 9.56, 8.14, 9.61, 9.86, 2.95, 6.44, 0.75, 9.93] - FIT: -Infinity
[3.74, 6.75, 9.2, 8.14, 9.44, 2.41, 2.89, 2.97, 6.37, 8.39, 9.98, 7.86, 8.46] - FIT: -Infinity
[7.89, 7.48, 1.19, 6.93, 1.25, 6.83, 5.06, 3.31, 1.31, 2.98, 1.05, 3.19, 7.6] - FIT: -Infinity
[2.75, 1.65, 4.59, 6.53, 5.64, 6.44, 5.13, 4.27, 5.13, 3.57, 4.42, 3.73, 1.34] - FIT: -Infinity
[8.06, 3.96, 7.64, 6.6, 0.25, 4.88, 4.95, 4.01, 9.66, 5.06, 8.89, 5.04, 1.86] - FIT: -Infinity
[1.02, 1.1, 6.67, 8.42, 6.77, 7.68, 0.14, 2.96, 1.3, 9.96, 3.36, 9.66, 8.82] - FIT: -Infinity
[4.84, 6.14, 3.87, 0.81, 6.9, 3.25, 8.43, 7.28, 7.37, 2.98, 3.63, 5.06, 2.98] - FIT: -Infinity
[0.06, 2.84, 4.85, 1.24, 0.61, 0.82, 4.85, 7.12, 3.06, 6.97, 8.42, 0.37, 3.75] - FIT: -Infinity
[0.84, 4.87, 1.9, 7.9, 3.1, 7.63, 2.2, 6.61, 1.32, 1.52, 4.84, 8.48, 5.99] - FIT: -Infinity
[1.4, 3.27, 0.1, 9.04, 7.8, 9.61, 3.02, 4.12, 1.21, 0.27, 6.01, 4.9, 5.5] - FIT: -Infinity
[3.99, 0.72, 5.63, 2.98, 4.84, 5.51, 5.72, 7.7, 4.15, 7.04, 8.69, 1.49, 2.74] - FIT: -Infinity
[1.64, 3.97, 6.81, 7.05, 8.93, 9.18, 4.03, 0.6, 8.08, 9.52, 6.08, 5.37, 3.33] - FIT: -Infinity
[0.42, 2.34, 5.79, 8.85, 9.35, 4.87, 1.99, 4.88, 2.71, 4.43, 7.8, 6.21, 4.34] - FIT: -Infinity
[0.6, 3.3, 1.47, 2.58, 0.46, 1.49, 6.53, 4.19, 2.63, 3.3, 8.4, 4.39, 9.18] - FIT: -Infinity
[5.71, 6.22, 4.39, 6.07, 3.04, 4.86, 9.21, 4.07, 2.64, 2.59, 1.45, 5.7, 2.03] - FIT: -Infinity
[8.44, 8.63, 0.85, 6.28, 6.82, 5.26, 2.99, 1.32, 6.47, 3.45, 0.34, 0.52, 8.73] - FIT: -Infinity
[9.79, 1.53, 10.0, 4.81, 9.85, 3.33, 0.15, 5.59, 5.95, 8.64, 9.57, 7.84, 8.07] - FIT: -Infinity
[6.65, 0.38, 9.77, 2.95, 3.66, 3.13, 5.54, 1.06, 1.82, 3.0, 2.3, 6.84, 5.67] - FIT: -Infinity
[8.72, 6.08, 3.28, 0.65, 9.92, 2.29, 7.64, 5.97, 8.83, 4.98, 2.07, 4.16, 7.25] - FIT: -Infinity
[4.16, 8.72, 3.31, 0.45, 4.24, 6.7, 4.06, 5.49, 7.72, 4.88, 2.0, 2.5, 7.51] - FIT: -Infinity
[2.56, 8.38, 4.14, 8.0, 7.71, 6.03, 0.19, 9.68, 0.64, 5.27, 1.25, 4.85, 9.78] - FIT: -Infinity
[4.27, 8.12, 1.93, 4.74, 1.66, 1.15, 4.34, 1.18, 4.8, 6.6, 5.69, 1.5, 5.8] - FIT: -Infinity
