Existing card revision = 6
18:59:53 INFO  - Cards in user home folder are up-to-date: rev 6
 PLAYER1: SHAMAN, DECK1: SAVJZ’S N’ZOTH SHAMAN
 PLAYER2: SHAMAN, DECK2: YULSIC’S MIDRANGE SHAMAN

--> BEST LOCAL : iteracao 0
[0.21, 4.0, 1.4, 4.23, 2.91, 5.54, 6.62, 7.08] - 6.0

----> BEST : iteracao 0
[0.21, 4.0, 1.4, 4.23, 2.91, 5.54, 6.62, 7.08] - 6.0
 FITNESS: 6.0
 PLAYER1: SHAMAN, DECK1: SAVJZ’S N’ZOTH SHAMAN
 PLAYER2: SHAMAN, DECK2: YULSIC’S MIDRANGE SHAMAN

--> BEST LOCAL : iteracao 0
[7.96, 2.27, 1.57, 0.7, 7.34, 7.99, 4.86, 7.94] - 7.0

----> BEST : iteracao 0
[7.96, 2.27, 1.57, 0.7, 7.34, 7.99, 4.86, 7.94] - 7.0
 FITNESS: 7.0
 PLAYER1: SHAMAN, DECK1: SAVJZ’S N’ZOTH SHAMAN
 PLAYER2: SHAMAN, DECK2: YULSIC’S MIDRANGE SHAMAN

--> BEST LOCAL : iteracao 0
[5.32, 3.76, 6.56, 3.16, 8.88, 6.21, 0.92, 9.25] - 8.0

----> BEST : iteracao 0
[5.32, 3.76, 6.56, 3.16, 8.88, 6.21, 0.92, 9.25] - 8.0
 FITNESS: 8.0
 PLAYER1: SHAMAN, DECK1: SAVJZ’S N’ZOTH SHAMAN
 PLAYER2: SHAMAN, DECK2: YULSIC’S MIDRANGE SHAMAN

--> BEST LOCAL : iteracao 0
[5.32, 8.69, 6.56, 3.16, 6.99, 6.21, 0.92, 1.32] - 9.0

----> BEST : iteracao 0
[5.32, 8.69, 6.56, 3.16, 6.99, 6.21, 0.92, 1.32] - 9.0
 FITNESS: 9.0
 PLAYER1: SHAMAN, DECK1: SAVJZ’S N’ZOTH SHAMAN
 PLAYER2: SHAMAN, DECK2: YULSIC’S MIDRANGE SHAMAN

--> BEST LOCAL : iteracao 0
[9.0, 8.69, 1.57, 0.7, 7.34, 7.99, 1.14, 6.91] - 8.0

--> BEST LOCAL : iteracao 0
[5.32, 8.69, 6.56, 3.16, 6.99, 8.69, 0.92, 9.25] - 8.0

--> BEST LOCAL : iteracao 0
[7.96, 8.69, 6.32, 3.16, 6.99, 8.69, 0.92, 9.25] - 8.0

--> BEST LOCAL : iteracao 0
[7.96, 2.27, 1.57, 3.16, 6.99, 8.69, 0.92, 9.25] - 8.0

--> BEST LOCAL : iteracao 0
[7.96, 2.27, 1.57, 4.23, 6.99, 6.21, 0.92, 9.25] - 9.0


Nova iteraçao 1
 PLAYER1: MAGE, DECK1: SAVJZ’S N’ZOTH RENO MAGE W/BARNES & FIRELANDS PORTAL
 PLAYER2: WARRIOR, DECK2: FR0ZEN’S C’THUN WARRIOR

--> BEST LOCAL : iteracao 1
[7.24, 6.71, 7.5, 9.91, 7.14, 8.15, 4.67, 1.63] - 15.0

----> BEST : iteracao 1
[7.24, 6.71, 7.5, 9.91, 7.14, 8.15, 4.67, 1.63] - 15.0
 FITNESS: 15.0
 PLAYER1: MAGE, DECK1: SAVJZ’S N’ZOTH RENO MAGE W/BARNES & FIRELANDS PORTAL
 PLAYER2: WARRIOR, DECK2: FR0ZEN’S C’THUN WARRIOR

--> BEST LOCAL : iteracao 1
[2.77, 4.77, 1.43, 4.03, 5.42, 7.8, 6.02, 8.64] - 13.0

--> BEST LOCAL : iteracao 1
[7.24, 6.71, 7.5, 9.91, 5.42, 7.8, 6.02, 3.9] - 15.0

----> BEST : iteracao 1
[7.24, 6.71, 7.5, 9.91, 5.42, 7.8, 6.02, 3.9] - 15.0
 FITNESS: 15.0
 PLAYER1: MAGE, DECK1: SAVJZ’S N’ZOTH RENO MAGE W/BARNES & FIRELANDS PORTAL
 PLAYER2: WARRIOR, DECK2: FR0ZEN’S C’THUN WARRIOR

--> BEST LOCAL : iteracao 1
[4.88, 5.97, 1.43, 4.03, 5.42, 7.8, 6.02, 4.65] - 12.0

--> BEST LOCAL : iteracao 1
[2.77, 4.77, 1.43, 4.03, 5.42, 7.8, 6.02, 9.91] - 14.0

--> BEST LOCAL : iteracao 1
[7.24, 6.71, 7.5, 4.03, 5.42, 7.8, 6.02, 4.65] - 14.0

--> BEST LOCAL : iteracao 1
[7.24, 6.71, 7.5, 4.03, 5.42, 7.8, 6.02, 4.65] - 14.0

--> BEST LOCAL : iteracao 1
[7.24, 6.71, 7.5, 4.03, 5.42, 7.8, 6.02, 4.65] - 14.0

--> BEST LOCAL : iteracao 1
[7.24, 6.71, 7.5, 4.03, 5.42, 7.8, 6.02, 4.65] - 14.0

--> BEST LOCAL : iteracao 1
[7.24, 6.71, 7.5, 4.03, 5.42, 7.8, 6.02, 7.2] - 13.0

--> BEST LOCAL : iteracao 1
[7.24, 6.71, 7.5, 4.03, 5.42, 7.8, 6.02, 3.9] - 14.0

--> BEST LOCAL : iteracao 1
[7.24, 6.71, 7.5, 4.03, 5.42, 7.8, 5.1, 4.65] - 14.0

--> BEST LOCAL : iteracao 1
[7.24, 6.71, 7.5, 4.03, 5.42, 7.8, 3.24, 3.9] - 12.0

--> BEST LOCAL : iteracao 1
[7.24, 6.71, 7.5, 4.03, 5.42, 7.8, 3.24, 3.9] - 14.0

--> BEST LOCAL : iteracao 1
[7.24, 6.71, 7.5, 4.03, 5.42, 7.8, 3.24, 3.9] - 15.0

--> BEST LOCAL : iteracao 1
[7.24, 6.71, 5.2, 4.03, 5.42, 7.8, 3.24, 9.54] - 13.0

--> BEST LOCAL : iteracao 1
[7.24, 6.71, 7.5, 4.03, 5.42, 7.8, 4.81, 3.9] - 16.0

----> BEST : iteracao 1
[7.24, 6.71, 7.5, 4.03, 5.42, 7.8, 4.81, 3.9] - 16.0
 FITNESS: 16.0
 PLAYER1: MAGE, DECK1: SAVJZ’S N’ZOTH RENO MAGE W/BARNES & FIRELANDS PORTAL
 PLAYER2: WARRIOR, DECK2: FR0ZEN’S C’THUN WARRIOR

--> BEST LOCAL : iteracao 1
[7.24, 6.71, 2.9, 4.03, 7.08, 4.92, 6.02, 3.9] - 14.0

--> BEST LOCAL : iteracao 1
[7.24, 6.71, 2.9, 4.03, 5.42, 4.92, 6.02, 9.54] - 15.0

--> BEST LOCAL : iteracao 1
[7.24, 6.71, 7.5, 4.03, 5.42, 4.92, 6.02, 4.65] - 14.0

--> BEST LOCAL : iteracao 1
[7.24, 1.96, 2.9, 4.03, 5.42, 7.8, 3.24, 4.65] - 13.0

--> BEST LOCAL : iteracao 1
[0.09, 6.71, 2.9, 4.03, 5.42, 6.91, 6.02, 3.9] - 14.0

--> BEST LOCAL : iteracao 1
[2.42, 6.71, 2.9, 4.03, 5.42, 6.91, 3.24, 4.65] - 14.0

--> BEST LOCAL : iteracao 1
[7.24, 6.71, 2.9, 4.03, 7.08, 7.8, 3.24, 4.65] - 13.0

--> BEST LOCAL : iteracao 1
[6.52, 6.71, 2.9, 4.03, 7.08, 7.8, 3.24, 6.58] - 14.0

--> BEST LOCAL : iteracao 1
[0.09, 6.71, 1.83, 4.03, 7.08, 7.8, 3.24, 4.65] - 14.0

--> BEST LOCAL : iteracao 1
[0.09, 6.71, 1.83, 4.03, 8.58, 6.91, 3.24, 4.65] - 15.0

--> BEST LOCAL : iteracao 1
[0.09, 6.71, 1.83, 4.03, 8.58, 6.91, 3.24, 4.65] - 14.0

--> BEST LOCAL : iteracao 1
[0.09, 8.96, 2.9, 4.03, 7.08, 6.91, 3.24, 4.65] - 14.0

--> BEST LOCAL : iteracao 1
[0.09, 6.71, 1.83, 4.03, 5.42, 6.91, 3.24, 4.65] - 14.0

--> BEST LOCAL : iteracao 1
[8.8, 6.71, 4.85, 4.03, 5.42, 6.91, 3.24, 4.65] - 13.0

--> BEST LOCAL : iteracao 1
[0.09, 6.71, 4.85, 4.03, 5.42, 7.8, 3.24, 4.65] - 16.0

----> BEST : iteracao 1
[0.09, 6.71, 4.85, 4.03, 5.42, 7.8, 3.24, 4.65] - 16.0
 FITNESS: 16.0
 PLAYER1: MAGE, DECK1: SAVJZ’S N’ZOTH RENO MAGE W/BARNES & FIRELANDS PORTAL
 PLAYER2: WARRIOR, DECK2: FR0ZEN’S C’THUN WARRIOR

--> BEST LOCAL : iteracao 1
[0.09, 6.71, 1.83, 1.37, 5.42, 7.8, 6.56, 4.65] - 14.0

--> BEST LOCAL : iteracao 1
[0.09, 6.71, 3.16, 4.03, 5.42, 6.91, 3.24, 4.65] - 14.0

--> BEST LOCAL : iteracao 1
[0.09, 2.84, 1.83, 1.37, 5.51, 7.8, 9.27, 4.65] - 13.0

--> BEST LOCAL : iteracao 1
[1.88, 2.84, 3.91, 4.03, 9.46, 6.91, 3.24, 4.65] - 14.0

--> BEST LOCAL : iteracao 1
[1.88, 2.84, 3.46, 4.03, 9.46, 7.8, 3.24, 4.65] - 14.0

--> BEST LOCAL : iteracao 1
[0.09, 6.71, 3.46, 4.03, 9.46, 6.91, 3.24, 4.65] - 13.0

--> BEST LOCAL : iteracao 1
[1.88, 2.84, 3.46, 4.03, 9.46, 6.91, 1.94, 4.65] - 12.0

--> BEST LOCAL : iteracao 1
[1.88, 2.84, 3.91, 4.03, 5.42, 2.46, 7.19, 4.65] - 15.0

--> BEST LOCAL : iteracao 1
[0.09, 6.71, 1.83, 4.03, 9.46, 7.8, 6.56, 4.61] - 15.0

--> BEST LOCAL : iteracao 1
[1.88, 1.16, 3.46, 4.03, 4.69, 7.8, 3.24, 4.65] - 16.0

----> BEST : iteracao 1
[1.88, 1.16, 3.46, 4.03, 4.69, 7.8, 3.24, 4.65] - 16.0
 FITNESS: 16.0
 PLAYER1: MAGE, DECK1: SAVJZ’S N’ZOTH RENO MAGE W/BARNES & FIRELANDS PORTAL
 PLAYER2: WARRIOR, DECK2: FR0ZEN’S C’THUN WARRIOR

--> BEST LOCAL : iteracao 1
[1.88, 2.84, 3.91, 4.03, 9.46, 7.8, 6.56, 4.61] - 14.0

--> BEST LOCAL : iteracao 1
[1.88, 7.53, 3.91, 4.03, 5.42, 2.46, 3.24, 4.65] - 14.0

--> BEST LOCAL : iteracao 1
[6.89, 2.84, 3.91, 4.03, 5.42, 2.46, 3.24, 4.65] - 13.0


Nova iteraçao 2
 PLAYER1: ROGUE, DECK1: HANDSOMEGUY’S MALYGOS ROGUE – HEARTHSTONE WORLD CHAMPIONSHIP
 PLAYER2: DRUID, DECK2: JASONZHOU’S YOGG MALYGOS DRUID

--> BEST LOCAL : iteracao 2
[5.87, 3.22, 1.78, 8.37, 5.57, 2.87, 2.4, 5.63] - 12.0

--> BEST LOCAL : iteracao 2
[3.63, 7.72, 2.87, 0.42, 1.49, 8.6, 3.78, 8.32] - 12.0

--> BEST LOCAL : iteracao 2
[3.74, 2.93, 2.87, 8.37, 5.57, 2.61, 3.04, 1.45] - 13.0

--> BEST LOCAL : iteracao 2
[3.74, 2.93, 2.87, 0.42, 2.93, 3.82, 4.4, 5.92] - 12.0

--> BEST LOCAL : iteracao 2
[5.74, 1.18, 5.87, 3.22, 2.12, 8.9, 0.74, 5.63] - 14.0

--> BEST LOCAL : iteracao 2
[3.63, 2.93, 2.87, 0.42, 6.93, 3.82, 4.4, 5.92] - 11.0

--> BEST LOCAL : iteracao 2
[3.74, 2.93, 2.87, 0.42, 6.93, 3.82, 4.4, 5.92] - 12.0

--> BEST LOCAL : iteracao 2
[3.74, 2.93, 2.87, 0.42, 6.93, 3.82, 7.41, 5.92] - 11.0


Nova iteraçao 3
 PLAYER1: MAGE, DECK1: THIJS’ FREEZE MAGE FT. MEDIVH’S VALET, BARNES
 PLAYER2: PRIEST, DECK2: KRIPP’S SILENCE PRIEST W/PURIFY

--> BEST LOCAL : iteracao 3
[0.95, 5.15, 7.28, 7.3, 8.92, 5.53, 9.48, 1.27] - 5.0

--> BEST LOCAL : iteracao 3
[9.76, 0.46, 5.86, 7.55, 2.86, 5.29, 5.31, 3.79] - 5.0

--> BEST LOCAL : iteracao 3
[9.76, 0.46, 5.86, 7.55, 6.98, 5.29, 9.48, 1.27] - 7.0

--> BEST LOCAL : iteracao 3
[0.89, 0.46, 6.36, 7.55, 6.98, 2.51, 5.31, 3.79] - 6.0

--> BEST LOCAL : iteracao 3
[9.76, 0.46, 5.86, 4.17, 6.98, 0.52, 3.59, 6.57] - 11.0

--> BEST LOCAL : iteracao 3
[0.95, 5.15, 7.28, 7.3, 4.21, 0.52, 3.59, 0.13] - 8.0

--> BEST LOCAL : iteracao 3
[9.76, 5.15, 7.28, 7.3, 3.82, 0.52, 3.59, 0.13] - 7.0

--> BEST LOCAL : iteracao 3
[0.95, 5.15, 7.28, 7.55, 3.82, 0.52, 3.59, 0.13] - 11.0

--> BEST LOCAL : iteracao 3
[0.95, 6.04, 7.28, 7.3, 4.21, 0.52, 3.59, 4.85] - 6.0

--> BEST LOCAL : iteracao 3
[0.95, 5.15, 7.28, 6.28, 4.21, 0.52, 3.59, 0.13] - 5.0

--> BEST LOCAL : iteracao 3
[3.7, 6.04, 2.31, 7.3, 4.21, 0.52, 4.41, 0.13] - 7.0


Nova iteraçao 4
 PLAYER1: WARRIOR, DECK1: JASONZHOU’S N’ZOTH CONTROL WARRIOR
 PLAYER2: MAGE, DECK2: CHE0NSU’S YOGG TEMPO MAGE

--> BEST LOCAL : iteracao 4
[2.49, 5.1, 9.31, 8.27, 8.72, 7.5, 2.67, 7.07] - 5.0

--> BEST LOCAL : iteracao 4
[2.46, 3.75, 1.66, 3.42, 3.94, 3.78, 0.33, 7.38] - 6.0

--> BEST LOCAL : iteracao 4
[3.65, 7.21, 5.44, 7.64, 8.96, 2.47, 6.72, 9.96] - 6.0

--> BEST LOCAL : iteracao 4
[9.76, 3.77, 3.32, 5.31, 6.5, 2.47, 6.72, 9.96] - 8.0

--> BEST LOCAL : iteracao 4
[9.76, 4.49, 3.32, 5.31, 3.94, 3.78, 0.33, 7.38] - 6.0

--> BEST LOCAL : iteracao 4
[3.65, 7.21, 5.44, 7.64, 3.94, 3.78, 0.33, 7.38] - 6.0

--> BEST LOCAL : iteracao 4
[9.76, 3.77, 7.46, 7.64, 8.96, 2.47, 6.72, 9.96] - 8.0

--> BEST LOCAL : iteracao 4
[2.49, 5.1, 1.19, 7.64, 3.94, 3.78, 0.33, 7.38] - 6.0

--> BEST LOCAL : iteracao 4
[9.76, 2.23, 3.32, 5.31, 3.94, 3.78, 0.33, 7.38] - 6.0

--> BEST LOCAL : iteracao 4
[9.76, 3.77, 7.46, 5.31, 3.94, 3.78, 0.33, 7.38] - 5.0


Nova iteraçao 5
 PLAYER1: PRIEST, DECK1: TRUMP’S N’ZOTH DRAGON PRIEST
 PLAYER2: HUNTER, DECK2: VLPS’ MIDRANGE SECRET HUNTER

--> BEST LOCAL : iteracao 5
[8.31, 9.35, 5.73, 2.54, 0.09, 7.76, 2.22, 7.22] - 13.0

--> BEST LOCAL : iteracao 5
[1.48, 7.98, 7.92, 8.62, 0.09, 7.76, 2.22, 7.22] - 15.0

--> BEST LOCAL : iteracao 5
[1.08, 5.51, 7.92, 5.61, 0.09, 7.76, 2.22, 7.22] - 14.0

--> BEST LOCAL : iteracao 5
[1.08, 9.8, 7.92, 8.62, 0.09, 7.76, 9.25, 7.22] - 15.0

--> BEST LOCAL : iteracao 5
[1.08, 9.8, 7.92, 8.62, 0.09, 7.76, 9.25, 9.96] - 16.0

--> BEST LOCAL : iteracao 5
[8.91, 4.08, 7.92, 8.62, 0.09, 6.16, 5.47, 9.42] - 14.0

--> BEST LOCAL : iteracao 5
[4.69, 4.08, 7.92, 8.62, 0.09, 6.16, 8.15, 9.42] - 15.0

--> BEST LOCAL : iteracao 5
[8.91, 4.08, 7.92, 8.62, 0.09, 6.16, 2.22, 7.22] - 14.0

--> BEST LOCAL : iteracao 5
[5.86, 4.08, 7.92, 8.62, 0.09, 6.16, 5.47, 9.42] - 15.0

--> BEST LOCAL : iteracao 5
[5.86, 4.08, 7.92, 8.62, 0.09, 6.16, 5.47, 7.7] - 15.0

--> BEST LOCAL : iteracao 5
[8.65, 4.08, 7.92, 8.62, 0.09, 6.16, 5.47, 7.7] - 14.0

--> BEST LOCAL : iteracao 5
[8.65, 4.08, 7.92, 8.62, 0.09, 6.16, 5.47, 9.42] - 16.0

----> BEST : iteracao 5
[8.65, 4.08, 7.92, 8.62, 0.09, 6.16, 5.47, 9.42] - 16.0
 FITNESS: 16.0
 PLAYER1: PRIEST, DECK1: TRUMP’S N’ZOTH DRAGON PRIEST
 PLAYER2: HUNTER, DECK2: VLPS’ MIDRANGE SECRET HUNTER

--> BEST LOCAL : iteracao 5
[8.65, 4.08, 7.92, 8.62, 0.09, 6.16, 5.47, 9.42] - 14.0

--> BEST LOCAL : iteracao 5
[1.79, 4.08, 8.88, 8.62, 0.09, 6.16, 1.2, 9.42] - 14.0

--> BEST LOCAL : iteracao 5
[8.65, 4.08, 7.92, 8.62, 0.09, 6.16, 5.47, 7.02] - 13.0

--> BEST LOCAL : iteracao 5
[8.65, 4.08, 7.92, 0.71, 0.09, 6.16, 3.55, 9.42] - 17.0

----> BEST : iteracao 5
[8.65, 4.08, 7.92, 0.71, 0.09, 6.16, 3.55, 9.42] - 17.0
 FITNESS: 17.0
 PLAYER1: PRIEST, DECK1: TRUMP’S N’ZOTH DRAGON PRIEST
 PLAYER2: HUNTER, DECK2: VLPS’ MIDRANGE SECRET HUNTER

--> BEST LOCAL : iteracao 5
[8.65, 4.08, 7.92, 8.62, 0.09, 6.16, 4.07, 9.42] - 16.0

--> BEST LOCAL : iteracao 5
[8.65, 4.08, 7.92, 8.62, 0.09, 6.16, 5.47, 9.42] - 14.0

--> BEST LOCAL : iteracao 5
[8.65, 4.08, 7.92, 8.62, 0.09, 6.16, 1.67, 9.42] - 13.0

--> BEST LOCAL : iteracao 5
[4.16, 4.08, 7.92, 8.62, 5.4, 6.16, 5.47, 9.42] - 16.0

--> BEST LOCAL : iteracao 5
[8.65, 8.46, 7.92, 8.62, 0.09, 6.16, 9.85, 6.98] - 14.0

--> BEST LOCAL : iteracao 5
[8.65, 8.46, 7.92, 8.62, 0.09, 6.16, 9.85, 6.98] - 14.0

--> BEST LOCAL : iteracao 5
[8.65, 4.08, 7.92, 8.62, 0.09, 6.16, 1.67, 9.42] - 15.0

--> BEST LOCAL : iteracao 5
[8.25, 8.46, 7.92, 8.62, 0.09, 6.16, 5.47, 9.42] - 14.0

--> BEST LOCAL : iteracao 5
[8.65, 8.46, 7.92, 8.62, 0.09, 6.16, 1.67, 6.56] - 16.0

--> BEST LOCAL : iteracao 5
[4.5, 8.46, 7.92, 8.62, 0.09, 6.24, 4.11, 9.42] - 14.0

--> BEST LOCAL : iteracao 5
[5.2, 4.84, 7.23, 8.62, 0.09, 8.14, 1.67, 9.42] - 15.0

--> BEST LOCAL : iteracao 5
[4.5, 8.46, 7.92, 9.69, 0.09, 8.14, 1.67, 9.42] - 16.0

--> BEST LOCAL : iteracao 5
[3.97, 3.07, 7.92, 9.69, 0.09, 8.14, 1.67, 9.42] - 14.0

--> BEST LOCAL : iteracao 5
[8.65, 4.84, 7.23, 8.62, 0.09, 4.78, 1.67, 9.42] - 15.0

--> BEST LOCAL : iteracao 5
[8.65, 4.84, 7.23, 8.62, 0.09, 8.14, 1.67, 9.42] - 16.0

--> BEST LOCAL : iteracao 5
[8.65, 4.84, 7.23, 9.69, 0.09, 4.78, 1.67, 9.42] - 15.0

--> BEST LOCAL : iteracao 5
[8.65, 4.84, 7.23, 8.62, 0.09, 4.78, 1.67, 9.42] - 16.0

--> BEST LOCAL : iteracao 5
[8.65, 4.84, 7.23, 8.62, 0.09, 4.78, 2.72, 9.42] - 15.0

--> BEST LOCAL : iteracao 5
[8.65, 4.84, 7.23, 0.4, 0.09, 4.78, 1.67, 8.86] - 14.0

--> BEST LOCAL : iteracao 5
[8.65, 4.84, 7.23, 8.62, 0.09, 4.78, 2.72, 5.58] - 16.0

--> BEST LOCAL : iteracao 5
[7.93, 4.84, 7.23, 8.62, 0.09, 4.78, 1.67, 8.86] - 16.0

--> BEST LOCAL : iteracao 5
[8.65, 4.84, 5.5, 8.62, 0.09, 4.78, 1.67, 9.42] - 13.0

--> BEST LOCAL : iteracao 5
[8.65, 3.02, 7.23, 8.62, 0.09, 4.78, 1.67, 9.42] - 14.0

--> BEST LOCAL : iteracao 5
[8.65, 4.84, 6.39, 8.62, 0.09, 4.78, 1.67, 8.86] - 15.0

--> BEST LOCAL : iteracao 5
[8.65, 0.61, 7.23, 8.62, 0.09, 4.78, 1.67, 8.86] - 15.0

--> BEST LOCAL : iteracao 5
[8.65, 4.84, 7.23, 8.62, 0.09, 4.78, 1.67, 9.42] - 15.0

--> BEST LOCAL : iteracao 5
[8.65, 4.84, 7.23, 8.62, 0.09, 4.78, 2.72, 9.42] - 17.0

----> BEST : iteracao 5
[8.65, 4.84, 7.23, 8.62, 0.09, 4.78, 2.72, 9.42] - 17.0
 FITNESS: 17.0
 PLAYER1: PRIEST, DECK1: TRUMP’S N’ZOTH DRAGON PRIEST
 PLAYER2: HUNTER, DECK2: VLPS’ MIDRANGE SECRET HUNTER

--> BEST LOCAL : iteracao 5
[8.65, 4.84, 7.23, 8.62, 0.09, 4.78, 2.72, 9.42] - 14.0

--> BEST LOCAL : iteracao 5
[8.65, 3.02, 7.23, 9.21, 3.11, 4.78, 4.8, 9.42] - 14.0

--> BEST LOCAL : iteracao 5
[8.65, 3.02, 1.5, 8.62, 0.09, 4.78, 2.72, 9.42] - 14.0


Nova iteraçao 6
 PLAYER1: MAGE, DECK1: CHE0NSU’S YOGG TEMPO MAGE
 PLAYER2: WARLOCK, DECK2: TAREI’S WARLOCK ZOO

--> BEST LOCAL : iteracao 6
[8.6, 4.68, 5.04, 0.73, 6.34, 5.38, 1.32, 4.21] - 12.0

--> BEST LOCAL : iteracao 6
[8.6, 4.68, 5.04, 0.73, 6.34, 5.38, 1.32, 1.0] - 14.0

--> BEST LOCAL : iteracao 6
[5.83, 6.6, 5.92, 0.16, 3.97, 8.77, 0.78, 6.23] - 13.0

--> BEST LOCAL : iteracao 6
[5.35, 4.68, 5.04, 0.73, 6.34, 5.38, 1.32, 6.85] - 15.0

--> BEST LOCAL : iteracao 6
[8.6, 4.68, 5.04, 0.73, 6.34, 5.38, 0.21, 5.61] - 14.0

--> BEST LOCAL : iteracao 6
[9.9, 7.49, 5.04, 0.73, 6.34, 5.38, 0.21, 5.61] - 13.0

--> BEST LOCAL : iteracao 6
[8.6, 7.49, 5.04, 0.73, 6.34, 5.38, 1.32, 6.85] - 14.0

--> BEST LOCAL : iteracao 6
[9.9, 7.49, 5.04, 0.73, 6.34, 5.38, 0.21, 5.61] - 17.0


Nova iteraçao 7
 PLAYER1: WARLOCK, DECK1: NESS’ INSOMNIA TRUESILVER CHAMPIONSHIP DEMONLOCK
 PLAYER2: WARLOCK, DECK2: IMPACT’S COMBO HANDLOCK

--> BEST LOCAL : iteracao 7
[5.37, 8.08, 7.43, 4.56, 5.67, 7.77, 0.59, 7.72] - 15.0

--> BEST LOCAL : iteracao 7
[2.04, 5.34, 9.52, 0.95, 1.81, 9.5, 2.61, 6.89] - 17.0

--> BEST LOCAL : iteracao 7
[2.04, 9.53, 9.52, 0.95, 1.81, 6.51, 2.61, 9.82] - 16.0

--> BEST LOCAL : iteracao 7
[2.04, 9.53, 9.52, 0.51, 1.81, 6.51, 2.61, 9.82] - 17.0

--> BEST LOCAL : iteracao 7
[2.04, 9.85, 9.52, 1.0, 2.12, 7.77, 0.59, 7.72] - 19.0

----> BEST : iteracao 7
[2.04, 9.85, 9.52, 1.0, 2.12, 7.77, 0.59, 7.72] - 19.0
 FITNESS: 19.0
 PLAYER1: WARLOCK, DECK1: NESS’ INSOMNIA TRUESILVER CHAMPIONSHIP DEMONLOCK
 PLAYER2: WARLOCK, DECK2: IMPACT’S COMBO HANDLOCK

--> BEST LOCAL : iteracao 7
[2.04, 9.85, 9.52, 1.0, 2.12, 7.77, 0.59, 7.72] - 19.0

--> BEST LOCAL : iteracao 7
[2.04, 9.53, 9.52, 0.95, 1.81, 3.57, 2.61, 9.82] - 19.0

--> BEST LOCAL : iteracao 7
[2.04, 9.53, 9.52, 0.95, 1.81, 6.51, 0.93, 9.82] - 18.0

--> BEST LOCAL : iteracao 7
[2.04, 9.53, 2.99, 0.51, 1.81, 6.51, 2.61, 6.61] - 19.0

----> BEST : iteracao 7
[2.04, 9.53, 2.99, 0.51, 1.81, 6.51, 2.61, 6.61] - 19.0
 FITNESS: 19.0
 PLAYER1: WARLOCK, DECK1: NESS’ INSOMNIA TRUESILVER CHAMPIONSHIP DEMONLOCK
 PLAYER2: WARLOCK, DECK2: IMPACT’S COMBO HANDLOCK

--> BEST LOCAL : iteracao 7
[2.04, 9.53, 8.13, 0.51, 1.81, 6.51, 2.61, 9.82] - 18.0

--> BEST LOCAL : iteracao 7
[2.04, 9.53, 9.52, 0.51, 1.81, 6.51, 2.61, 9.82] - 19.0

--> BEST LOCAL : iteracao 7
[2.04, 9.53, 2.73, 0.51, 1.81, 6.51, 7.7, 9.82] - 19.0

--> BEST LOCAL : iteracao 7
[2.04, 9.53, 9.52, 0.51, 1.81, 6.51, 2.61, 9.82] - 20.0

----> BEST : iteracao 7
[2.04, 9.53, 9.52, 0.51, 1.81, 6.51, 2.61, 9.82] - 20.0
 FITNESS: 20.0
 PLAYER1: WARLOCK, DECK1: NESS’ INSOMNIA TRUESILVER CHAMPIONSHIP DEMONLOCK
 PLAYER2: WARLOCK, DECK2: IMPACT’S COMBO HANDLOCK

--> BEST LOCAL : iteracao 7
[2.04, 9.53, 9.52, 0.51, 1.81, 6.51, 1.74, 9.82] - 19.0

--> BEST LOCAL : iteracao 7
[2.04, 9.53, 9.52, 0.51, 1.81, 6.51, 2.61, 9.82] - 19.0

--> BEST LOCAL : iteracao 7
[2.04, 9.53, 9.52, 0.51, 1.81, 6.51, 1.74, 9.82] - 19.0

--> BEST LOCAL : iteracao 7
[7.2, 9.53, 9.52, 0.51, 1.81, 6.51, 2.61, 9.82] - 20.0

--> BEST LOCAL : iteracao 7
[2.04, 9.53, 9.52, 0.51, 1.81, 6.51, 2.61, 0.21] - 20.0

--> BEST LOCAL : iteracao 7
[2.04, 9.53, 9.52, 0.51, 1.81, 6.51, 2.61, 9.82] - 18.0

--> BEST LOCAL : iteracao 7
[2.04, 9.53, 9.52, 0.51, 1.81, 5.35, 2.61, 9.82] - 18.0

--> BEST LOCAL : iteracao 7
[2.04, 6.74, 9.52, 0.51, 1.81, 7.34, 1.74, 9.82] - 20.0

----> BEST : iteracao 7
[2.04, 6.74, 9.52, 0.51, 1.81, 7.34, 1.74, 9.82] - 20.0
 FITNESS: 20.0
 PLAYER1: WARLOCK, DECK1: NESS’ INSOMNIA TRUESILVER CHAMPIONSHIP DEMONLOCK
 PLAYER2: WARLOCK, DECK2: IMPACT’S COMBO HANDLOCK

--> BEST LOCAL : iteracao 7
[2.04, 6.74, 9.52, 0.51, 1.81, 7.34, 1.74, 9.82] - 20.0

----> BEST : iteracao 7
[2.04, 6.74, 9.52, 0.51, 1.81, 7.34, 1.74, 9.82] - 20.0
 FITNESS: 20.0
 PLAYER1: WARLOCK, DECK1: NESS’ INSOMNIA TRUESILVER CHAMPIONSHIP DEMONLOCK
 PLAYER2: WARLOCK, DECK2: IMPACT’S COMBO HANDLOCK

--> BEST LOCAL : iteracao 7
[2.04, 9.02, 9.52, 0.51, 1.81, 7.34, 1.74, 9.82] - 19.0

--> BEST LOCAL : iteracao 7
[2.04, 9.53, 9.52, 0.82, 1.81, 7.34, 1.74, 9.82] - 20.0

----> BEST : iteracao 7
[2.04, 9.53, 9.52, 0.82, 1.81, 7.34, 1.74, 9.82] - 20.0
 FITNESS: 20.0
 PLAYER1: WARLOCK, DECK1: NESS’ INSOMNIA TRUESILVER CHAMPIONSHIP DEMONLOCK
 PLAYER2: WARLOCK, DECK2: IMPACT’S COMBO HANDLOCK

--> BEST LOCAL : iteracao 7
[2.04, 9.02, 9.52, 0.51, 1.81, 7.34, 1.74, 9.82] - 20.0

--> BEST LOCAL : iteracao 7
[2.04, 9.53, 9.52, 0.51, 1.81, 6.51, 1.44, 9.82] - 18.0


Nova iteraçao 8
 PLAYER1: DRUID, DECK1: JASONZHOU’S YOGG MALYGOS DRUID
 PLAYER2: DRUID, DECK2: JASONZHOU’S YOGG MALYGOS DRUID

--> BEST LOCAL : iteracao 8
[0.73, 0.83, 0.76, 8.69, 6.54, 2.25, 8.69, 4.7] - 8.0

--> BEST LOCAL : iteracao 8
[0.73, 9.04, 4.98, 8.12, 7.74, 1.33, 7.56, 1.59] - 9.0

--> BEST LOCAL : iteracao 8
[0.73, 9.04, 4.98, 8.12, 2.72, 6.97, 4.48, 7.95] - 9.0

--> BEST LOCAL : iteracao 8
[6.18, 9.04, 3.72, 8.12, 2.72, 6.97, 4.48, 7.95] - 10.0

--> BEST LOCAL : iteracao 8
[6.18, 2.92, 4.98, 8.12, 2.72, 6.97, 4.48, 7.95] - 9.0

--> BEST LOCAL : iteracao 8
[6.18, 2.92, 4.98, 8.12, 2.72, 0.7, 4.48, 7.95] - 12.0

--> BEST LOCAL : iteracao 8
[6.18, 2.92, 4.98, 8.12, 2.72, 6.97, 4.48, 7.95] - 10.0

--> BEST LOCAL : iteracao 8
[6.18, 2.92, 4.98, 8.12, 2.72, 6.97, 4.48, 7.95] - 8.0

--> BEST LOCAL : iteracao 8
[7.16, 2.92, 4.98, 8.12, 2.72, 6.97, 4.48, 2.98] - 11.0


Nova iteraçao 9
 PLAYER1: SHAMAN, DECK1: SAVJZ’S N’ZOTH SHAMAN
 PLAYER2: DRUID, DECK2: HOEJ’S C’THUN DRUID DREAMHACK SUMMER 2016

--> BEST LOCAL : iteracao 9
[4.21, 5.15, 0.82, 3.67, 2.92, 5.34, 4.59, 3.66] - 6.0

--> BEST LOCAL : iteracao 9
[8.93, 6.58, 1.6, 6.71, 2.9, 9.42, 0.47, 6.59] - 9.0

--> BEST LOCAL : iteracao 9
[8.92, 6.58, 1.6, 6.71, 4.76, 9.42, 0.47, 7.63] - 7.0

--> BEST LOCAL : iteracao 9
[8.92, 6.58, 1.6, 6.16, 2.9, 9.42, 1.88, 6.59] - 7.0

--> BEST LOCAL : iteracao 9
[8.92, 6.58, 1.6, 6.71, 4.76, 9.42, 8.35, 6.59] - 7.0

--> BEST LOCAL : iteracao 9
[8.93, 6.47, 0.65, 6.16, 2.9, 9.42, 1.88, 6.59] - 7.0

--> BEST LOCAL : iteracao 9
[8.93, 6.47, 0.65, 6.16, 2.9, 9.42, 1.88, 6.59] - 7.0

--> BEST LOCAL : iteracao 9
[8.93, 2.83, 5.04, 6.16, 2.9, 9.42, 1.88, 6.59] - 6.0

--> BEST LOCAL : iteracao 9
[8.93, 2.83, 5.04, 3.45, 4.55, 9.42, 1.88, 6.59] - 8.0


Nova iteraçao 10

----> BEST : iteracao 10
[2.04, 9.53, 9.52, 0.82, 1.81, 7.34, 1.74, 9.82] - 20.0
 FITNESS: 20.0
 PLAYER1: SHAMAN, DECK1: SAVJZ’S N’ZOTH SHAMAN
 PLAYER2: DRUID, DECK2: HOEJ’S C’THUN DRUID DREAMHACK SUMMER 2016
