
--> BEST LOCAL : iteracao 0
[5.97, 5.65, 6.17, 1.22, 7.44, 9.93, 5.8, 5.74, 3.71, 2.48, 5.67, 9.6] - 9.0

----> BEST : iteracao 0
[5.97, 5.65, 6.17, 1.22, 7.44, 9.93, 5.8, 5.74, 3.71, 2.48, 5.67, 9.6] - 9.0
 FITNESS: 9.0
 PLAYER1: ROGUE, DECK1: HANDSOMEGUY’S MALYGOS ROGUE – HEARTHSTONE WORLD CHAMPIONSHIP
 PLAYER2: WARRIOR, DECK2: NEOBILITY’S N’ZOTH CONTROL WARRIOR – HCT AMERICAS LAST CALL 2016

--> BEST LOCAL : iteracao 0
[6.6, 9.11, 8.37, 8.01, 5.01, 2.84, 4.68, 7.1, 6.82, 0.88, 6.75, 7.43] - 8.0

--> BEST LOCAL : iteracao 0
[4.21, 5.51, 3.93, 6.41, 1.35, 8.94, 6.87, 8.1, 6.79, 0.24, 8.53, 1.9] - 9.0

--> BEST LOCAL : iteracao 0
[6.57, 5.65, 6.17, 1.22, 7.44, 9.93, 4.78, 6.3, 5.68, 5.31, 4.56, 9.17] - 12.0

----> BEST : iteracao 0
[6.57, 5.65, 6.17, 1.22, 7.44, 9.93, 4.78, 6.3, 5.68, 5.31, 4.56, 9.17] - 12.0
 FITNESS: 12.0
 PLAYER1: ROGUE, DECK1: HANDSOMEGUY’S MALYGOS ROGUE – HEARTHSTONE WORLD CHAMPIONSHIP
 PLAYER2: WARRIOR, DECK2: NEOBILITY’S N’ZOTH CONTROL WARRIOR – HCT AMERICAS LAST CALL 2016

--> BEST LOCAL : iteracao 0
[3.06, 5.18, 8.64, 6.43, 8.74, 5.42, 4.06, 4.52, 1.82, 1.99, 2.96, 7.08] - 10.0

--> BEST LOCAL : iteracao 0
[6.57, 5.65, 2.79, 1.22, 5.01, 2.44, 7.72, 2.04, 6.82, 0.88, 6.75, 7.43] - 8.0

--> BEST LOCAL : iteracao 0
[0.76, 3.5, 7.12, 4.13, 9.61, 3.19, 5.8, 5.74, 3.71, 2.48, 5.67, 9.6] - 12.0

--> BEST LOCAL : iteracao 0
[6.57, 5.65, 6.17, 1.22, 1.35, 8.94, 6.87, 8.1, 6.79, 0.24, 8.53, 1.9] - 10.0

--> BEST LOCAL : iteracao 0
[6.57, 5.65, 6.17, 1.47, 5.01, 2.84, 4.68, 2.04, 6.82, 0.88, 6.18, 1.13] - 12.0

----> BEST : iteracao 0
[6.57, 5.65, 6.17, 1.47, 5.01, 2.84, 4.68, 2.04, 6.82, 0.88, 6.18, 1.13] - 12.0
 FITNESS: 12.0
 PLAYER1: ROGUE, DECK1: HANDSOMEGUY’S MALYGOS ROGUE – HEARTHSTONE WORLD CHAMPIONSHIP
 PLAYER2: WARRIOR, DECK2: NEOBILITY’S N’ZOTH CONTROL WARRIOR – HCT AMERICAS LAST CALL 2016


Nova iteraçao 1
 PLAYER1: ROGUE, DECK1: TRUMP’S RENO ROGUE
 PLAYER2: HUNTER, DECK2: AMNESIAC’S SECRET FACE

--> BEST LOCAL : iteracao 1
[6.16, 0.31, 2.72, 1.02, 4.28, 7.95, 2.15, 1.93, 8.79, 8.64, 0.58, 2.79] - 11.0

--> BEST LOCAL : iteracao 1
[4.33, 4.64, 8.53, 1.81, 7.25, 6.12, 7.0, 4.19, 9.41, 4.9, 4.92, 4.79] - 13.0

----> BEST : iteracao 1
[4.33, 4.64, 8.53, 1.81, 7.25, 6.12, 7.0, 4.19, 9.41, 4.9, 4.92, 4.79] - 13.0
 FITNESS: 13.0
 PLAYER1: ROGUE, DECK1: TRUMP’S RENO ROGUE
 PLAYER2: HUNTER, DECK2: AMNESIAC’S SECRET FACE

--> BEST LOCAL : iteracao 1
[3.13, 3.3, 7.84, 0.94, 4.0, 2.82, 3.26, 6.94, 4.72, 8.09, 4.2, 5.86] - 13.0

----> BEST : iteracao 1
[3.13, 3.3, 7.84, 0.94, 4.0, 2.82, 3.26, 6.94, 4.72, 8.09, 4.2, 5.86] - 13.0
 FITNESS: 13.0
 PLAYER1: ROGUE, DECK1: TRUMP’S RENO ROGUE
 PLAYER2: HUNTER, DECK2: AMNESIAC’S SECRET FACE

--> BEST LOCAL : iteracao 1
[7.88, 5.38, 3.65, 1.19, 1.15, 6.64, 9.01, 7.19, 3.41, 9.3, 5.91, 8.61] - 12.0

--> BEST LOCAL : iteracao 1
[7.88, 5.38, 3.65, 1.19, 1.15, 1.63, 9.01, 7.19, 4.07, 4.26, 7.39, 3.35] - 13.0


Nova iteraçao 2
 PLAYER1: MAGE, DECK1: THIJS’ FREEZE MAGE FT. MEDIVH’S VALET, BARNES
 PLAYER2: PALADIN, DECK2: BIG BAD WOLF HEROIC DEATHRATTLE

--> BEST LOCAL : iteracao 2
[1.29, 9.09, 3.45, 1.46, 1.29, 8.47, 1.59, 1.66, 7.3, 7.38, 6.48, 4.92] - 4.0

--> BEST LOCAL : iteracao 2
[8.53, 0.2, 3.89, 9.32, 9.15, 1.74, 2.7, 6.18, 8.12, 0.21, 9.54, 7.54] - 6.0


Nova iteraçao 3
 PLAYER1: MAGE, DECK1: THIJS’ FREEZE MAGE FT. MEDIVH’S VALET, BARNES
 PLAYER2: DRUID, DECK2: HOEJ’S C’THUN DRUID DREAMHACK SUMMER 2016

--> BEST LOCAL : iteracao 3
[9.1, 2.38, 3.59, 6.05, 8.1, 7.11, 9.61, 3.33, 5.94, 5.42, 6.16, 8.82] - 6.0

--> BEST LOCAL : iteracao 3
[5.95, 6.6, 8.4, 7.48, 4.74, 2.7, 3.62, 4.84, 4.96, 8.37, 0.54, 0.64] - 5.0

--> BEST LOCAL : iteracao 3
[3.32, 0.96, 6.44, 1.16, 8.87, 6.53, 0.28, 2.89, 6.79, 9.08, 6.36, 2.62] - 3.0


Nova iteraçao 4
 PLAYER1: MAGE, DECK1: CHE0NSU’S YOGG TEMPO MAGE
 PLAYER2: PALADIN, DECK2: TARS’ AGGRO PALADIN

--> BEST LOCAL : iteracao 4
[8.11, 8.51, 8.56, 9.6, 2.78, 2.38, 6.1, 5.66, 3.28, 5.21, 0.8, 9.96] - 11.0

--> BEST LOCAL : iteracao 4
[8.99, 2.87, 3.54, 4.88, 9.53, 5.25, 3.16, 8.7, 5.77, 9.47, 1.47, 0.19] - 12.0

--> BEST LOCAL : iteracao 4
[8.11, 8.51, 8.56, 9.6, 2.78, 2.38, 6.1, 5.66, 2.79, 4.47, 0.64, 3.18] - 15.0

----> BEST : iteracao 4
[8.11, 8.51, 8.56, 9.6, 2.78, 2.38, 6.1, 5.66, 2.79, 4.47, 0.64, 3.18] - 15.0
 FITNESS: 15.0
 PLAYER1: MAGE, DECK1: CHE0NSU’S YOGG TEMPO MAGE
 PLAYER2: PALADIN, DECK2: TARS’ AGGRO PALADIN

--> BEST LOCAL : iteracao 4
[8.11, 8.51, 8.56, 9.6, 2.78, 2.38, 6.1, 5.66, 2.79, 4.47, 1.47, 0.19] - 12.0

--> BEST LOCAL : iteracao 4
[4.27, 6.18, 9.53, 0.88, 9.53, 5.25, 3.16, 8.7, 5.77, 9.47, 1.47, 0.19] - 12.0

--> BEST LOCAL : iteracao 4
[8.99, 2.87, 3.54, 4.88, 9.53, 4.68, 5.07, 9.88, 8.07, 9.47, 1.47, 0.19] - 13.0


Nova iteraçao 5
 PLAYER1: SHAMAN, DECK1: ROJOM’S AGGRO SHAMAN
 PLAYER2: SHAMAN, DECK2: ROJOM’S AGGRO SHAMAN

--> BEST LOCAL : iteracao 5
[0.94, 4.06, 4.76, 8.14, 8.09, 9.2, 4.04, 8.4, 2.38, 2.63, 2.61, 8.63] - 9.0

--> BEST LOCAL : iteracao 5
[9.39, 6.47, 0.01, 3.44, 3.86, 9.56, 4.6, 5.79, 1.41, 7.05, 2.78, 4.31] - 9.0

--> BEST LOCAL : iteracao 5
[9.51, 2.67, 5.8, 7.34, 3.93, 3.54, 2.78, 3.74, 3.05, 3.34, 2.78, 8.64] - 9.0

--> BEST LOCAL : iteracao 5
[5.78, 4.54, 1.48, 0.52, 7.89, 9.85, 4.88, 4.81, 6.46, 3.6, 7.45, 1.83] - 9.0


Nova iteraçao 6
 PLAYER1: DRUID, DECK1: HOEJ’S C’THUN DRUID DREAMHACK SUMMER 2016
 PLAYER2: WARLOCK, DECK2: FR0ZEN’S N’ZOTH RENOLOCK

--> BEST LOCAL : iteracao 6
[9.93, 4.07, 0.76, 6.04, 6.44, 7.35, 4.31, 2.35, 0.85, 4.29, 3.09, 7.67] - 10.0

--> BEST LOCAL : iteracao 6
[7.98, 8.18, 6.29, 8.7, 6.64, 5.55, 5.25, 7.69, 0.96, 1.98, 5.52, 9.54] - 10.0

--> BEST LOCAL : iteracao 6
[7.15, 9.19, 0.01, 6.04, 6.44, 7.35, 3.25, 4.25, 7.57, 1.48, 5.71, 8.71] - 12.0


Nova iteraçao 7
 PLAYER1: PALADIN, DECK1: FR0ZEN’S N’ZOTH PALADIN
 PLAYER2: DRUID, DECK2: HOEJ’S C’THUN DRUID DREAMHACK SUMMER 2016

--> BEST LOCAL : iteracao 7
[2.91, 7.78, 2.02, 7.99, 9.0, 4.25, 3.98, 9.46, 4.19, 5.07, 0.97, 8.78] - 10.0

--> BEST LOCAL : iteracao 7
[6.33, 0.66, 9.3, 9.14, 10.0, 1.42, 8.17, 9.08, 0.44, 2.82, 5.68, 1.13] - 14.0

--> BEST LOCAL : iteracao 7
[8.32, 3.71, 2.25, 5.56, 6.38, 3.71, 3.81, 5.83, 6.88, 3.76, 9.57, 8.58] - 9.0


Nova iteraçao 8
 PLAYER1: HUNTER, DECK1: FAKE’S GFINITY SPRING MASTERS CONTROL HUNTER
 PLAYER2: DRUID, DECK2: THIJS’ WOTG STANDARD Y’SHAARJ & C’THUN ASTRAL DRUID

--> BEST LOCAL : iteracao 8
[4.41, 2.07, 1.74, 7.28, 8.02, 5.79, 9.59, 4.23, 8.24, 4.07, 3.43, 6.85] - 13.0

--> BEST LOCAL : iteracao 8
[3.32, 2.86, 3.08, 1.54, 1.62, 9.34, 3.84, 7.28, 7.84, 0.24, 2.96, 7.33] - 14.0

--> BEST LOCAL : iteracao 8
[5.68, 9.19, 9.6, 6.5, 3.85, 9.14, 4.7, 4.24, 9.13, 2.43, 4.95, 0.16] - 14.0

--> BEST LOCAL : iteracao 8
[9.2, 2.54, 9.97, 2.32, 4.06, 5.42, 6.62, 5.68, 4.93, 3.03, 2.43, 5.22] - 14.0

--> BEST LOCAL : iteracao 8
[4.39, 1.75, 2.25, 7.37, 8.44, 9.14, 7.36, 4.26, 5.36, 8.85, 6.92, 4.13] - 13.0


Nova iteraçao 9
 PLAYER1: MAGE, DECK1: SAVJZ’S N’ZOTH RENO MAGE W/BARNES & FIRELANDS PORTAL
 PLAYER2: WARLOCK, DECK2: FR0ZEN’S N’ZOTH RENOLOCK

--> BEST LOCAL : iteracao 9
[1.32, 2.32, 1.74, 0.39, 6.23, 1.15, 2.14, 4.1, 6.81, 8.53, 7.39, 1.94] - 12.0

--> BEST LOCAL : iteracao 9
[4.59, 3.62, 7.76, 7.31, 7.96, 5.88, 1.64, 8.15, 3.38, 7.22, 9.65, 7.09] - 10.0


Nova iteraçao 10

----> BEST : iteracao 10
[8.11, 8.51, 8.56, 9.6, 2.78, 2.38, 6.1, 5.66, 2.79, 4.47, 0.64, 3.18] - 15.0
 FITNESS: 15.0
 PLAYER1: MAGE, DECK1: SAVJZ’S N’ZOTH RENO MAGE W/BARNES & FIRELANDS PORTAL
 PLAYER2: WARLOCK, DECK2: FR0ZEN’S N’ZOTH RENOLOCK
