{
  "cards": [
    "minion_gadgetzan_jouster",
    "minion_gadgetzan_jouster",
    "minion_hungry_crab",
    "minion_hungry_crab",
    "spell_journey_below",
    "spell_journey_below",
    "minion_sir_finley_mrrgglton",
    "minion_swashburglar",
    "minion_swashburglar",
    "minion_crazed_alchemist",
    "minion_crazed_alchemist",
    "minion_jeweled_scarab",
    "minion_jeweled_scarab",
    "minion_lance_carrier",
    "minion_lance_carrier",
    "minion_ironbeak_owl",
    "minion_ironbeak_owl",
    "minion_shattered_sun_cleric",
    "minion_shattered_sun_cleric",
    "minion_armored_warhorse",
    "minion_armored_warhorse",
    "minion_master_of_disguise",
    "minion_master_of_disguise",
    "minion_spellbreaker",
    "minion_spellbreaker",
    "minion_master_jouster",
    "minion_master_jouster",
    "minion_justicar_trueheart",
    "minion_the_black_knight",
    "minion_archthief_rafaam"
  ],
  "name": "discover",
  "heroClass": "ROGUE",
  "arbitrary": false
}