DECK SELECTED: AMNESIAC’S SECRET FACE; ITERATIONS 5; POPULATION_SIZE 40; TOTAL GAMES 60; SELECTION TOURNAMENT; CROSSOVER 0.7f; MUTATION 0.1f; IA Game state value;

-- Populacao inicial, iteracao 0 --
[1.97, 2.56, 0.12, 3.9, 3.73, 3.28, 2.97, 8.34, 1.56, 3.51, 6.93, 5.74, 1.38] - FIT: -Infinity
[4.87, 6.26, 6.09, 5.41, 4.72, 1.26, 5.82, 6.51, 8.71, 3.84, 2.56, 6.14, 3.95] - FIT: -Infinity
[4.0, 3.34, 9.25, 8.25, 1.72, 8.66, 7.6, 2.61, 5.82, 7.67, 2.87, 9.41, 6.15] - FIT: -Infinity
[0.32, 2.27, 8.48, 6.23, 3.43, 2.3, 6.84, 0.82, 6.31, 0.91, 5.56, 7.24, 0.74] - FIT: -Infinity
[4.09, 9.02, 9.4, 7.08, 1.02, 7.7, 1.22, 5.41, 0.53, 5.35, 9.23, 5.74, 2.93] - FIT: -Infinity
[5.54, 5.01, 6.62, 3.13, 0.65, 4.48, 4.8, 5.1, 8.11, 4.84, 1.79, 3.15, 5.19] - FIT: -Infinity
[9.65, 4.84, 2.4, 3.75, 9.21, 1.15, 9.4, 0.53, 6.63, 3.72, 4.08, 6.87, 9.17] - FIT: -Infinity
[6.89, 5.89, 4.49, 1.29, 7.42, 0.03, 9.82, 8.14, 4.18, 4.77, 0.51, 7.72, 6.25] - FIT: -Infinity
[7.1, 1.79, 5.93, 3.98, 1.9, 9.48, 1.14, 2.47, 9.23, 8.75, 3.84, 0.17, 5.66] - FIT: -Infinity
[4.65, 2.7, 7.95, 7.87, 1.45, 0.52, 5.57, 1.27, 2.39, 1.95, 3.08, 1.72, 0.53] - FIT: -Infinity
[0.73, 4.59, 6.25, 4.63, 5.4, 0.5, 7.1, 0.6, 1.4, 2.13, 4.23, 0.69, 1.96] - FIT: -Infinity
[9.8, 3.02, 7.51, 2.21, 1.18, 7.86, 9.18, 8.51, 1.83, 7.3, 5.63, 0.15, 4.13] - FIT: -Infinity
[2.93, 2.92, 1.48, 3.72, 2.78, 4.33, 0.26, 4.97, 9.44, 2.4, 2.83, 8.29, 4.95] - FIT: -Infinity
[5.39, 6.93, 2.38, 6.88, 5.81, 1.08, 3.96, 5.07, 5.74, 3.07, 6.14, 4.2, 6.07] - FIT: -Infinity
[0.86, 3.82, 5.11, 2.09, 6.47, 1.61, 7.02, 7.99, 6.72, 4.89, 3.52, 6.92, 5.64] - FIT: -Infinity
[9.76, 7.35, 0.91, 9.54, 1.34, 3.31, 7.4, 9.57, 2.57, 3.44, 5.02, 6.43, 7.77] - FIT: -Infinity
[6.28, 1.63, 8.46, 6.26, 0.03, 1.71, 7.28, 1.06, 9.94, 8.85, 5.14, 7.2, 1.68] - FIT: -Infinity
[0.98, 3.95, 2.1, 5.99, 3.01, 9.09, 7.78, 4.3, 1.53, 0.3, 0.93, 1.91, 1.3] - FIT: -Infinity
[7.72, 2.34, 2.73, 1.39, 3.97, 1.43, 9.5, 2.05, 1.89, 5.31, 4.33, 9.71, 3.16] - FIT: -Infinity
[4.2, 6.82, 8.66, 5.47, 6.63, 1.6, 2.66, 4.25, 8.8, 2.58, 8.82, 0.61, 1.69] - FIT: -Infinity
[8.66, 8.94, 8.6, 8.94, 4.35, 0.83, 3.74, 5.78, 9.58, 2.97, 9.37, 6.73, 4.45] - FIT: -Infinity
[1.3, 9.06, 5.36, 8.64, 6.19, 1.57, 4.73, 0.2, 0.79, 9.13, 1.11, 5.11, 9.55] - FIT: -Infinity
[1.36, 6.79, 7.2, 7.01, 4.83, 0.02, 8.0, 2.64, 2.63, 1.41, 7.3, 6.91, 8.99] - FIT: -Infinity
[6.52, 8.22, 7.49, 2.02, 3.73, 5.11, 2.28, 0.95, 5.01, 8.52, 7.55, 5.45, 4.8] - FIT: -Infinity
[9.45, 5.42, 1.53, 8.63, 3.76, 4.88, 2.03, 9.18, 8.85, 4.19, 0.54, 1.64, 6.86] - FIT: -Infinity
[1.01, 3.76, 4.63, 2.33, 8.17, 1.34, 5.39, 8.05, 9.51, 1.76, 9.94, 9.58, 0.27] - FIT: -Infinity
[9.57, 0.17, 7.53, 0.76, 2.36, 9.48, 6.9, 0.45, 5.53, 7.88, 4.39, 1.96, 8.91] - FIT: -Infinity
[5.81, 7.86, 0.85, 2.51, 2.8, 6.94, 7.82, 7.56, 3.71, 0.16, 4.12, 5.26, 0.53] - FIT: -Infinity
[2.01, 0.09, 7.89, 2.01, 2.54, 9.12, 6.09, 7.29, 3.65, 6.17, 1.73, 1.64, 8.34] - FIT: -Infinity
[0.87, 7.84, 4.6, 3.75, 0.11, 5.89, 1.19, 4.46, 3.88, 5.98, 6.59, 9.75, 1.29] - FIT: -Infinity
[7.24, 3.6, 7.41, 0.7, 4.34, 0.02, 7.37, 8.92, 0.83, 9.95, 0.08, 9.97, 1.54] - FIT: -Infinity
[9.13, 8.27, 2.74, 4.56, 9.22, 6.03, 0.59, 7.71, 0.49, 5.5, 3.07, 5.95, 4.98] - FIT: -Infinity
[9.95, 1.47, 3.56, 5.0, 1.89, 5.59, 9.66, 2.69, 5.87, 8.39, 6.37, 7.01, 9.12] - FIT: -Infinity
[9.0, 6.24, 3.78, 7.11, 2.47, 9.98, 2.99, 7.61, 5.87, 5.69, 5.09, 4.26, 6.81] - FIT: -Infinity
[8.33, 4.58, 9.87, 9.89, 1.56, 4.88, 0.33, 0.66, 4.65, 3.36, 2.7, 4.9, 3.84] - FIT: -Infinity
[8.87, 4.31, 2.79, 0.85, 7.35, 5.75, 3.79, 1.59, 2.73, 7.27, 8.51, 4.13, 1.49] - FIT: -Infinity
[6.69, 7.65, 8.54, 9.31, 7.33, 6.84, 0.55, 7.06, 5.7, 8.35, 7.49, 2.07, 2.47] - FIT: -Infinity
[7.25, 7.39, 7.37, 4.51, 9.94, 1.88, 8.09, 2.68, 7.76, 9.08, 9.71, 7.6, 6.88] - FIT: -Infinity
[5.31, 6.94, 5.3, 8.45, 3.63, 5.81, 5.8, 9.67, 2.31, 3.96, 0.04, 7.44, 9.23] - FIT: -Infinity
[5.72, 5.04, 0.89, 6.22, 9.19, 2.72, 8.33, 3.04, 2.6, 5.31, 6.98, 2.53, 5.42] - FIT: -Infinity

BEST LOCAL : iteracao 0
[9.95, 1.47, 3.56, 5.0, 1.89, 5.59, 9.66, 2.69, 5.87, 8.39, 6.37, 7.01, 9.12] - FIT: 25.0
DECK0 YULSIC’S MIDRANGE SHAMAN - 3
DECK1 CHE0NSU’S YOGG TEMPO MAGE - 5
DECK2 FR0ZEN’S N’ZOTH PALADIN - 8
DECK3 TAREI’S WARLOCK ZOO - 1
DECK4 AMNESIAC’S SECRET FACE - 5
DECK5 JASONZHOU’S N’ZOTH CONTROL WARRIOR - 3

----> BEST : iteracao 0
[9.95, 1.47, 3.56, 5.0, 1.89, 5.59, 9.66, 2.69, 5.87, 8.39, 6.37, 7.01, 9.12] - FIT: 25.0
DECK0 YULSIC’S MIDRANGE SHAMAN - 3
DECK1 CHE0NSU’S YOGG TEMPO MAGE - 5
DECK2 FR0ZEN’S N’ZOTH PALADIN - 8
DECK3 TAREI’S WARLOCK ZOO - 1
DECK4 AMNESIAC’S SECRET FACE - 5
DECK5 JASONZHOU’S N’ZOTH CONTROL WARRIOR - 3

BEST LOCAL : iteracao 0
[2.19, 1.47, 3.56, 5.0, 1.89, 5.59, 9.66, 2.69, 5.87, 5.31, 6.98, 2.53, 5.42] - FIT: 22.0
DECK0 YULSIC’S MIDRANGE SHAMAN - 0
DECK1 TAREI’S WARLOCK ZOO - 4
DECK2 CHE0NSU’S YOGG TEMPO MAGE - 2
DECK3 FR0ZEN’S N’ZOTH PALADIN - 5
DECK4 JASONZHOU’S N’ZOTH CONTROL WARRIOR - 4
DECK5 AMNESIAC’S SECRET FACE - 7

BEST LOCAL : iteracao 0
[5.72, 5.04, 0.89, 6.22, 9.19, 2.72, 8.33, 3.04, 5.87, 8.39, 6.37, 7.01, 9.12] - FIT: 24.0
DECK0 JASONZHOU’S N’ZOTH CONTROL WARRIOR - 4
DECK1 YULSIC’S MIDRANGE SHAMAN - 2
DECK2 CHE0NSU’S YOGG TEMPO MAGE - 2
DECK3 FR0ZEN’S N’ZOTH PALADIN - 7
DECK4 AMNESIAC’S SECRET FACE - 4
DECK5 TAREI’S WARLOCK ZOO - 5

BEST LOCAL : iteracao 0
[2.19, 1.47, 3.56, 5.0, 1.89, 5.59, 9.66, 2.69, 5.87, 8.39, 6.37, 7.01, 9.12] - FIT: 21.0
DECK0 YULSIC’S MIDRANGE SHAMAN - 3
DECK1 AMNESIAC’S SECRET FACE - 3
DECK2 JASONZHOU’S N’ZOTH CONTROL WARRIOR - 5
DECK3 TAREI’S WARLOCK ZOO - 3
DECK4 FR0ZEN’S N’ZOTH PALADIN - 5
DECK5 CHE0NSU’S YOGG TEMPO MAGE - 2

BEST LOCAL : iteracao 0
[2.19, 5.04, 0.89, 5.0, 1.89, 5.59, 9.66, 2.69, 5.87, 8.39, 6.37, 7.01, 9.12] - FIT: 25.0
DECK0 AMNESIAC’S SECRET FACE - 4
DECK1 TAREI’S WARLOCK ZOO - 3
DECK2 JASONZHOU’S N’ZOTH CONTROL WARRIOR - 6
DECK3 CHE0NSU’S YOGG TEMPO MAGE - 2
DECK4 YULSIC’S MIDRANGE SHAMAN - 4
DECK5 FR0ZEN’S N’ZOTH PALADIN - 6


-- Nova iteraçao --
-- Populacao inicial, iteracao 1 --
[6.91, 1.6, 8.15, 3.3, 7.02, 5.2, 5.25, 5.46, 4.08, 8.1, 1.1, 7.4, 4.14] - FIT: -Infinity
[4.11, 2.06, 3.3, 2.59, 6.13, 3.67, 0.17, 1.1, 8.22, 1.44, 7.49, 4.85, 8.9] - FIT: -Infinity
[6.86, 7.2, 6.87, 4.34, 4.08, 9.63, 8.36, 7.27, 5.88, 6.23, 1.31, 2.85, 1.73] - FIT: -Infinity
[7.65, 2.64, 6.18, 4.71, 7.01, 6.75, 6.46, 8.66, 1.24, 7.25, 2.3, 1.47, 0.23] - FIT: -Infinity
[6.9, 8.56, 5.78, 2.52, 8.94, 0.14, 3.62, 8.37, 2.44, 9.62, 7.19, 5.95, 8.63] - FIT: -Infinity
[6.48, 4.15, 3.89, 5.28, 2.62, 1.96, 4.22, 1.51, 5.22, 2.62, 2.58, 5.76, 0.99] - FIT: -Infinity
[6.0, 9.16, 5.69, 7.37, 7.28, 2.39, 9.88, 5.06, 1.62, 9.24, 7.75, 3.55, 7.07] - FIT: -Infinity
[0.66, 5.85, 5.44, 4.85, 7.79, 5.83, 8.54, 4.89, 5.0, 1.92, 4.34, 3.03, 8.58] - FIT: -Infinity
[3.3, 0.25, 5.76, 5.82, 9.94, 8.37, 7.63, 7.83, 8.87, 7.78, 6.27, 0.7, 1.43] - FIT: -Infinity
[8.62, 0.08, 4.17, 1.09, 5.73, 4.12, 3.54, 5.76, 6.73, 0.29, 0.85, 8.1, 4.66] - FIT: -Infinity
[8.96, 3.85, 2.25, 7.73, 0.74, 6.58, 5.68, 9.78, 8.37, 4.04, 0.52, 3.21, 0.99] - FIT: -Infinity
[4.24, 9.24, 2.56, 5.27, 4.92, 6.24, 0.83, 0.17, 9.04, 8.02, 2.72, 5.57, 2.5] - FIT: -Infinity
[1.46, 8.54, 7.54, 0.18, 2.12, 0.02, 7.24, 1.21, 1.54, 4.64, 3.62, 2.69, 5.47] - FIT: -Infinity
[8.33, 4.77, 1.6, 3.09, 7.0, 6.94, 8.47, 0.41, 6.59, 5.1, 2.65, 9.88, 7.49] - FIT: -Infinity
[3.99, 8.21, 2.24, 3.82, 4.04, 1.77, 5.95, 0.13, 2.28, 8.18, 4.01, 8.11, 4.22] - FIT: -Infinity
[7.65, 8.11, 3.85, 9.23, 8.66, 5.17, 1.58, 8.55, 3.91, 1.99, 3.47, 1.79, 2.95] - FIT: -Infinity
[9.38, 6.28, 5.46, 3.93, 8.72, 4.68, 4.35, 8.64, 9.85, 7.97, 4.54, 9.6, 1.59] - FIT: -Infinity
[1.66, 5.11, 5.24, 2.78, 7.8, 4.11, 9.46, 4.56, 8.33, 3.2, 4.75, 2.09, 3.91] - FIT: -Infinity
[4.34, 3.96, 7.15, 6.5, 1.85, 4.27, 1.19, 7.79, 2.24, 8.37, 2.53, 7.2, 4.98] - FIT: -Infinity
[2.3, 9.74, 2.52, 7.36, 5.96, 8.26, 3.35, 7.32, 2.76, 6.3, 2.74, 9.48, 6.98] - FIT: -Infinity
[1.54, 5.01, 0.52, 3.36, 9.88, 8.51, 2.0, 1.29, 3.53, 0.54, 0.49, 7.5, 6.15] - FIT: -Infinity
[7.76, 7.41, 4.78, 9.42, 9.69, 3.18, 1.08, 6.35, 4.63, 3.6, 2.8, 3.96, 7.09] - FIT: -Infinity
[9.22, 8.67, 9.75, 3.35, 2.29, 5.52, 4.02, 7.07, 9.58, 5.26, 2.62, 9.95, 3.35] - FIT: -Infinity
[3.45, 2.97, 3.47, 7.65, 2.99, 9.52, 6.5, 1.36, 3.27, 3.39, 0.09, 4.98, 4.27] - FIT: -Infinity
[5.02, 5.08, 3.14, 6.81, 7.97, 0.61, 0.9, 5.57, 6.54, 1.27, 7.57, 8.64, 0.04] - FIT: -Infinity
[8.73, 8.47, 8.23, 1.37, 9.3, 1.44, 0.07, 8.59, 2.04, 1.9, 5.68, 3.72, 3.72] - FIT: -Infinity
[7.77, 9.88, 4.33, 5.67, 2.8, 8.45, 9.83, 4.61, 5.11, 4.66, 6.46, 4.16, 5.54] - FIT: -Infinity
[1.2, 1.77, 6.32, 9.45, 4.13, 1.95, 2.49, 3.99, 8.25, 3.27, 1.69, 2.23, 9.29] - FIT: -Infinity
[1.66, 9.76, 4.97, 6.9, 3.03, 6.73, 0.91, 3.69, 0.5, 1.61, 5.65, 9.94, 3.87] - FIT: -Infinity
[2.77, 0.86, 0.71, 0.67, 9.61, 5.19, 1.55, 8.19, 5.99, 9.85, 2.29, 0.2, 8.9] - FIT: -Infinity
[3.02, 3.21, 3.11, 6.41, 8.84, 6.78, 1.03, 7.29, 8.81, 8.7, 0.78, 1.16, 5.56] - FIT: -Infinity
[6.44, 3.62, 1.94, 1.75, 9.73, 2.12, 9.23, 9.47, 7.3, 7.49, 2.13, 9.07, 6.41] - FIT: -Infinity
[4.62, 7.36, 9.49, 6.83, 9.6, 8.9, 6.41, 9.07, 7.38, 9.49, 8.28, 7.23, 4.92] - FIT: -Infinity
[5.34, 5.09, 0.62, 9.03, 4.19, 9.33, 4.69, 6.26, 3.16, 3.72, 0.91, 6.74, 7.64] - FIT: -Infinity
[5.69, 7.49, 2.63, 4.32, 4.34, 7.41, 6.93, 1.61, 1.57, 8.27, 8.06, 8.53, 5.48] - FIT: -Infinity
[8.53, 0.86, 8.78, 0.69, 8.34, 5.42, 0.09, 7.31, 9.0, 0.8, 0.21, 7.52, 4.35] - FIT: -Infinity
[1.98, 0.18, 6.27, 8.6, 4.91, 1.98, 0.45, 0.25, 6.23, 2.91, 9.43, 8.58, 1.47] - FIT: -Infinity
[0.93, 7.84, 9.75, 7.85, 6.21, 0.85, 2.24, 5.69, 1.59, 1.02, 7.32, 5.29, 1.06] - FIT: -Infinity
[5.25, 8.84, 4.75, 9.11, 0.47, 7.9, 7.73, 4.9, 6.31, 2.39, 9.12, 5.37, 3.83] - FIT: -Infinity
[8.27, 1.02, 7.83, 9.79, 9.43, 0.99, 8.04, 7.17, 5.45, 9.39, 2.57, 3.91, 2.45] - FIT: -Infinity

BEST LOCAL : iteracao 1
[6.0, 9.16, 5.69, 7.37, 7.28, 2.39, 9.88, 5.06, 1.62, 9.24, 7.75, 3.55, 7.07] - FIT: 20.0
DECK0 AMNESIAC’S SECRET FACE - 5
DECK1 TAREI’S WARLOCK ZOO - 3
DECK2 CHE0NSU’S YOGG TEMPO MAGE - 1
DECK3 FR0ZEN’S N’ZOTH PALADIN - 4
DECK4 YULSIC’S MIDRANGE SHAMAN - 2
DECK5 JASONZHOU’S N’ZOTH CONTROL WARRIOR - 5

BEST LOCAL : iteracao 1
[5.69, 7.49, 2.63, 4.32, 4.34, 7.41, 6.93, 1.61, 1.62, 9.24, 7.75, 3.55, 7.07] - FIT: 24.0
DECK0 TAREI’S WARLOCK ZOO - 3
DECK1 CHE0NSU’S YOGG TEMPO MAGE - 3
DECK2 YULSIC’S MIDRANGE SHAMAN - 2
DECK3 JASONZHOU’S N’ZOTH CONTROL WARRIOR - 5
DECK4 FR0ZEN’S N’ZOTH PALADIN - 6
DECK5 AMNESIAC’S SECRET FACE - 5

BEST LOCAL : iteracao 1
[5.69, 7.49, 2.63, 4.32, 4.34, 7.41, 6.93, 1.61, 1.57, 8.27, 8.06, 8.53, 5.48] - FIT: 24.0
DECK0 FR0ZEN’S N’ZOTH PALADIN - 4
DECK1 AMNESIAC’S SECRET FACE - 5
DECK2 JASONZHOU’S N’ZOTH CONTROL WARRIOR - 3
DECK3 TAREI’S WARLOCK ZOO - 6
DECK4 YULSIC’S MIDRANGE SHAMAN - 2
DECK5 CHE0NSU’S YOGG TEMPO MAGE - 4

BEST LOCAL : iteracao 1
[7.77, 7.49, 2.63, 4.32, 4.34, 7.41, 4.5, 5.06, 1.62, 2.39, 9.12, 5.37, 3.83] - FIT: 21.0
DECK0 AMNESIAC’S SECRET FACE - 8
DECK1 YULSIC’S MIDRANGE SHAMAN - 0
DECK2 CHE0NSU’S YOGG TEMPO MAGE - 2
DECK3 JASONZHOU’S N’ZOTH CONTROL WARRIOR - 5
DECK4 TAREI’S WARLOCK ZOO - 1
DECK5 FR0ZEN’S N’ZOTH PALADIN - 5


-- Nova iteraçao --
-- Populacao inicial, iteracao 2 --
[7.8, 4.09, 8.24, 2.38, 8.87, 4.77, 7.87, 2.62, 8.23, 6.36, 7.08, 8.92, 5.44] - FIT: -Infinity
[3.36, 7.28, 6.73, 4.02, 0.46, 0.99, 7.45, 9.5, 6.0, 9.46, 7.28, 6.02, 5.91] - FIT: -Infinity
[9.17, 3.24, 8.03, 0.25, 4.72, 8.92, 4.44, 6.3, 4.43, 7.7, 0.57, 4.22, 5.53] - FIT: -Infinity
[2.61, 9.98, 3.29, 0.14, 7.64, 1.99, 9.56, 9.8, 7.13, 2.75, 8.54, 5.82, 6.68] - FIT: -Infinity
[7.45, 9.89, 5.18, 0.86, 8.58, 4.38, 6.79, 0.76, 0.69, 7.42, 0.97, 7.06, 5.1] - FIT: -Infinity
[7.51, 5.68, 2.12, 9.0, 2.58, 6.82, 8.37, 2.15, 1.58, 6.16, 8.69, 0.92, 4.39] - FIT: -Infinity
[9.74, 8.47, 3.84, 7.77, 1.75, 8.41, 5.06, 1.52, 3.53, 1.86, 1.96, 4.47, 5.1] - FIT: -Infinity
[0.12, 1.2, 6.55, 7.3, 4.69, 3.01, 9.88, 5.47, 5.79, 6.92, 8.5, 2.13, 2.44] - FIT: -Infinity
[3.52, 3.94, 4.91, 0.67, 5.87, 1.27, 7.44, 2.54, 0.89, 8.17, 5.94, 1.06, 6.14] - FIT: -Infinity
[7.82, 1.21, 2.61, 9.49, 4.89, 5.98, 1.34, 9.73, 2.8, 0.72, 7.52, 4.34, 9.51] - FIT: -Infinity
[6.55, 4.95, 6.45, 8.62, 2.74, 0.93, 6.84, 2.26, 7.47, 5.99, 8.46, 2.47, 4.97] - FIT: -Infinity
[9.39, 0.15, 8.01, 8.99, 1.03, 3.76, 4.36, 2.65, 9.75, 3.53, 5.67, 7.09, 2.98] - FIT: -Infinity
[9.62, 8.72, 7.09, 3.1, 8.26, 0.73, 9.95, 1.32, 9.48, 4.57, 5.11, 0.64, 9.55] - FIT: -Infinity
[7.47, 5.82, 5.89, 9.33, 1.81, 1.07, 0.07, 1.88, 9.36, 5.22, 3.34, 1.88, 3.73] - FIT: -Infinity
[5.57, 2.72, 7.4, 9.24, 2.76, 8.36, 9.68, 8.2, 7.37, 4.85, 9.58, 2.83, 6.46] - FIT: -Infinity
[3.97, 0.61, 2.54, 7.7, 8.83, 6.97, 1.89, 4.96, 7.98, 1.66, 9.8, 8.56, 2.05] - FIT: -Infinity
[4.2, 6.0, 5.39, 4.73, 9.52, 6.25, 9.01, 4.62, 9.87, 4.04, 7.33, 4.35, 8.96] - FIT: -Infinity
[2.8, 6.24, 8.7, 3.79, 9.23, 0.63, 3.74, 2.48, 5.32, 0.3, 5.36, 8.07, 4.08] - FIT: -Infinity
[7.54, 6.21, 7.2, 1.33, 4.29, 6.94, 9.38, 3.96, 1.96, 9.31, 7.44, 3.28, 3.93] - FIT: -Infinity
[5.74, 2.11, 0.58, 1.03, 2.63, 4.02, 0.77, 3.33, 2.07, 4.68, 9.28, 7.24, 0.06] - FIT: -Infinity
[3.7, 6.82, 5.8, 7.42, 3.6, 6.21, 0.98, 3.39, 4.76, 5.83, 1.56, 0.89, 2.72] - FIT: -Infinity
[4.46, 6.8, 6.71, 7.24, 3.07, 6.22, 9.49, 7.18, 0.13, 8.38, 3.41, 8.73, 8.38] - FIT: -Infinity
[6.85, 5.51, 4.4, 2.45, 0.34, 0.4, 9.28, 9.14, 4.5, 6.73, 6.89, 3.89, 7.08] - FIT: -Infinity
[6.23, 1.3, 9.92, 5.07, 7.38, 3.9, 9.39, 1.49, 2.7, 3.02, 8.94, 2.32, 0.8] - FIT: -Infinity
[1.95, 5.75, 8.99, 1.73, 6.5, 3.89, 9.82, 6.77, 6.09, 5.06, 4.72, 2.12, 3.49] - FIT: -Infinity
[2.09, 0.94, 9.21, 6.98, 8.53, 4.15, 2.81, 5.4, 2.6, 8.33, 2.54, 0.77, 9.32] - FIT: -Infinity
[0.01, 2.33, 5.58, 0.19, 7.18, 7.14, 1.6, 5.9, 1.0, 6.23, 5.09, 3.95, 8.74] - FIT: -Infinity
[7.32, 8.91, 9.53, 9.88, 6.87, 5.28, 5.24, 3.19, 7.2, 4.42, 2.19, 1.6, 2.59] - FIT: -Infinity
[3.32, 2.88, 3.6, 2.97, 5.72, 3.93, 4.04, 5.56, 9.01, 5.31, 4.94, 1.91, 6.55] - FIT: -Infinity
[0.6, 6.91, 0.34, 3.88, 2.5, 4.74, 1.47, 5.68, 6.06, 6.57, 7.45, 6.17, 2.45] - FIT: -Infinity
[4.65, 4.15, 9.39, 4.97, 7.11, 8.95, 7.51, 9.99, 4.33, 6.09, 4.5, 5.04, 0.63] - FIT: -Infinity
[5.4, 9.85, 7.79, 1.86, 0.39, 1.95, 9.97, 1.96, 6.14, 3.63, 2.2, 7.3, 7.95] - FIT: -Infinity
[2.94, 6.93, 5.74, 7.24, 0.66, 8.92, 8.38, 1.81, 2.49, 4.81, 6.2, 4.2, 7.62] - FIT: -Infinity
[6.02, 0.06, 2.94, 7.59, 2.04, 2.52, 8.55, 8.78, 4.43, 1.98, 8.24, 9.65, 5.36] - FIT: -Infinity
[5.0, 0.52, 8.8, 8.38, 0.43, 3.94, 3.54, 3.17, 0.08, 2.04, 9.13, 0.75, 3.9] - FIT: -Infinity
[9.96, 7.92, 9.86, 4.4, 7.05, 4.06, 1.09, 3.92, 3.48, 3.99, 9.91, 0.83, 8.51] - FIT: -Infinity
[4.74, 6.12, 5.12, 2.39, 2.61, 2.96, 1.85, 4.02, 2.24, 5.36, 1.31, 1.67, 1.74] - FIT: -Infinity
[3.81, 7.97, 4.46, 3.23, 6.93, 6.47, 8.55, 9.17, 3.37, 1.79, 2.65, 4.01, 1.02] - FIT: -Infinity
[2.47, 4.48, 7.61, 9.66, 0.34, 1.25, 1.56, 1.13, 7.45, 4.5, 1.93, 9.89, 1.18] - FIT: -Infinity
[2.04, 2.56, 5.49, 1.52, 7.47, 0.79, 7.61, 0.01, 0.85, 3.79, 3.95, 8.92, 2.46] - FIT: -Infinity

BEST LOCAL : iteracao 2
[2.94, 6.93, 5.74, 7.24, 0.66, 8.92, 8.38, 1.81, 2.49, 4.81, 6.2, 4.2, 7.62] - FIT: 24.0
DECK0 FR0ZEN’S N’ZOTH PALADIN - 6
DECK1 AMNESIAC’S SECRET FACE - 5
DECK2 CHE0NSU’S YOGG TEMPO MAGE - 1
DECK3 TAREI’S WARLOCK ZOO - 4
DECK4 JASONZHOU’S N’ZOTH CONTROL WARRIOR - 7
DECK5 YULSIC’S MIDRANGE SHAMAN - 1

BEST LOCAL : iteracao 2
[0.12, 1.2, 6.55, 7.3, 4.69, 8.92, 8.38, 1.81, 2.49, 0.72, 8.46, 2.47, 4.97] - FIT: 22.0
DECK0 JASONZHOU’S N’ZOTH CONTROL WARRIOR - 2
DECK1 CHE0NSU’S YOGG TEMPO MAGE - 5
DECK2 TAREI’S WARLOCK ZOO - 4
DECK3 AMNESIAC’S SECRET FACE - 5
DECK4 YULSIC’S MIDRANGE SHAMAN - 3
DECK5 FR0ZEN’S N’ZOTH PALADIN - 3

BEST LOCAL : iteracao 2
[0.12, 1.2, 6.55, 7.3, 4.69, 3.01, 9.88, 5.47, 5.79, 4.81, 6.2, 4.2, 2.44] - FIT: 26.0
DECK0 AMNESIAC’S SECRET FACE - 8
DECK1 FR0ZEN’S N’ZOTH PALADIN - 2
DECK2 TAREI’S WARLOCK ZOO - 4
DECK3 CHE0NSU’S YOGG TEMPO MAGE - 3
DECK4 JASONZHOU’S N’ZOTH CONTROL WARRIOR - 3
DECK5 YULSIC’S MIDRANGE SHAMAN - 6

----> BEST : iteracao 2
[0.12, 1.2, 6.55, 7.3, 4.69, 3.01, 9.88, 5.47, 5.79, 4.81, 6.2, 4.2, 2.44] - FIT: 26.0
DECK0 AMNESIAC’S SECRET FACE - 8
DECK1 FR0ZEN’S N’ZOTH PALADIN - 2
DECK2 TAREI’S WARLOCK ZOO - 4
DECK3 CHE0NSU’S YOGG TEMPO MAGE - 3
DECK4 JASONZHOU’S N’ZOTH CONTROL WARRIOR - 3
DECK5 YULSIC’S MIDRANGE SHAMAN - 6

BEST LOCAL : iteracao 2
[2.94, 6.93, 5.74, 7.3, 4.69, 3.01, 9.88, 5.47, 5.79, 6.92, 8.5, 2.13, 2.44] - FIT: 20.0
DECK0 CHE0NSU’S YOGG TEMPO MAGE - 1
DECK1 AMNESIAC’S SECRET FACE - 6
DECK2 TAREI’S WARLOCK ZOO - 5
DECK3 YULSIC’S MIDRANGE SHAMAN - 4
DECK4 FR0ZEN’S N’ZOTH PALADIN - 3
DECK5 JASONZHOU’S N’ZOTH CONTROL WARRIOR - 1

BEST LOCAL : iteracao 2
[2.94, 6.93, 5.74, 7.24, 0.66, 8.92, 8.38, 1.81, 2.49, 6.92, 8.5, 2.47, 4.97] - FIT: 21.0
DECK0 JASONZHOU’S N’ZOTH CONTROL WARRIOR - 2
DECK1 CHE0NSU’S YOGG TEMPO MAGE - 1
DECK2 AMNESIAC’S SECRET FACE - 6
DECK3 TAREI’S WARLOCK ZOO - 4
DECK4 YULSIC’S MIDRANGE SHAMAN - 3
DECK5 FR0ZEN’S N’ZOTH PALADIN - 5

BEST LOCAL : iteracao 2
[0.12, 1.2, 6.55, 7.3, 0.66, 8.92, 8.38, 1.81, 2.49, 6.92, 8.5, 2.47, 4.97] - FIT: 22.0
DECK0 CHE0NSU’S YOGG TEMPO MAGE - 1
DECK1 JASONZHOU’S N’ZOTH CONTROL WARRIOR - 3
DECK2 TAREI’S WARLOCK ZOO - 4
DECK3 YULSIC’S MIDRANGE SHAMAN - 5
DECK4 FR0ZEN’S N’ZOTH PALADIN - 6
DECK5 AMNESIAC’S SECRET FACE - 3

BEST LOCAL : iteracao 2
[0.12, 6.93, 5.74, 7.3, 4.69, 3.01, 8.38, 1.81, 2.49, 6.92, 8.5, 2.47, 4.97] - FIT: 22.0
DECK0 JASONZHOU’S N’ZOTH CONTROL WARRIOR - 6
DECK1 FR0ZEN’S N’ZOTH PALADIN - 4
DECK2 CHE0NSU’S YOGG TEMPO MAGE - 0
DECK3 YULSIC’S MIDRANGE SHAMAN - 5
DECK4 TAREI’S WARLOCK ZOO - 3
DECK5 AMNESIAC’S SECRET FACE - 4


-- Nova iteraçao --
-- Populacao inicial, iteracao 3 --
[0.35, 8.39, 9.37, 9.62, 9.5, 7.68, 3.24, 8.34, 8.42, 8.82, 6.14, 4.95, 3.61] - FIT: -Infinity
[8.22, 6.77, 3.41, 5.8, 6.59, 8.81, 4.25, 3.04, 8.68, 0.57, 9.75, 3.26, 0.53] - FIT: -Infinity
[3.93, 5.81, 1.35, 1.17, 3.55, 3.2, 8.25, 0.58, 1.94, 5.04, 9.06, 2.64, 3.78] - FIT: -Infinity
[7.69, 5.6, 7.33, 3.35, 7.39, 3.86, 3.71, 2.15, 5.3, 0.81, 1.75, 9.96, 9.85] - FIT: -Infinity
[5.91, 8.62, 1.52, 6.23, 1.78, 2.53, 2.66, 9.3, 5.65, 5.05, 4.27, 8.26, 7.5] - FIT: -Infinity
[1.24, 0.01, 8.37, 3.66, 5.19, 3.49, 7.32, 4.73, 7.7, 4.08, 1.98, 4.96, 1.7] - FIT: -Infinity
[5.8, 3.85, 6.06, 0.67, 2.79, 0.24, 2.32, 5.0, 6.04, 1.76, 5.33, 1.39, 0.21] - FIT: -Infinity
[5.74, 5.99, 0.62, 6.77, 9.37, 8.99, 0.03, 9.04, 6.18, 9.38, 7.8, 7.85, 4.29] - FIT: -Infinity
[4.29, 7.52, 1.76, 5.11, 3.07, 3.36, 4.0, 6.68, 7.73, 7.87, 9.72, 6.88, 1.81] - FIT: -Infinity
[6.89, 0.68, 7.72, 9.88, 8.53, 1.52, 3.56, 1.72, 6.19, 1.14, 2.79, 4.96, 8.7] - FIT: -Infinity
[5.08, 4.78, 7.47, 4.19, 0.05, 1.2, 6.14, 8.29, 9.69, 3.56, 1.65, 1.17, 1.36] - FIT: -Infinity
[7.0, 0.12, 2.54, 7.45, 3.68, 0.96, 8.59, 1.09, 7.59, 6.88, 9.67, 5.42, 7.02] - FIT: -Infinity
[6.67, 3.22, 7.5, 9.76, 3.1, 1.86, 2.83, 1.21, 8.8, 2.96, 4.34, 4.92, 0.3] - FIT: -Infinity
[1.88, 9.72, 1.05, 6.51, 8.15, 4.79, 8.01, 1.03, 0.57, 6.3, 9.15, 9.15, 4.52] - FIT: -Infinity
[6.61, 6.95, 9.26, 2.53, 4.57, 4.08, 5.54, 6.73, 1.17, 2.17, 3.29, 0.32, 6.19] - FIT: -Infinity
[6.62, 0.83, 3.7, 1.93, 7.86, 2.25, 9.4, 3.42, 7.35, 3.45, 9.59, 0.02, 9.77] - FIT: -Infinity
[9.66, 9.09, 2.03, 1.11, 6.79, 6.56, 7.42, 5.99, 9.98, 6.97, 7.89, 6.71, 2.75] - FIT: -Infinity
[8.31, 0.52, 0.61, 6.66, 6.83, 1.32, 2.31, 7.04, 5.56, 9.35, 1.74, 2.69, 2.63] - FIT: -Infinity
[5.79, 9.82, 8.32, 7.27, 0.55, 8.6, 7.02, 3.54, 0.09, 3.9, 5.96, 3.92, 4.12] - FIT: -Infinity
[4.51, 3.04, 7.66, 5.49, 3.69, 3.74, 1.62, 7.1, 5.11, 7.32, 4.39, 2.19, 8.08] - FIT: -Infinity
[8.97, 8.37, 9.32, 3.82, 9.79, 7.93, 1.43, 7.52, 9.61, 6.18, 9.2, 8.98, 8.82] - FIT: -Infinity
[7.19, 2.47, 8.06, 3.72, 5.46, 9.87, 9.45, 7.01, 9.29, 6.11, 5.96, 8.81, 0.32] - FIT: -Infinity
[8.47, 8.17, 6.43, 7.04, 8.65, 3.27, 0.6, 6.25, 4.1, 5.71, 4.03, 2.7, 3.19] - FIT: -Infinity
[7.71, 3.55, 3.79, 2.08, 7.9, 0.86, 3.19, 7.03, 2.54, 7.74, 4.58, 5.0, 4.86] - FIT: -Infinity
[1.05, 4.16, 7.04, 4.43, 9.5, 8.58, 3.4, 0.49, 8.93, 3.16, 6.98, 0.11, 5.36] - FIT: -Infinity
[3.71, 1.38, 4.56, 5.4, 4.23, 3.41, 5.02, 1.68, 1.72, 5.06, 1.75, 6.99, 9.08] - FIT: -Infinity
[9.23, 9.41, 4.56, 6.55, 4.16, 4.47, 3.46, 2.41, 6.55, 0.29, 7.38, 4.06, 9.64] - FIT: -Infinity
[9.02, 2.63, 1.25, 2.93, 9.77, 5.57, 4.26, 2.66, 6.91, 3.24, 1.15, 7.54, 2.93] - FIT: -Infinity
[0.94, 0.02, 2.81, 5.74, 9.41, 3.9, 6.51, 1.0, 0.29, 8.39, 5.9, 6.65, 2.66] - FIT: -Infinity
[4.65, 8.86, 7.86, 5.43, 3.37, 4.13, 7.67, 9.89, 8.23, 7.31, 0.72, 4.42, 1.48] - FIT: -Infinity
[4.06, 4.84, 8.46, 7.35, 0.38, 7.91, 6.28, 3.87, 0.26, 5.72, 1.68, 7.65, 5.05] - FIT: -Infinity
[9.67, 3.81, 1.17, 4.81, 1.94, 0.77, 7.16, 1.5, 9.89, 1.82, 0.06, 5.78, 0.38] - FIT: -Infinity
[1.77, 0.22, 4.02, 9.73, 0.42, 2.69, 9.79, 4.84, 8.36, 8.4, 4.71, 5.96, 5.72] - FIT: -Infinity
[2.82, 6.59, 2.66, 4.01, 3.38, 9.11, 9.96, 2.52, 4.93, 6.12, 3.05, 9.58, 9.51] - FIT: -Infinity
[5.3, 5.4, 6.32, 5.1, 0.7, 6.8, 4.68, 5.84, 0.61, 5.3, 4.39, 4.96, 7.91] - FIT: -Infinity
[8.99, 3.89, 0.43, 2.51, 1.68, 7.96, 2.5, 1.76, 9.43, 1.27, 1.73, 2.82, 3.31] - FIT: -Infinity
[0.49, 5.98, 2.84, 7.39, 9.13, 4.76, 6.81, 9.96, 9.09, 9.86, 9.94, 0.41, 9.49] - FIT: -Infinity
[1.99, 1.37, 3.61, 8.88, 3.81, 8.77, 8.77, 9.41, 1.59, 8.63, 9.86, 2.45, 8.87] - FIT: -Infinity
[5.48, 0.25, 3.31, 7.95, 4.47, 5.25, 9.24, 6.8, 5.38, 2.05, 8.68, 2.11, 3.22] - FIT: -Infinity
[8.59, 2.02, 1.58, 9.73, 9.15, 3.27, 2.15, 2.82, 6.94, 0.15, 4.26, 5.87, 1.26] - FIT: -Infinity

BEST LOCAL : iteracao 3
[0.94, 0.02, 2.81, 3.06, 9.41, 3.9, 4.25, 3.04, 8.68, 0.57, 9.75, 3.26, 0.53] - FIT: 20.0
DECK0 FR0ZEN’S N’ZOTH PALADIN - 5
DECK1 AMNESIAC’S SECRET FACE - 5
DECK2 TAREI’S WARLOCK ZOO - 3
DECK3 JASONZHOU’S N’ZOTH CONTROL WARRIOR - 6
DECK4 CHE0NSU’S YOGG TEMPO MAGE - 1
DECK5 YULSIC’S MIDRANGE SHAMAN - 0

BEST LOCAL : iteracao 3
[4.69, 0.02, 2.81, 3.06, 9.41, 3.9, 6.51, 1.0, 0.29, 8.39, 5.9, 6.65, 2.66] - FIT: 21.0
DECK0 YULSIC’S MIDRANGE SHAMAN - 3
DECK1 FR0ZEN’S N’ZOTH PALADIN - 7
DECK2 JASONZHOU’S N’ZOTH CONTROL WARRIOR - 5
DECK3 TAREI’S WARLOCK ZOO - 3
DECK4 CHE0NSU’S YOGG TEMPO MAGE - 0
DECK5 AMNESIAC’S SECRET FACE - 3

BEST LOCAL : iteracao 3
[5.48, 0.02, 2.81, 3.06, 9.41, 3.9, 6.51, 3.54, 0.09, 8.13, 5.96, 3.92, 4.12] - FIT: 21.0
DECK0 JASONZHOU’S N’ZOTH CONTROL WARRIOR - 3
DECK1 CHE0NSU’S YOGG TEMPO MAGE - 0
DECK2 TAREI’S WARLOCK ZOO - 3
DECK3 AMNESIAC’S SECRET FACE - 7
DECK4 FR0ZEN’S N’ZOTH PALADIN - 6
DECK5 YULSIC’S MIDRANGE SHAMAN - 2

BEST LOCAL : iteracao 3
[5.48, 2.51, 8.32, 3.06, 9.41, 3.9, 6.51, 1.0, 0.29, 3.9, 5.96, 3.92, 4.12] - FIT: 22.0
DECK0 FR0ZEN’S N’ZOTH PALADIN - 5
DECK1 YULSIC’S MIDRANGE SHAMAN - 2
DECK2 AMNESIAC’S SECRET FACE - 3
DECK3 TAREI’S WARLOCK ZOO - 5
DECK4 CHE0NSU’S YOGG TEMPO MAGE - 2
DECK5 JASONZHOU’S N’ZOTH CONTROL WARRIOR - 5


-- Nova iteraçao --
-- Populacao inicial, iteracao 4 --
[3.47, 9.08, 1.64, 3.67, 9.53, 2.02, 8.05, 3.28, 2.08, 6.14, 2.02, 2.27, 5.96] - FIT: -Infinity
[5.29, 7.4, 6.97, 0.26, 1.9, 9.62, 6.55, 5.49, 7.04, 9.63, 7.09, 4.21, 2.26] - FIT: -Infinity
[9.21, 9.05, 3.08, 6.73, 4.95, 1.52, 3.8, 6.72, 0.56, 8.63, 7.93, 7.6, 2.33] - FIT: -Infinity
[1.1, 6.09, 2.82, 0.69, 8.58, 4.79, 8.07, 1.28, 6.41, 5.63, 3.61, 2.88, 3.9] - FIT: -Infinity
[9.74, 2.25, 5.89, 9.99, 7.5, 5.83, 3.97, 5.81, 7.54, 8.22, 4.02, 3.43, 1.43] - FIT: -Infinity
[8.71, 4.12, 4.32, 0.38, 5.58, 6.8, 1.14, 8.2, 6.13, 5.67, 1.86, 0.21, 5.89] - FIT: -Infinity
[6.49, 5.32, 1.57, 6.95, 0.03, 3.81, 9.32, 2.34, 2.95, 8.96, 1.91, 1.22, 4.46] - FIT: -Infinity
[3.88, 6.58, 7.44, 1.61, 6.41, 9.86, 2.18, 2.55, 5.23, 8.82, 0.06, 8.26, 3.26] - FIT: -Infinity
[1.08, 6.75, 5.27, 0.29, 9.77, 5.54, 8.53, 0.07, 5.5, 9.38, 1.49, 5.13, 1.2] - FIT: -Infinity
[5.19, 2.41, 6.83, 7.19, 6.84, 9.72, 6.37, 3.49, 3.97, 6.68, 7.58, 3.1, 4.18] - FIT: -Infinity
[5.05, 1.41, 5.44, 7.66, 0.55, 7.04, 1.83, 4.01, 7.96, 5.14, 5.33, 3.26, 2.41] - FIT: -Infinity
[3.75, 5.91, 4.6, 4.12, 8.73, 8.28, 8.96, 8.06, 6.55, 3.36, 3.91, 6.69, 8.7] - FIT: -Infinity
[6.83, 2.4, 3.16, 3.97, 7.29, 9.97, 5.34, 6.92, 4.66, 8.66, 5.41, 8.15, 4.28] - FIT: -Infinity
[9.78, 8.52, 4.8, 5.59, 1.49, 4.17, 8.05, 5.19, 2.13, 8.02, 7.12, 2.63, 4.45] - FIT: -Infinity
[7.96, 8.65, 4.23, 1.58, 7.64, 3.89, 4.23, 0.35, 2.69, 5.55, 4.92, 3.82, 9.75] - FIT: -Infinity
[0.81, 7.61, 0.6, 5.88, 6.99, 3.72, 4.91, 6.71, 1.4, 1.22, 8.11, 4.83, 7.68] - FIT: -Infinity
[5.04, 9.33, 5.88, 6.7, 1.16, 9.96, 9.06, 1.27, 3.42, 4.61, 0.13, 0.44, 8.76] - FIT: -Infinity
[8.85, 9.83, 0.94, 1.41, 2.32, 7.76, 0.5, 9.06, 4.38, 2.11, 0.05, 4.22, 8.13] - FIT: -Infinity
[8.5, 9.84, 2.41, 8.11, 6.94, 7.2, 4.42, 5.95, 4.74, 2.44, 3.88, 8.63, 4.33] - FIT: -Infinity
[2.66, 2.88, 3.58, 9.44, 2.55, 7.77, 5.43, 9.82, 5.52, 4.33, 0.14, 5.02, 7.79] - FIT: -Infinity
[6.91, 2.84, 9.79, 3.62, 8.4, 7.51, 9.68, 9.38, 8.98, 7.88, 3.51, 0.45, 9.88] - FIT: -Infinity
[1.15, 0.28, 5.09, 4.56, 8.31, 2.37, 6.19, 3.96, 7.49, 3.45, 3.06, 4.2, 9.53] - FIT: -Infinity
[8.86, 2.05, 4.97, 8.32, 8.99, 7.3, 4.13, 1.9, 0.96, 0.03, 9.67, 4.31, 2.11] - FIT: -Infinity
[7.73, 2.96, 1.93, 9.58, 2.41, 8.52, 3.06, 3.7, 0.83, 4.0, 3.88, 9.54, 7.89] - FIT: -Infinity
[0.85, 8.98, 0.14, 8.69, 0.45, 0.51, 6.8, 3.84, 2.55, 5.09, 6.92, 7.36, 3.25] - FIT: -Infinity
[4.16, 7.44, 6.48, 7.06, 9.43, 2.36, 7.59, 3.69, 2.06, 6.14, 3.6, 3.35, 0.84] - FIT: -Infinity
[0.95, 3.55, 5.68, 2.15, 4.56, 6.42, 6.71, 1.95, 7.48, 7.88, 4.69, 8.09, 2.4] - FIT: -Infinity
[0.33, 0.86, 9.16, 6.42, 3.55, 3.29, 4.96, 6.65, 6.23, 2.44, 2.33, 2.91, 5.73] - FIT: -Infinity
[5.4, 9.19, 6.68, 6.95, 1.21, 9.17, 4.6, 9.46, 4.05, 9.18, 5.65, 5.57, 2.09] - FIT: -Infinity
[1.77, 5.87, 1.15, 9.72, 5.38, 1.12, 5.28, 7.4, 5.46, 8.56, 4.56, 9.25, 1.04] - FIT: -Infinity
[0.02, 2.4, 0.35, 2.45, 5.81, 4.59, 7.28, 7.47, 6.14, 7.2, 3.18, 5.34, 8.09] - FIT: -Infinity
[4.37, 5.15, 0.15, 0.15, 9.35, 6.05, 7.92, 3.08, 3.85, 4.28, 4.33, 5.27, 7.4] - FIT: -Infinity
[5.04, 3.49, 3.39, 0.68, 4.06, 1.61, 3.81, 4.2, 0.21, 3.1, 8.9, 6.32, 6.11] - FIT: -Infinity
[1.13, 2.45, 2.77, 7.43, 8.74, 2.58, 3.3, 9.9, 1.7, 6.62, 9.39, 9.62, 9.15] - FIT: -Infinity
[1.66, 1.57, 6.94, 3.69, 6.87, 3.42, 6.13, 8.1, 8.0, 4.75, 3.07, 1.96, 2.53] - FIT: -Infinity
[5.72, 1.17, 7.9, 4.45, 9.35, 1.29, 3.61, 0.47, 0.17, 4.7, 2.98, 6.24, 2.75] - FIT: -Infinity
[9.8, 6.8, 9.45, 5.04, 1.85, 1.17, 8.91, 7.89, 2.38, 9.54, 2.8, 3.81, 9.23] - FIT: -Infinity
[2.73, 7.06, 5.59, 0.94, 9.57, 4.78, 7.18, 9.33, 9.68, 0.37, 7.51, 2.49, 9.33] - FIT: -Infinity
[8.55, 0.84, 6.14, 0.33, 6.04, 5.36, 5.09, 2.09, 6.04, 5.83, 8.32, 6.8, 9.28] - FIT: -Infinity
[4.73, 0.24, 8.21, 2.57, 0.87, 8.2, 5.29, 5.95, 3.98, 1.2, 2.7, 1.6, 8.67] - FIT: -Infinity

BEST LOCAL : iteracao 4
[4.16, 7.44, 6.48, 7.06, 9.43, 2.36, 7.59, 3.69, 2.06, 6.14, 3.6, 3.35, 0.84] - FIT: 20.0
DECK0 AMNESIAC’S SECRET FACE - 3
DECK1 FR0ZEN’S N’ZOTH PALADIN - 4
DECK2 CHE0NSU’S YOGG TEMPO MAGE - 4
DECK3 YULSIC’S MIDRANGE SHAMAN - 2
DECK4 TAREI’S WARLOCK ZOO - 2
DECK5 JASONZHOU’S N’ZOTH CONTROL WARRIOR - 5

BEST LOCAL : iteracao 4
[4.16, 7.44, 6.48, 7.06, 2.12, 2.36, 7.59, 3.69, 2.06, 6.14, 3.6, 3.35, 0.84] - FIT: 22.0
DECK0 FR0ZEN’S N’ZOTH PALADIN - 5
DECK1 CHE0NSU’S YOGG TEMPO MAGE - 1
DECK2 JASONZHOU’S N’ZOTH CONTROL WARRIOR - 4
DECK3 AMNESIAC’S SECRET FACE - 5
DECK4 TAREI’S WARLOCK ZOO - 3
DECK5 YULSIC’S MIDRANGE SHAMAN - 4

BEST LOCAL : iteracao 4
[4.16, 7.44, 6.48, 9.11, 9.43, 2.36, 7.59, 3.69, 2.06, 6.14, 3.6, 3.35, 0.84] - FIT: 23.0
DECK0 CHE0NSU’S YOGG TEMPO MAGE - 4
DECK1 JASONZHOU’S N’ZOTH CONTROL WARRIOR - 2
DECK2 YULSIC’S MIDRANGE SHAMAN - 0
DECK3 AMNESIAC’S SECRET FACE - 6
DECK4 TAREI’S WARLOCK ZOO - 3
DECK5 FR0ZEN’S N’ZOTH PALADIN - 8

BEST LOCAL : iteracao 4
[8.86, 2.05, 4.97, 8.32, 8.99, 7.3, 7.59, 1.64, 2.06, 6.14, 3.6, 3.35, 0.84] - FIT: 21.0
DECK0 YULSIC’S MIDRANGE SHAMAN - 3
DECK1 AMNESIAC’S SECRET FACE - 4
DECK2 FR0ZEN’S N’ZOTH PALADIN - 4
DECK3 TAREI’S WARLOCK ZOO - 1
DECK4 CHE0NSU’S YOGG TEMPO MAGE - 2
DECK5 JASONZHOU’S N’ZOTH CONTROL WARRIOR - 7


-- Nova iteraçao --
-- Populacao inicial, iteracao 5 --
[1.84, 1.05, 1.02, 2.44, 6.3, 7.8, 3.77, 0.6, 2.16, 5.51, 6.33, 9.22, 7.5] - FIT: -Infinity
[3.36, 5.93, 8.44, 0.42, 5.05, 4.0, 8.64, 6.74, 0.11, 7.65, 6.84, 0.45, 6.38] - FIT: -Infinity
[4.75, 8.38, 8.37, 3.52, 9.22, 2.17, 2.7, 9.75, 0.53, 1.53, 0.46, 1.07, 7.04] - FIT: -Infinity
[6.45, 6.58, 5.36, 5.46, 7.1, 8.38, 1.47, 0.15, 3.11, 2.74, 7.05, 4.38, 7.75] - FIT: -Infinity
[3.6, 7.38, 2.51, 1.35, 6.74, 1.47, 6.13, 3.47, 0.79, 1.15, 9.75, 9.47, 8.33] - FIT: -Infinity
[3.29, 1.33, 2.6, 8.45, 5.35, 1.01, 9.54, 2.89, 9.71, 6.83, 3.84, 0.91, 2.63] - FIT: -Infinity
[9.73, 8.38, 4.17, 9.88, 1.65, 5.74, 2.14, 1.78, 9.03, 2.58, 9.79, 7.44, 1.56] - FIT: -Infinity
[2.17, 4.17, 9.36, 0.34, 7.46, 3.89, 6.79, 2.02, 5.41, 5.39, 8.92, 6.31, 2.56] - FIT: -Infinity
[3.18, 6.26, 1.77, 0.32, 6.77, 2.09, 1.25, 8.68, 5.79, 3.91, 1.76, 6.11, 6.18] - FIT: -Infinity
[8.59, 5.32, 4.02, 4.37, 4.05, 6.66, 4.35, 3.77, 4.41, 0.78, 9.45, 7.47, 5.2] - FIT: -Infinity
[8.58, 4.68, 3.65, 0.33, 1.33, 5.45, 6.08, 2.55, 5.49, 1.77, 9.86, 4.82, 8.11] - FIT: -Infinity
[5.83, 4.1, 0.77, 8.68, 0.03, 6.87, 8.7, 8.13, 5.59, 4.57, 5.13, 6.84, 4.79] - FIT: -Infinity
[7.51, 0.46, 3.81, 3.14, 5.65, 1.74, 6.28, 1.15, 3.71, 4.67, 4.5, 9.38, 3.02] - FIT: -Infinity
[0.02, 9.62, 4.5, 7.8, 7.42, 3.44, 8.6, 7.76, 3.02, 7.58, 8.72, 4.82, 6.1] - FIT: -Infinity
[6.26, 8.77, 1.28, 3.86, 1.2, 1.12, 8.69, 2.65, 9.33, 1.36, 1.52, 8.86, 4.13] - FIT: -Infinity
[5.19, 7.5, 2.34, 9.05, 3.09, 6.85, 0.57, 7.29, 5.11, 5.89, 2.47, 5.54, 4.7] - FIT: -Infinity
[6.94, 6.34, 0.58, 8.25, 4.76, 7.9, 6.69, 4.31, 2.12, 0.63, 8.84, 4.36, 1.25] - FIT: -Infinity
[2.73, 1.0, 5.39, 5.29, 1.66, 1.89, 2.91, 4.3, 0.27, 0.31, 1.87, 3.04, 5.66] - FIT: -Infinity
[0.76, 2.25, 3.65, 5.46, 5.75, 5.39, 5.14, 4.27, 4.93, 6.92, 2.61, 6.81, 3.04] - FIT: -Infinity
[2.37, 3.85, 3.37, 7.69, 1.83, 7.51, 7.25, 5.43, 0.71, 7.3, 3.88, 9.5, 4.77] - FIT: -Infinity
[9.08, 5.74, 5.45, 8.92, 3.37, 7.86, 1.49, 0.82, 3.77, 4.14, 8.85, 2.49, 3.44] - FIT: -Infinity
[5.34, 3.76, 5.12, 5.14, 6.21, 6.61, 5.21, 7.32, 0.31, 5.86, 2.7, 8.42, 8.15] - FIT: -Infinity
[3.79, 5.34, 3.6, 6.31, 9.06, 6.69, 3.42, 2.57, 5.81, 9.32, 2.11, 4.94, 2.69] - FIT: -Infinity
[8.71, 3.63, 0.42, 5.95, 7.9, 7.38, 2.83, 9.24, 7.68, 2.03, 7.6, 9.94, 2.31] - FIT: -Infinity
[4.87, 5.38, 5.47, 5.89, 6.3, 5.9, 6.01, 0.59, 4.02, 7.74, 9.28, 3.62, 8.8] - FIT: -Infinity
[9.95, 1.59, 6.42, 4.7, 6.41, 4.49, 6.03, 9.29, 4.74, 9.94, 5.66, 6.2, 6.93] - FIT: -Infinity
[8.37, 8.71, 0.58, 0.63, 2.76, 8.1, 0.31, 5.98, 9.02, 0.62, 0.07, 5.15, 7.39] - FIT: -Infinity
[4.37, 2.68, 8.44, 2.44, 5.66, 2.56, 3.63, 9.23, 0.73, 8.91, 2.64, 1.43, 6.82] - FIT: -Infinity
[1.99, 2.98, 3.32, 6.51, 4.68, 9.45, 1.09, 8.97, 2.72, 5.61, 0.62, 2.06, 1.34] - FIT: -Infinity
[3.32, 8.16, 9.33, 3.03, 2.84, 7.75, 7.0, 1.1, 6.06, 3.88, 6.7, 6.2, 9.74] - FIT: -Infinity
[1.1, 1.39, 8.56, 6.4, 2.63, 3.32, 7.13, 5.83, 8.67, 4.89, 7.47, 1.01, 1.1] - FIT: -Infinity
[5.72, 4.74, 8.55, 5.79, 1.45, 4.43, 5.24, 5.09, 3.22, 3.05, 8.88, 3.12, 9.45] - FIT: -Infinity
[3.73, 4.13, 3.92, 5.45, 6.26, 1.02, 7.8, 0.05, 9.68, 6.93, 4.34, 2.65, 5.77] - FIT: -Infinity
[0.67, 1.48, 8.53, 5.82, 0.75, 8.99, 5.06, 9.33, 8.62, 0.92, 6.42, 2.32, 1.53] - FIT: -Infinity
[6.39, 0.16, 5.38, 9.21, 9.85, 4.18, 5.99, 2.94, 2.37, 9.12, 7.74, 5.58, 2.98] - FIT: -Infinity
[7.29, 9.19, 6.53, 5.02, 6.08, 8.62, 5.96, 5.63, 0.45, 6.97, 8.53, 7.99, 6.79] - FIT: -Infinity
[0.2, 8.17, 4.94, 7.71, 3.92, 1.76, 9.31, 5.23, 7.83, 1.53, 1.27, 8.41, 4.87] - FIT: -Infinity
[3.07, 5.45, 9.46, 9.91, 8.16, 0.55, 1.55, 6.09, 9.61, 2.96, 0.72, 2.55, 8.12] - FIT: -Infinity
[1.21, 3.5, 5.92, 9.59, 2.21, 1.8, 9.28, 5.28, 1.69, 6.8, 6.73, 5.6, 0.66] - FIT: -Infinity
[3.65, 8.57, 3.35, 6.87, 9.91, 1.96, 1.26, 5.28, 1.41, 4.69, 3.91, 4.47, 0.52] - FIT: -Infinity

----> BEST : iteracao 5
[0.12, 1.2, 6.55, 7.3, 4.69, 3.01, 9.88, 5.47, 5.79, 4.81, 6.2, 4.2, 2.44] - FIT: 26.0
DECK0 AMNESIAC’S SECRET FACE - 8
DECK1 FR0ZEN’S N’ZOTH PALADIN - 2
DECK2 TAREI’S WARLOCK ZOO - 4
DECK3 CHE0NSU’S YOGG TEMPO MAGE - 3
DECK4 JASONZHOU’S N’ZOTH CONTROL WARRIOR - 3
DECK5 YULSIC’S MIDRANGE SHAMAN - 6
